%!PS-Adobe-2.0 EPSF-1.2
%%BoundingBox: 0 0 715 530
%%Pages: 1
%%EndComments
75 90 moveto
75 90 moveto
0 7.84314 rlineto
1 setlinewidth
0.8 0.8 0.8 setrgbcolor
stroke
75 105.686 moveto
0 7.84314 rlineto
1 setlinewidth
0.8 0.8 0.8 setrgbcolor
stroke
75 121.373 moveto
0 7.84314 rlineto
1 setlinewidth
0.8 0.8 0.8 setrgbcolor
stroke
75 137.059 moveto
0 7.84314 rlineto
1 setlinewidth
0.8 0.8 0.8 setrgbcolor
stroke
75 152.745 moveto
0 7.84314 rlineto
1 setlinewidth
0.8 0.8 0.8 setrgbcolor
stroke
75 168.431 moveto
0 7.84314 rlineto
1 setlinewidth
0.8 0.8 0.8 setrgbcolor
stroke
75 184.118 moveto
0 7.84314 rlineto
1 setlinewidth
0.8 0.8 0.8 setrgbcolor
stroke
75 199.804 moveto
0 7.84314 rlineto
1 setlinewidth
0.8 0.8 0.8 setrgbcolor
stroke
75 215.49 moveto
0 7.84314 rlineto
1 setlinewidth
0.8 0.8 0.8 setrgbcolor
stroke
75 231.176 moveto
0 7.84314 rlineto
1 setlinewidth
0.8 0.8 0.8 setrgbcolor
stroke
75 246.863 moveto
0 7.84314 rlineto
1 setlinewidth
0.8 0.8 0.8 setrgbcolor
stroke
75 262.549 moveto
0 7.84314 rlineto
1 setlinewidth
0.8 0.8 0.8 setrgbcolor
stroke
75 278.235 moveto
0 7.84314 rlineto
1 setlinewidth
0.8 0.8 0.8 setrgbcolor
stroke
75 293.922 moveto
0 7.84314 rlineto
1 setlinewidth
0.8 0.8 0.8 setrgbcolor
stroke
75 309.608 moveto
0 7.84314 rlineto
1 setlinewidth
0.8 0.8 0.8 setrgbcolor
stroke
75 325.294 moveto
0 7.84314 rlineto
1 setlinewidth
0.8 0.8 0.8 setrgbcolor
stroke
75 340.98 moveto
0 7.84314 rlineto
1 setlinewidth
0.8 0.8 0.8 setrgbcolor
stroke
75 356.667 moveto
0 7.84314 rlineto
1 setlinewidth
0.8 0.8 0.8 setrgbcolor
stroke
75 372.353 moveto
0 7.84314 rlineto
1 setlinewidth
0.8 0.8 0.8 setrgbcolor
stroke
75 388.039 moveto
0 7.84314 rlineto
1 setlinewidth
0.8 0.8 0.8 setrgbcolor
stroke
75 403.725 moveto
0 7.84314 rlineto
1 setlinewidth
0.8 0.8 0.8 setrgbcolor
stroke
75 419.412 moveto
0 7.84314 rlineto
1 setlinewidth
0.8 0.8 0.8 setrgbcolor
stroke
75 435.098 moveto
0 7.84314 rlineto
1 setlinewidth
0.8 0.8 0.8 setrgbcolor
stroke
75 450.784 moveto
0 7.84314 rlineto
1 setlinewidth
0.8 0.8 0.8 setrgbcolor
stroke
75 466.471 moveto
0 7.84314 rlineto
1 setlinewidth
0.8 0.8 0.8 setrgbcolor
stroke
75 482.157 moveto
0 7.84314 rlineto
1 setlinewidth
0.8 0.8 0.8 setrgbcolor
stroke
141.667 90 moveto
141.667 90 moveto
0 7.84314 rlineto
1 setlinewidth
0.8 0.8 0.8 setrgbcolor
stroke
141.667 105.686 moveto
0 7.84314 rlineto
1 setlinewidth
0.8 0.8 0.8 setrgbcolor
stroke
141.667 121.373 moveto
0 7.84314 rlineto
1 setlinewidth
0.8 0.8 0.8 setrgbcolor
stroke
141.667 137.059 moveto
0 7.84314 rlineto
1 setlinewidth
0.8 0.8 0.8 setrgbcolor
stroke
141.667 152.745 moveto
0 7.84314 rlineto
1 setlinewidth
0.8 0.8 0.8 setrgbcolor
stroke
141.667 168.431 moveto
0 7.84314 rlineto
1 setlinewidth
0.8 0.8 0.8 setrgbcolor
stroke
141.667 184.118 moveto
0 7.84314 rlineto
1 setlinewidth
0.8 0.8 0.8 setrgbcolor
stroke
141.667 199.804 moveto
0 7.84314 rlineto
1 setlinewidth
0.8 0.8 0.8 setrgbcolor
stroke
141.667 215.49 moveto
0 7.84314 rlineto
1 setlinewidth
0.8 0.8 0.8 setrgbcolor
stroke
141.667 231.176 moveto
0 7.84314 rlineto
1 setlinewidth
0.8 0.8 0.8 setrgbcolor
stroke
141.667 246.863 moveto
0 7.84314 rlineto
1 setlinewidth
0.8 0.8 0.8 setrgbcolor
stroke
141.667 262.549 moveto
0 7.84314 rlineto
1 setlinewidth
0.8 0.8 0.8 setrgbcolor
stroke
141.667 278.235 moveto
0 7.84314 rlineto
1 setlinewidth
0.8 0.8 0.8 setrgbcolor
stroke
141.667 293.922 moveto
0 7.84314 rlineto
1 setlinewidth
0.8 0.8 0.8 setrgbcolor
stroke
141.667 309.608 moveto
0 7.84314 rlineto
1 setlinewidth
0.8 0.8 0.8 setrgbcolor
stroke
141.667 325.294 moveto
0 7.84314 rlineto
1 setlinewidth
0.8 0.8 0.8 setrgbcolor
stroke
141.667 340.98 moveto
0 7.84314 rlineto
1 setlinewidth
0.8 0.8 0.8 setrgbcolor
stroke
141.667 356.667 moveto
0 7.84314 rlineto
1 setlinewidth
0.8 0.8 0.8 setrgbcolor
stroke
141.667 372.353 moveto
0 7.84314 rlineto
1 setlinewidth
0.8 0.8 0.8 setrgbcolor
stroke
141.667 388.039 moveto
0 7.84314 rlineto
1 setlinewidth
0.8 0.8 0.8 setrgbcolor
stroke
141.667 403.725 moveto
0 7.84314 rlineto
1 setlinewidth
0.8 0.8 0.8 setrgbcolor
stroke
141.667 419.412 moveto
0 7.84314 rlineto
1 setlinewidth
0.8 0.8 0.8 setrgbcolor
stroke
141.667 435.098 moveto
0 7.84314 rlineto
1 setlinewidth
0.8 0.8 0.8 setrgbcolor
stroke
141.667 450.784 moveto
0 7.84314 rlineto
1 setlinewidth
0.8 0.8 0.8 setrgbcolor
stroke
141.667 466.471 moveto
0 7.84314 rlineto
1 setlinewidth
0.8 0.8 0.8 setrgbcolor
stroke
141.667 482.157 moveto
0 7.84314 rlineto
1 setlinewidth
0.8 0.8 0.8 setrgbcolor
stroke
208.333 90 moveto
208.333 90 moveto
0 7.84314 rlineto
1 setlinewidth
0.8 0.8 0.8 setrgbcolor
stroke
208.333 105.686 moveto
0 7.84314 rlineto
1 setlinewidth
0.8 0.8 0.8 setrgbcolor
stroke
208.333 121.373 moveto
0 7.84314 rlineto
1 setlinewidth
0.8 0.8 0.8 setrgbcolor
stroke
208.333 137.059 moveto
0 7.84314 rlineto
1 setlinewidth
0.8 0.8 0.8 setrgbcolor
stroke
208.333 152.745 moveto
0 7.84314 rlineto
1 setlinewidth
0.8 0.8 0.8 setrgbcolor
stroke
208.333 168.431 moveto
0 7.84314 rlineto
1 setlinewidth
0.8 0.8 0.8 setrgbcolor
stroke
208.333 184.118 moveto
0 7.84314 rlineto
1 setlinewidth
0.8 0.8 0.8 setrgbcolor
stroke
208.333 199.804 moveto
0 7.84314 rlineto
1 setlinewidth
0.8 0.8 0.8 setrgbcolor
stroke
208.333 215.49 moveto
0 7.84314 rlineto
1 setlinewidth
0.8 0.8 0.8 setrgbcolor
stroke
208.333 231.176 moveto
0 7.84314 rlineto
1 setlinewidth
0.8 0.8 0.8 setrgbcolor
stroke
208.333 246.863 moveto
0 7.84314 rlineto
1 setlinewidth
0.8 0.8 0.8 setrgbcolor
stroke
208.333 262.549 moveto
0 7.84314 rlineto
1 setlinewidth
0.8 0.8 0.8 setrgbcolor
stroke
208.333 278.235 moveto
0 7.84314 rlineto
1 setlinewidth
0.8 0.8 0.8 setrgbcolor
stroke
208.333 293.922 moveto
0 7.84314 rlineto
1 setlinewidth
0.8 0.8 0.8 setrgbcolor
stroke
208.333 309.608 moveto
0 7.84314 rlineto
1 setlinewidth
0.8 0.8 0.8 setrgbcolor
stroke
208.333 325.294 moveto
0 7.84314 rlineto
1 setlinewidth
0.8 0.8 0.8 setrgbcolor
stroke
208.333 340.98 moveto
0 7.84314 rlineto
1 setlinewidth
0.8 0.8 0.8 setrgbcolor
stroke
208.333 356.667 moveto
0 7.84314 rlineto
1 setlinewidth
0.8 0.8 0.8 setrgbcolor
stroke
208.333 372.353 moveto
0 7.84314 rlineto
1 setlinewidth
0.8 0.8 0.8 setrgbcolor
stroke
208.333 388.039 moveto
0 7.84314 rlineto
1 setlinewidth
0.8 0.8 0.8 setrgbcolor
stroke
208.333 403.725 moveto
0 7.84314 rlineto
1 setlinewidth
0.8 0.8 0.8 setrgbcolor
stroke
208.333 419.412 moveto
0 7.84314 rlineto
1 setlinewidth
0.8 0.8 0.8 setrgbcolor
stroke
208.333 435.098 moveto
0 7.84314 rlineto
1 setlinewidth
0.8 0.8 0.8 setrgbcolor
stroke
208.333 450.784 moveto
0 7.84314 rlineto
1 setlinewidth
0.8 0.8 0.8 setrgbcolor
stroke
208.333 466.471 moveto
0 7.84314 rlineto
1 setlinewidth
0.8 0.8 0.8 setrgbcolor
stroke
208.333 482.157 moveto
0 7.84314 rlineto
1 setlinewidth
0.8 0.8 0.8 setrgbcolor
stroke
275 90 moveto
275 90 moveto
0 7.84314 rlineto
1 setlinewidth
0.8 0.8 0.8 setrgbcolor
stroke
275 105.686 moveto
0 7.84314 rlineto
1 setlinewidth
0.8 0.8 0.8 setrgbcolor
stroke
275 121.373 moveto
0 7.84314 rlineto
1 setlinewidth
0.8 0.8 0.8 setrgbcolor
stroke
275 137.059 moveto
0 7.84314 rlineto
1 setlinewidth
0.8 0.8 0.8 setrgbcolor
stroke
275 152.745 moveto
0 7.84314 rlineto
1 setlinewidth
0.8 0.8 0.8 setrgbcolor
stroke
275 168.431 moveto
0 7.84314 rlineto
1 setlinewidth
0.8 0.8 0.8 setrgbcolor
stroke
275 184.118 moveto
0 7.84314 rlineto
1 setlinewidth
0.8 0.8 0.8 setrgbcolor
stroke
275 199.804 moveto
0 7.84314 rlineto
1 setlinewidth
0.8 0.8 0.8 setrgbcolor
stroke
275 215.49 moveto
0 7.84314 rlineto
1 setlinewidth
0.8 0.8 0.8 setrgbcolor
stroke
275 231.176 moveto
0 7.84314 rlineto
1 setlinewidth
0.8 0.8 0.8 setrgbcolor
stroke
275 246.863 moveto
0 7.84314 rlineto
1 setlinewidth
0.8 0.8 0.8 setrgbcolor
stroke
275 262.549 moveto
0 7.84314 rlineto
1 setlinewidth
0.8 0.8 0.8 setrgbcolor
stroke
275 278.235 moveto
0 7.84314 rlineto
1 setlinewidth
0.8 0.8 0.8 setrgbcolor
stroke
275 293.922 moveto
0 7.84314 rlineto
1 setlinewidth
0.8 0.8 0.8 setrgbcolor
stroke
275 309.608 moveto
0 7.84314 rlineto
1 setlinewidth
0.8 0.8 0.8 setrgbcolor
stroke
275 325.294 moveto
0 7.84314 rlineto
1 setlinewidth
0.8 0.8 0.8 setrgbcolor
stroke
275 340.98 moveto
0 7.84314 rlineto
1 setlinewidth
0.8 0.8 0.8 setrgbcolor
stroke
275 356.667 moveto
0 7.84314 rlineto
1 setlinewidth
0.8 0.8 0.8 setrgbcolor
stroke
275 372.353 moveto
0 7.84314 rlineto
1 setlinewidth
0.8 0.8 0.8 setrgbcolor
stroke
275 388.039 moveto
0 7.84314 rlineto
1 setlinewidth
0.8 0.8 0.8 setrgbcolor
stroke
275 403.725 moveto
0 7.84314 rlineto
1 setlinewidth
0.8 0.8 0.8 setrgbcolor
stroke
275 419.412 moveto
0 7.84314 rlineto
1 setlinewidth
0.8 0.8 0.8 setrgbcolor
stroke
275 435.098 moveto
0 7.84314 rlineto
1 setlinewidth
0.8 0.8 0.8 setrgbcolor
stroke
275 450.784 moveto
0 7.84314 rlineto
1 setlinewidth
0.8 0.8 0.8 setrgbcolor
stroke
275 466.471 moveto
0 7.84314 rlineto
1 setlinewidth
0.8 0.8 0.8 setrgbcolor
stroke
275 482.157 moveto
0 7.84314 rlineto
1 setlinewidth
0.8 0.8 0.8 setrgbcolor
stroke
341.667 90 moveto
341.667 90 moveto
0 7.84314 rlineto
1 setlinewidth
0.8 0.8 0.8 setrgbcolor
stroke
341.667 105.686 moveto
0 7.84314 rlineto
1 setlinewidth
0.8 0.8 0.8 setrgbcolor
stroke
341.667 121.373 moveto
0 7.84314 rlineto
1 setlinewidth
0.8 0.8 0.8 setrgbcolor
stroke
341.667 137.059 moveto
0 7.84314 rlineto
1 setlinewidth
0.8 0.8 0.8 setrgbcolor
stroke
341.667 152.745 moveto
0 7.84314 rlineto
1 setlinewidth
0.8 0.8 0.8 setrgbcolor
stroke
341.667 168.431 moveto
0 7.84314 rlineto
1 setlinewidth
0.8 0.8 0.8 setrgbcolor
stroke
341.667 184.118 moveto
0 7.84314 rlineto
1 setlinewidth
0.8 0.8 0.8 setrgbcolor
stroke
341.667 199.804 moveto
0 7.84314 rlineto
1 setlinewidth
0.8 0.8 0.8 setrgbcolor
stroke
341.667 215.49 moveto
0 7.84314 rlineto
1 setlinewidth
0.8 0.8 0.8 setrgbcolor
stroke
341.667 231.176 moveto
0 7.84314 rlineto
1 setlinewidth
0.8 0.8 0.8 setrgbcolor
stroke
341.667 246.863 moveto
0 7.84314 rlineto
1 setlinewidth
0.8 0.8 0.8 setrgbcolor
stroke
341.667 262.549 moveto
0 7.84314 rlineto
1 setlinewidth
0.8 0.8 0.8 setrgbcolor
stroke
341.667 278.235 moveto
0 7.84314 rlineto
1 setlinewidth
0.8 0.8 0.8 setrgbcolor
stroke
341.667 293.922 moveto
0 7.84314 rlineto
1 setlinewidth
0.8 0.8 0.8 setrgbcolor
stroke
341.667 309.608 moveto
0 7.84314 rlineto
1 setlinewidth
0.8 0.8 0.8 setrgbcolor
stroke
341.667 325.294 moveto
0 7.84314 rlineto
1 setlinewidth
0.8 0.8 0.8 setrgbcolor
stroke
341.667 340.98 moveto
0 7.84314 rlineto
1 setlinewidth
0.8 0.8 0.8 setrgbcolor
stroke
341.667 356.667 moveto
0 7.84314 rlineto
1 setlinewidth
0.8 0.8 0.8 setrgbcolor
stroke
341.667 372.353 moveto
0 7.84314 rlineto
1 setlinewidth
0.8 0.8 0.8 setrgbcolor
stroke
341.667 388.039 moveto
0 7.84314 rlineto
1 setlinewidth
0.8 0.8 0.8 setrgbcolor
stroke
341.667 403.725 moveto
0 7.84314 rlineto
1 setlinewidth
0.8 0.8 0.8 setrgbcolor
stroke
341.667 419.412 moveto
0 7.84314 rlineto
1 setlinewidth
0.8 0.8 0.8 setrgbcolor
stroke
341.667 435.098 moveto
0 7.84314 rlineto
1 setlinewidth
0.8 0.8 0.8 setrgbcolor
stroke
341.667 450.784 moveto
0 7.84314 rlineto
1 setlinewidth
0.8 0.8 0.8 setrgbcolor
stroke
341.667 466.471 moveto
0 7.84314 rlineto
1 setlinewidth
0.8 0.8 0.8 setrgbcolor
stroke
341.667 482.157 moveto
0 7.84314 rlineto
1 setlinewidth
0.8 0.8 0.8 setrgbcolor
stroke
408.333 90 moveto
408.333 90 moveto
0 7.84314 rlineto
1 setlinewidth
0.8 0.8 0.8 setrgbcolor
stroke
408.333 105.686 moveto
0 7.84314 rlineto
1 setlinewidth
0.8 0.8 0.8 setrgbcolor
stroke
408.333 121.373 moveto
0 7.84314 rlineto
1 setlinewidth
0.8 0.8 0.8 setrgbcolor
stroke
408.333 137.059 moveto
0 7.84314 rlineto
1 setlinewidth
0.8 0.8 0.8 setrgbcolor
stroke
408.333 152.745 moveto
0 7.84314 rlineto
1 setlinewidth
0.8 0.8 0.8 setrgbcolor
stroke
408.333 168.431 moveto
0 7.84314 rlineto
1 setlinewidth
0.8 0.8 0.8 setrgbcolor
stroke
408.333 184.118 moveto
0 7.84314 rlineto
1 setlinewidth
0.8 0.8 0.8 setrgbcolor
stroke
408.333 199.804 moveto
0 7.84314 rlineto
1 setlinewidth
0.8 0.8 0.8 setrgbcolor
stroke
408.333 215.49 moveto
0 7.84314 rlineto
1 setlinewidth
0.8 0.8 0.8 setrgbcolor
stroke
408.333 231.176 moveto
0 7.84314 rlineto
1 setlinewidth
0.8 0.8 0.8 setrgbcolor
stroke
408.333 246.863 moveto
0 7.84314 rlineto
1 setlinewidth
0.8 0.8 0.8 setrgbcolor
stroke
408.333 262.549 moveto
0 7.84314 rlineto
1 setlinewidth
0.8 0.8 0.8 setrgbcolor
stroke
408.333 278.235 moveto
0 7.84314 rlineto
1 setlinewidth
0.8 0.8 0.8 setrgbcolor
stroke
408.333 293.922 moveto
0 7.84314 rlineto
1 setlinewidth
0.8 0.8 0.8 setrgbcolor
stroke
408.333 309.608 moveto
0 7.84314 rlineto
1 setlinewidth
0.8 0.8 0.8 setrgbcolor
stroke
408.333 325.294 moveto
0 7.84314 rlineto
1 setlinewidth
0.8 0.8 0.8 setrgbcolor
stroke
408.333 340.98 moveto
0 7.84314 rlineto
1 setlinewidth
0.8 0.8 0.8 setrgbcolor
stroke
408.333 356.667 moveto
0 7.84314 rlineto
1 setlinewidth
0.8 0.8 0.8 setrgbcolor
stroke
408.333 372.353 moveto
0 7.84314 rlineto
1 setlinewidth
0.8 0.8 0.8 setrgbcolor
stroke
408.333 388.039 moveto
0 7.84314 rlineto
1 setlinewidth
0.8 0.8 0.8 setrgbcolor
stroke
408.333 403.725 moveto
0 7.84314 rlineto
1 setlinewidth
0.8 0.8 0.8 setrgbcolor
stroke
408.333 419.412 moveto
0 7.84314 rlineto
1 setlinewidth
0.8 0.8 0.8 setrgbcolor
stroke
408.333 435.098 moveto
0 7.84314 rlineto
1 setlinewidth
0.8 0.8 0.8 setrgbcolor
stroke
408.333 450.784 moveto
0 7.84314 rlineto
1 setlinewidth
0.8 0.8 0.8 setrgbcolor
stroke
408.333 466.471 moveto
0 7.84314 rlineto
1 setlinewidth
0.8 0.8 0.8 setrgbcolor
stroke
408.333 482.157 moveto
0 7.84314 rlineto
1 setlinewidth
0.8 0.8 0.8 setrgbcolor
stroke
475 90 moveto
475 90 moveto
0 7.84314 rlineto
1 setlinewidth
0.8 0.8 0.8 setrgbcolor
stroke
475 105.686 moveto
0 7.84314 rlineto
1 setlinewidth
0.8 0.8 0.8 setrgbcolor
stroke
475 121.373 moveto
0 7.84314 rlineto
1 setlinewidth
0.8 0.8 0.8 setrgbcolor
stroke
475 137.059 moveto
0 7.84314 rlineto
1 setlinewidth
0.8 0.8 0.8 setrgbcolor
stroke
475 152.745 moveto
0 7.84314 rlineto
1 setlinewidth
0.8 0.8 0.8 setrgbcolor
stroke
475 168.431 moveto
0 7.84314 rlineto
1 setlinewidth
0.8 0.8 0.8 setrgbcolor
stroke
475 184.118 moveto
0 7.84314 rlineto
1 setlinewidth
0.8 0.8 0.8 setrgbcolor
stroke
475 199.804 moveto
0 7.84314 rlineto
1 setlinewidth
0.8 0.8 0.8 setrgbcolor
stroke
475 215.49 moveto
0 7.84314 rlineto
1 setlinewidth
0.8 0.8 0.8 setrgbcolor
stroke
475 231.176 moveto
0 7.84314 rlineto
1 setlinewidth
0.8 0.8 0.8 setrgbcolor
stroke
475 246.863 moveto
0 7.84314 rlineto
1 setlinewidth
0.8 0.8 0.8 setrgbcolor
stroke
475 262.549 moveto
0 7.84314 rlineto
1 setlinewidth
0.8 0.8 0.8 setrgbcolor
stroke
475 278.235 moveto
0 7.84314 rlineto
1 setlinewidth
0.8 0.8 0.8 setrgbcolor
stroke
475 293.922 moveto
0 7.84314 rlineto
1 setlinewidth
0.8 0.8 0.8 setrgbcolor
stroke
475 309.608 moveto
0 7.84314 rlineto
1 setlinewidth
0.8 0.8 0.8 setrgbcolor
stroke
475 325.294 moveto
0 7.84314 rlineto
1 setlinewidth
0.8 0.8 0.8 setrgbcolor
stroke
475 340.98 moveto
0 7.84314 rlineto
1 setlinewidth
0.8 0.8 0.8 setrgbcolor
stroke
475 356.667 moveto
0 7.84314 rlineto
1 setlinewidth
0.8 0.8 0.8 setrgbcolor
stroke
475 372.353 moveto
0 7.84314 rlineto
1 setlinewidth
0.8 0.8 0.8 setrgbcolor
stroke
475 388.039 moveto
0 7.84314 rlineto
1 setlinewidth
0.8 0.8 0.8 setrgbcolor
stroke
475 403.725 moveto
0 7.84314 rlineto
1 setlinewidth
0.8 0.8 0.8 setrgbcolor
stroke
475 419.412 moveto
0 7.84314 rlineto
1 setlinewidth
0.8 0.8 0.8 setrgbcolor
stroke
475 435.098 moveto
0 7.84314 rlineto
1 setlinewidth
0.8 0.8 0.8 setrgbcolor
stroke
475 450.784 moveto
0 7.84314 rlineto
1 setlinewidth
0.8 0.8 0.8 setrgbcolor
stroke
475 466.471 moveto
0 7.84314 rlineto
1 setlinewidth
0.8 0.8 0.8 setrgbcolor
stroke
475 482.157 moveto
0 7.84314 rlineto
1 setlinewidth
0.8 0.8 0.8 setrgbcolor
stroke
541.667 90 moveto
541.667 90 moveto
0 7.84314 rlineto
1 setlinewidth
0.8 0.8 0.8 setrgbcolor
stroke
541.667 105.686 moveto
0 7.84314 rlineto
1 setlinewidth
0.8 0.8 0.8 setrgbcolor
stroke
541.667 121.373 moveto
0 7.84314 rlineto
1 setlinewidth
0.8 0.8 0.8 setrgbcolor
stroke
541.667 137.059 moveto
0 7.84314 rlineto
1 setlinewidth
0.8 0.8 0.8 setrgbcolor
stroke
541.667 152.745 moveto
0 7.84314 rlineto
1 setlinewidth
0.8 0.8 0.8 setrgbcolor
stroke
541.667 168.431 moveto
0 7.84314 rlineto
1 setlinewidth
0.8 0.8 0.8 setrgbcolor
stroke
541.667 184.118 moveto
0 7.84314 rlineto
1 setlinewidth
0.8 0.8 0.8 setrgbcolor
stroke
541.667 199.804 moveto
0 7.84314 rlineto
1 setlinewidth
0.8 0.8 0.8 setrgbcolor
stroke
541.667 215.49 moveto
0 7.84314 rlineto
1 setlinewidth
0.8 0.8 0.8 setrgbcolor
stroke
541.667 231.176 moveto
0 7.84314 rlineto
1 setlinewidth
0.8 0.8 0.8 setrgbcolor
stroke
541.667 246.863 moveto
0 7.84314 rlineto
1 setlinewidth
0.8 0.8 0.8 setrgbcolor
stroke
541.667 262.549 moveto
0 7.84314 rlineto
1 setlinewidth
0.8 0.8 0.8 setrgbcolor
stroke
541.667 278.235 moveto
0 7.84314 rlineto
1 setlinewidth
0.8 0.8 0.8 setrgbcolor
stroke
541.667 293.922 moveto
0 7.84314 rlineto
1 setlinewidth
0.8 0.8 0.8 setrgbcolor
stroke
541.667 309.608 moveto
0 7.84314 rlineto
1 setlinewidth
0.8 0.8 0.8 setrgbcolor
stroke
541.667 325.294 moveto
0 7.84314 rlineto
1 setlinewidth
0.8 0.8 0.8 setrgbcolor
stroke
541.667 340.98 moveto
0 7.84314 rlineto
1 setlinewidth
0.8 0.8 0.8 setrgbcolor
stroke
541.667 356.667 moveto
0 7.84314 rlineto
1 setlinewidth
0.8 0.8 0.8 setrgbcolor
stroke
541.667 372.353 moveto
0 7.84314 rlineto
1 setlinewidth
0.8 0.8 0.8 setrgbcolor
stroke
541.667 388.039 moveto
0 7.84314 rlineto
1 setlinewidth
0.8 0.8 0.8 setrgbcolor
stroke
541.667 403.725 moveto
0 7.84314 rlineto
1 setlinewidth
0.8 0.8 0.8 setrgbcolor
stroke
541.667 419.412 moveto
0 7.84314 rlineto
1 setlinewidth
0.8 0.8 0.8 setrgbcolor
stroke
541.667 435.098 moveto
0 7.84314 rlineto
1 setlinewidth
0.8 0.8 0.8 setrgbcolor
stroke
541.667 450.784 moveto
0 7.84314 rlineto
1 setlinewidth
0.8 0.8 0.8 setrgbcolor
stroke
541.667 466.471 moveto
0 7.84314 rlineto
1 setlinewidth
0.8 0.8 0.8 setrgbcolor
stroke
541.667 482.157 moveto
0 7.84314 rlineto
1 setlinewidth
0.8 0.8 0.8 setrgbcolor
stroke
608.333 90 moveto
608.333 90 moveto
0 7.84314 rlineto
1 setlinewidth
0.8 0.8 0.8 setrgbcolor
stroke
608.333 105.686 moveto
0 7.84314 rlineto
1 setlinewidth
0.8 0.8 0.8 setrgbcolor
stroke
608.333 121.373 moveto
0 7.84314 rlineto
1 setlinewidth
0.8 0.8 0.8 setrgbcolor
stroke
608.333 137.059 moveto
0 7.84314 rlineto
1 setlinewidth
0.8 0.8 0.8 setrgbcolor
stroke
608.333 152.745 moveto
0 7.84314 rlineto
1 setlinewidth
0.8 0.8 0.8 setrgbcolor
stroke
608.333 168.431 moveto
0 7.84314 rlineto
1 setlinewidth
0.8 0.8 0.8 setrgbcolor
stroke
608.333 184.118 moveto
0 7.84314 rlineto
1 setlinewidth
0.8 0.8 0.8 setrgbcolor
stroke
608.333 199.804 moveto
0 7.84314 rlineto
1 setlinewidth
0.8 0.8 0.8 setrgbcolor
stroke
608.333 215.49 moveto
0 7.84314 rlineto
1 setlinewidth
0.8 0.8 0.8 setrgbcolor
stroke
608.333 231.176 moveto
0 7.84314 rlineto
1 setlinewidth
0.8 0.8 0.8 setrgbcolor
stroke
608.333 246.863 moveto
0 7.84314 rlineto
1 setlinewidth
0.8 0.8 0.8 setrgbcolor
stroke
608.333 262.549 moveto
0 7.84314 rlineto
1 setlinewidth
0.8 0.8 0.8 setrgbcolor
stroke
608.333 278.235 moveto
0 7.84314 rlineto
1 setlinewidth
0.8 0.8 0.8 setrgbcolor
stroke
608.333 293.922 moveto
0 7.84314 rlineto
1 setlinewidth
0.8 0.8 0.8 setrgbcolor
stroke
608.333 309.608 moveto
0 7.84314 rlineto
1 setlinewidth
0.8 0.8 0.8 setrgbcolor
stroke
608.333 325.294 moveto
0 7.84314 rlineto
1 setlinewidth
0.8 0.8 0.8 setrgbcolor
stroke
608.333 340.98 moveto
0 7.84314 rlineto
1 setlinewidth
0.8 0.8 0.8 setrgbcolor
stroke
608.333 356.667 moveto
0 7.84314 rlineto
1 setlinewidth
0.8 0.8 0.8 setrgbcolor
stroke
608.333 372.353 moveto
0 7.84314 rlineto
1 setlinewidth
0.8 0.8 0.8 setrgbcolor
stroke
608.333 388.039 moveto
0 7.84314 rlineto
1 setlinewidth
0.8 0.8 0.8 setrgbcolor
stroke
608.333 403.725 moveto
0 7.84314 rlineto
1 setlinewidth
0.8 0.8 0.8 setrgbcolor
stroke
608.333 419.412 moveto
0 7.84314 rlineto
1 setlinewidth
0.8 0.8 0.8 setrgbcolor
stroke
608.333 435.098 moveto
0 7.84314 rlineto
1 setlinewidth
0.8 0.8 0.8 setrgbcolor
stroke
608.333 450.784 moveto
0 7.84314 rlineto
1 setlinewidth
0.8 0.8 0.8 setrgbcolor
stroke
608.333 466.471 moveto
0 7.84314 rlineto
1 setlinewidth
0.8 0.8 0.8 setrgbcolor
stroke
608.333 482.157 moveto
0 7.84314 rlineto
1 setlinewidth
0.8 0.8 0.8 setrgbcolor
stroke
675 90 moveto
675 90 moveto
0 7.84314 rlineto
1 setlinewidth
0.8 0.8 0.8 setrgbcolor
stroke
675 105.686 moveto
0 7.84314 rlineto
1 setlinewidth
0.8 0.8 0.8 setrgbcolor
stroke
675 121.373 moveto
0 7.84314 rlineto
1 setlinewidth
0.8 0.8 0.8 setrgbcolor
stroke
675 137.059 moveto
0 7.84314 rlineto
1 setlinewidth
0.8 0.8 0.8 setrgbcolor
stroke
675 152.745 moveto
0 7.84314 rlineto
1 setlinewidth
0.8 0.8 0.8 setrgbcolor
stroke
675 168.431 moveto
0 7.84314 rlineto
1 setlinewidth
0.8 0.8 0.8 setrgbcolor
stroke
675 184.118 moveto
0 7.84314 rlineto
1 setlinewidth
0.8 0.8 0.8 setrgbcolor
stroke
675 199.804 moveto
0 7.84314 rlineto
1 setlinewidth
0.8 0.8 0.8 setrgbcolor
stroke
675 215.49 moveto
0 7.84314 rlineto
1 setlinewidth
0.8 0.8 0.8 setrgbcolor
stroke
675 231.176 moveto
0 7.84314 rlineto
1 setlinewidth
0.8 0.8 0.8 setrgbcolor
stroke
675 246.863 moveto
0 7.84314 rlineto
1 setlinewidth
0.8 0.8 0.8 setrgbcolor
stroke
675 262.549 moveto
0 7.84314 rlineto
1 setlinewidth
0.8 0.8 0.8 setrgbcolor
stroke
675 278.235 moveto
0 7.84314 rlineto
1 setlinewidth
0.8 0.8 0.8 setrgbcolor
stroke
675 293.922 moveto
0 7.84314 rlineto
1 setlinewidth
0.8 0.8 0.8 setrgbcolor
stroke
675 309.608 moveto
0 7.84314 rlineto
1 setlinewidth
0.8 0.8 0.8 setrgbcolor
stroke
675 325.294 moveto
0 7.84314 rlineto
1 setlinewidth
0.8 0.8 0.8 setrgbcolor
stroke
675 340.98 moveto
0 7.84314 rlineto
1 setlinewidth
0.8 0.8 0.8 setrgbcolor
stroke
675 356.667 moveto
0 7.84314 rlineto
1 setlinewidth
0.8 0.8 0.8 setrgbcolor
stroke
675 372.353 moveto
0 7.84314 rlineto
1 setlinewidth
0.8 0.8 0.8 setrgbcolor
stroke
675 388.039 moveto
0 7.84314 rlineto
1 setlinewidth
0.8 0.8 0.8 setrgbcolor
stroke
675 403.725 moveto
0 7.84314 rlineto
1 setlinewidth
0.8 0.8 0.8 setrgbcolor
stroke
675 419.412 moveto
0 7.84314 rlineto
1 setlinewidth
0.8 0.8 0.8 setrgbcolor
stroke
675 435.098 moveto
0 7.84314 rlineto
1 setlinewidth
0.8 0.8 0.8 setrgbcolor
stroke
675 450.784 moveto
0 7.84314 rlineto
1 setlinewidth
0.8 0.8 0.8 setrgbcolor
stroke
675 466.471 moveto
0 7.84314 rlineto
1 setlinewidth
0.8 0.8 0.8 setrgbcolor
stroke
675 482.157 moveto
0 7.84314 rlineto
1 setlinewidth
0.8 0.8 0.8 setrgbcolor
stroke
75 90 moveto
75 90 moveto
7.79221 0 rlineto
1 setlinewidth
0.8 0.8 0.8 setrgbcolor
stroke
90.5844 90 moveto
7.79221 0 rlineto
1 setlinewidth
0.8 0.8 0.8 setrgbcolor
stroke
106.169 90 moveto
7.79221 0 rlineto
1 setlinewidth
0.8 0.8 0.8 setrgbcolor
stroke
121.753 90 moveto
7.79221 0 rlineto
1 setlinewidth
0.8 0.8 0.8 setrgbcolor
stroke
137.338 90 moveto
7.79221 0 rlineto
1 setlinewidth
0.8 0.8 0.8 setrgbcolor
stroke
152.922 90 moveto
7.79221 0 rlineto
1 setlinewidth
0.8 0.8 0.8 setrgbcolor
stroke
168.506 90 moveto
7.79221 0 rlineto
1 setlinewidth
0.8 0.8 0.8 setrgbcolor
stroke
184.091 90 moveto
7.79221 0 rlineto
1 setlinewidth
0.8 0.8 0.8 setrgbcolor
stroke
199.675 90 moveto
7.79221 0 rlineto
1 setlinewidth
0.8 0.8 0.8 setrgbcolor
stroke
215.26 90 moveto
7.79221 0 rlineto
1 setlinewidth
0.8 0.8 0.8 setrgbcolor
stroke
230.844 90 moveto
7.79221 0 rlineto
1 setlinewidth
0.8 0.8 0.8 setrgbcolor
stroke
246.429 90 moveto
7.79221 0 rlineto
1 setlinewidth
0.8 0.8 0.8 setrgbcolor
stroke
262.013 90 moveto
7.79221 0 rlineto
1 setlinewidth
0.8 0.8 0.8 setrgbcolor
stroke
277.597 90 moveto
7.79221 0 rlineto
1 setlinewidth
0.8 0.8 0.8 setrgbcolor
stroke
293.182 90 moveto
7.79221 0 rlineto
1 setlinewidth
0.8 0.8 0.8 setrgbcolor
stroke
308.766 90 moveto
7.79221 0 rlineto
1 setlinewidth
0.8 0.8 0.8 setrgbcolor
stroke
324.351 90 moveto
7.79221 0 rlineto
1 setlinewidth
0.8 0.8 0.8 setrgbcolor
stroke
339.935 90 moveto
7.79221 0 rlineto
1 setlinewidth
0.8 0.8 0.8 setrgbcolor
stroke
355.519 90 moveto
7.79221 0 rlineto
1 setlinewidth
0.8 0.8 0.8 setrgbcolor
stroke
371.104 90 moveto
7.79221 0 rlineto
1 setlinewidth
0.8 0.8 0.8 setrgbcolor
stroke
386.688 90 moveto
7.79221 0 rlineto
1 setlinewidth
0.8 0.8 0.8 setrgbcolor
stroke
402.273 90 moveto
7.79221 0 rlineto
1 setlinewidth
0.8 0.8 0.8 setrgbcolor
stroke
417.857 90 moveto
7.79221 0 rlineto
1 setlinewidth
0.8 0.8 0.8 setrgbcolor
stroke
433.442 90 moveto
7.79221 0 rlineto
1 setlinewidth
0.8 0.8 0.8 setrgbcolor
stroke
449.026 90 moveto
7.79221 0 rlineto
1 setlinewidth
0.8 0.8 0.8 setrgbcolor
stroke
464.61 90 moveto
7.79221 0 rlineto
1 setlinewidth
0.8 0.8 0.8 setrgbcolor
stroke
480.195 90 moveto
7.79221 0 rlineto
1 setlinewidth
0.8 0.8 0.8 setrgbcolor
stroke
495.779 90 moveto
7.79221 0 rlineto
1 setlinewidth
0.8 0.8 0.8 setrgbcolor
stroke
511.364 90 moveto
7.79221 0 rlineto
1 setlinewidth
0.8 0.8 0.8 setrgbcolor
stroke
526.948 90 moveto
7.79221 0 rlineto
1 setlinewidth
0.8 0.8 0.8 setrgbcolor
stroke
542.532 90 moveto
7.79221 0 rlineto
1 setlinewidth
0.8 0.8 0.8 setrgbcolor
stroke
558.117 90 moveto
7.79221 0 rlineto
1 setlinewidth
0.8 0.8 0.8 setrgbcolor
stroke
573.701 90 moveto
7.79221 0 rlineto
1 setlinewidth
0.8 0.8 0.8 setrgbcolor
stroke
589.286 90 moveto
7.79221 0 rlineto
1 setlinewidth
0.8 0.8 0.8 setrgbcolor
stroke
604.87 90 moveto
7.79221 0 rlineto
1 setlinewidth
0.8 0.8 0.8 setrgbcolor
stroke
620.455 90 moveto
7.79221 0 rlineto
1 setlinewidth
0.8 0.8 0.8 setrgbcolor
stroke
636.039 90 moveto
7.79221 0 rlineto
1 setlinewidth
0.8 0.8 0.8 setrgbcolor
stroke
651.623 90 moveto
7.79221 0 rlineto
1 setlinewidth
0.8 0.8 0.8 setrgbcolor
stroke
667.208 90 moveto
7.79221 0 rlineto
1 setlinewidth
0.8 0.8 0.8 setrgbcolor
stroke
75 147.143 moveto
75 147.143 moveto
7.79221 0 rlineto
1 setlinewidth
0.8 0.8 0.8 setrgbcolor
stroke
90.5844 147.143 moveto
7.79221 0 rlineto
1 setlinewidth
0.8 0.8 0.8 setrgbcolor
stroke
106.169 147.143 moveto
7.79221 0 rlineto
1 setlinewidth
0.8 0.8 0.8 setrgbcolor
stroke
121.753 147.143 moveto
7.79221 0 rlineto
1 setlinewidth
0.8 0.8 0.8 setrgbcolor
stroke
137.338 147.143 moveto
7.79221 0 rlineto
1 setlinewidth
0.8 0.8 0.8 setrgbcolor
stroke
152.922 147.143 moveto
7.79221 0 rlineto
1 setlinewidth
0.8 0.8 0.8 setrgbcolor
stroke
168.506 147.143 moveto
7.79221 0 rlineto
1 setlinewidth
0.8 0.8 0.8 setrgbcolor
stroke
184.091 147.143 moveto
7.79221 0 rlineto
1 setlinewidth
0.8 0.8 0.8 setrgbcolor
stroke
199.675 147.143 moveto
7.79221 0 rlineto
1 setlinewidth
0.8 0.8 0.8 setrgbcolor
stroke
215.26 147.143 moveto
7.79221 0 rlineto
1 setlinewidth
0.8 0.8 0.8 setrgbcolor
stroke
230.844 147.143 moveto
7.79221 0 rlineto
1 setlinewidth
0.8 0.8 0.8 setrgbcolor
stroke
246.429 147.143 moveto
7.79221 0 rlineto
1 setlinewidth
0.8 0.8 0.8 setrgbcolor
stroke
262.013 147.143 moveto
7.79221 0 rlineto
1 setlinewidth
0.8 0.8 0.8 setrgbcolor
stroke
277.597 147.143 moveto
7.79221 0 rlineto
1 setlinewidth
0.8 0.8 0.8 setrgbcolor
stroke
293.182 147.143 moveto
7.79221 0 rlineto
1 setlinewidth
0.8 0.8 0.8 setrgbcolor
stroke
308.766 147.143 moveto
7.79221 0 rlineto
1 setlinewidth
0.8 0.8 0.8 setrgbcolor
stroke
324.351 147.143 moveto
7.79221 0 rlineto
1 setlinewidth
0.8 0.8 0.8 setrgbcolor
stroke
339.935 147.143 moveto
7.79221 0 rlineto
1 setlinewidth
0.8 0.8 0.8 setrgbcolor
stroke
355.519 147.143 moveto
7.79221 0 rlineto
1 setlinewidth
0.8 0.8 0.8 setrgbcolor
stroke
371.104 147.143 moveto
7.79221 0 rlineto
1 setlinewidth
0.8 0.8 0.8 setrgbcolor
stroke
386.688 147.143 moveto
7.79221 0 rlineto
1 setlinewidth
0.8 0.8 0.8 setrgbcolor
stroke
402.273 147.143 moveto
7.79221 0 rlineto
1 setlinewidth
0.8 0.8 0.8 setrgbcolor
stroke
417.857 147.143 moveto
7.79221 0 rlineto
1 setlinewidth
0.8 0.8 0.8 setrgbcolor
stroke
433.442 147.143 moveto
7.79221 0 rlineto
1 setlinewidth
0.8 0.8 0.8 setrgbcolor
stroke
449.026 147.143 moveto
7.79221 0 rlineto
1 setlinewidth
0.8 0.8 0.8 setrgbcolor
stroke
464.61 147.143 moveto
7.79221 0 rlineto
1 setlinewidth
0.8 0.8 0.8 setrgbcolor
stroke
480.195 147.143 moveto
7.79221 0 rlineto
1 setlinewidth
0.8 0.8 0.8 setrgbcolor
stroke
495.779 147.143 moveto
7.79221 0 rlineto
1 setlinewidth
0.8 0.8 0.8 setrgbcolor
stroke
511.364 147.143 moveto
7.79221 0 rlineto
1 setlinewidth
0.8 0.8 0.8 setrgbcolor
stroke
526.948 147.143 moveto
7.79221 0 rlineto
1 setlinewidth
0.8 0.8 0.8 setrgbcolor
stroke
542.532 147.143 moveto
7.79221 0 rlineto
1 setlinewidth
0.8 0.8 0.8 setrgbcolor
stroke
558.117 147.143 moveto
7.79221 0 rlineto
1 setlinewidth
0.8 0.8 0.8 setrgbcolor
stroke
573.701 147.143 moveto
7.79221 0 rlineto
1 setlinewidth
0.8 0.8 0.8 setrgbcolor
stroke
589.286 147.143 moveto
7.79221 0 rlineto
1 setlinewidth
0.8 0.8 0.8 setrgbcolor
stroke
604.87 147.143 moveto
7.79221 0 rlineto
1 setlinewidth
0.8 0.8 0.8 setrgbcolor
stroke
620.455 147.143 moveto
7.79221 0 rlineto
1 setlinewidth
0.8 0.8 0.8 setrgbcolor
stroke
636.039 147.143 moveto
7.79221 0 rlineto
1 setlinewidth
0.8 0.8 0.8 setrgbcolor
stroke
651.623 147.143 moveto
7.79221 0 rlineto
1 setlinewidth
0.8 0.8 0.8 setrgbcolor
stroke
667.208 147.143 moveto
7.79221 0 rlineto
1 setlinewidth
0.8 0.8 0.8 setrgbcolor
stroke
75 204.286 moveto
75 204.286 moveto
7.79221 0 rlineto
1 setlinewidth
0.8 0.8 0.8 setrgbcolor
stroke
90.5844 204.286 moveto
7.79221 0 rlineto
1 setlinewidth
0.8 0.8 0.8 setrgbcolor
stroke
106.169 204.286 moveto
7.79221 0 rlineto
1 setlinewidth
0.8 0.8 0.8 setrgbcolor
stroke
121.753 204.286 moveto
7.79221 0 rlineto
1 setlinewidth
0.8 0.8 0.8 setrgbcolor
stroke
137.338 204.286 moveto
7.79221 0 rlineto
1 setlinewidth
0.8 0.8 0.8 setrgbcolor
stroke
152.922 204.286 moveto
7.79221 0 rlineto
1 setlinewidth
0.8 0.8 0.8 setrgbcolor
stroke
168.506 204.286 moveto
7.79221 0 rlineto
1 setlinewidth
0.8 0.8 0.8 setrgbcolor
stroke
184.091 204.286 moveto
7.79221 0 rlineto
1 setlinewidth
0.8 0.8 0.8 setrgbcolor
stroke
199.675 204.286 moveto
7.79221 0 rlineto
1 setlinewidth
0.8 0.8 0.8 setrgbcolor
stroke
215.26 204.286 moveto
7.79221 0 rlineto
1 setlinewidth
0.8 0.8 0.8 setrgbcolor
stroke
230.844 204.286 moveto
7.79221 0 rlineto
1 setlinewidth
0.8 0.8 0.8 setrgbcolor
stroke
246.429 204.286 moveto
7.79221 0 rlineto
1 setlinewidth
0.8 0.8 0.8 setrgbcolor
stroke
262.013 204.286 moveto
7.79221 0 rlineto
1 setlinewidth
0.8 0.8 0.8 setrgbcolor
stroke
277.597 204.286 moveto
7.79221 0 rlineto
1 setlinewidth
0.8 0.8 0.8 setrgbcolor
stroke
293.182 204.286 moveto
7.79221 0 rlineto
1 setlinewidth
0.8 0.8 0.8 setrgbcolor
stroke
308.766 204.286 moveto
7.79221 0 rlineto
1 setlinewidth
0.8 0.8 0.8 setrgbcolor
stroke
324.351 204.286 moveto
7.79221 0 rlineto
1 setlinewidth
0.8 0.8 0.8 setrgbcolor
stroke
339.935 204.286 moveto
7.79221 0 rlineto
1 setlinewidth
0.8 0.8 0.8 setrgbcolor
stroke
355.519 204.286 moveto
7.79221 0 rlineto
1 setlinewidth
0.8 0.8 0.8 setrgbcolor
stroke
371.104 204.286 moveto
7.79221 0 rlineto
1 setlinewidth
0.8 0.8 0.8 setrgbcolor
stroke
386.688 204.286 moveto
7.79221 0 rlineto
1 setlinewidth
0.8 0.8 0.8 setrgbcolor
stroke
402.273 204.286 moveto
7.79221 0 rlineto
1 setlinewidth
0.8 0.8 0.8 setrgbcolor
stroke
417.857 204.286 moveto
7.79221 0 rlineto
1 setlinewidth
0.8 0.8 0.8 setrgbcolor
stroke
433.442 204.286 moveto
7.79221 0 rlineto
1 setlinewidth
0.8 0.8 0.8 setrgbcolor
stroke
449.026 204.286 moveto
7.79221 0 rlineto
1 setlinewidth
0.8 0.8 0.8 setrgbcolor
stroke
464.61 204.286 moveto
7.79221 0 rlineto
1 setlinewidth
0.8 0.8 0.8 setrgbcolor
stroke
480.195 204.286 moveto
7.79221 0 rlineto
1 setlinewidth
0.8 0.8 0.8 setrgbcolor
stroke
495.779 204.286 moveto
7.79221 0 rlineto
1 setlinewidth
0.8 0.8 0.8 setrgbcolor
stroke
511.364 204.286 moveto
7.79221 0 rlineto
1 setlinewidth
0.8 0.8 0.8 setrgbcolor
stroke
526.948 204.286 moveto
7.79221 0 rlineto
1 setlinewidth
0.8 0.8 0.8 setrgbcolor
stroke
542.532 204.286 moveto
7.79221 0 rlineto
1 setlinewidth
0.8 0.8 0.8 setrgbcolor
stroke
558.117 204.286 moveto
7.79221 0 rlineto
1 setlinewidth
0.8 0.8 0.8 setrgbcolor
stroke
573.701 204.286 moveto
7.79221 0 rlineto
1 setlinewidth
0.8 0.8 0.8 setrgbcolor
stroke
589.286 204.286 moveto
7.79221 0 rlineto
1 setlinewidth
0.8 0.8 0.8 setrgbcolor
stroke
604.87 204.286 moveto
7.79221 0 rlineto
1 setlinewidth
0.8 0.8 0.8 setrgbcolor
stroke
620.455 204.286 moveto
7.79221 0 rlineto
1 setlinewidth
0.8 0.8 0.8 setrgbcolor
stroke
636.039 204.286 moveto
7.79221 0 rlineto
1 setlinewidth
0.8 0.8 0.8 setrgbcolor
stroke
651.623 204.286 moveto
7.79221 0 rlineto
1 setlinewidth
0.8 0.8 0.8 setrgbcolor
stroke
667.208 204.286 moveto
7.79221 0 rlineto
1 setlinewidth
0.8 0.8 0.8 setrgbcolor
stroke
75 261.429 moveto
75 261.429 moveto
7.79221 0 rlineto
1 setlinewidth
0.8 0.8 0.8 setrgbcolor
stroke
90.5844 261.429 moveto
7.79221 0 rlineto
1 setlinewidth
0.8 0.8 0.8 setrgbcolor
stroke
106.169 261.429 moveto
7.79221 0 rlineto
1 setlinewidth
0.8 0.8 0.8 setrgbcolor
stroke
121.753 261.429 moveto
7.79221 0 rlineto
1 setlinewidth
0.8 0.8 0.8 setrgbcolor
stroke
137.338 261.429 moveto
7.79221 0 rlineto
1 setlinewidth
0.8 0.8 0.8 setrgbcolor
stroke
152.922 261.429 moveto
7.79221 0 rlineto
1 setlinewidth
0.8 0.8 0.8 setrgbcolor
stroke
168.506 261.429 moveto
7.79221 0 rlineto
1 setlinewidth
0.8 0.8 0.8 setrgbcolor
stroke
184.091 261.429 moveto
7.79221 0 rlineto
1 setlinewidth
0.8 0.8 0.8 setrgbcolor
stroke
199.675 261.429 moveto
7.79221 0 rlineto
1 setlinewidth
0.8 0.8 0.8 setrgbcolor
stroke
215.26 261.429 moveto
7.79221 0 rlineto
1 setlinewidth
0.8 0.8 0.8 setrgbcolor
stroke
230.844 261.429 moveto
7.79221 0 rlineto
1 setlinewidth
0.8 0.8 0.8 setrgbcolor
stroke
246.429 261.429 moveto
7.79221 0 rlineto
1 setlinewidth
0.8 0.8 0.8 setrgbcolor
stroke
262.013 261.429 moveto
7.79221 0 rlineto
1 setlinewidth
0.8 0.8 0.8 setrgbcolor
stroke
277.597 261.429 moveto
7.79221 0 rlineto
1 setlinewidth
0.8 0.8 0.8 setrgbcolor
stroke
293.182 261.429 moveto
7.79221 0 rlineto
1 setlinewidth
0.8 0.8 0.8 setrgbcolor
stroke
308.766 261.429 moveto
7.79221 0 rlineto
1 setlinewidth
0.8 0.8 0.8 setrgbcolor
stroke
324.351 261.429 moveto
7.79221 0 rlineto
1 setlinewidth
0.8 0.8 0.8 setrgbcolor
stroke
339.935 261.429 moveto
7.79221 0 rlineto
1 setlinewidth
0.8 0.8 0.8 setrgbcolor
stroke
355.519 261.429 moveto
7.79221 0 rlineto
1 setlinewidth
0.8 0.8 0.8 setrgbcolor
stroke
371.104 261.429 moveto
7.79221 0 rlineto
1 setlinewidth
0.8 0.8 0.8 setrgbcolor
stroke
386.688 261.429 moveto
7.79221 0 rlineto
1 setlinewidth
0.8 0.8 0.8 setrgbcolor
stroke
402.273 261.429 moveto
7.79221 0 rlineto
1 setlinewidth
0.8 0.8 0.8 setrgbcolor
stroke
417.857 261.429 moveto
7.79221 0 rlineto
1 setlinewidth
0.8 0.8 0.8 setrgbcolor
stroke
433.442 261.429 moveto
7.79221 0 rlineto
1 setlinewidth
0.8 0.8 0.8 setrgbcolor
stroke
449.026 261.429 moveto
7.79221 0 rlineto
1 setlinewidth
0.8 0.8 0.8 setrgbcolor
stroke
464.61 261.429 moveto
7.79221 0 rlineto
1 setlinewidth
0.8 0.8 0.8 setrgbcolor
stroke
480.195 261.429 moveto
7.79221 0 rlineto
1 setlinewidth
0.8 0.8 0.8 setrgbcolor
stroke
495.779 261.429 moveto
7.79221 0 rlineto
1 setlinewidth
0.8 0.8 0.8 setrgbcolor
stroke
511.364 261.429 moveto
7.79221 0 rlineto
1 setlinewidth
0.8 0.8 0.8 setrgbcolor
stroke
526.948 261.429 moveto
7.79221 0 rlineto
1 setlinewidth
0.8 0.8 0.8 setrgbcolor
stroke
542.532 261.429 moveto
7.79221 0 rlineto
1 setlinewidth
0.8 0.8 0.8 setrgbcolor
stroke
558.117 261.429 moveto
7.79221 0 rlineto
1 setlinewidth
0.8 0.8 0.8 setrgbcolor
stroke
573.701 261.429 moveto
7.79221 0 rlineto
1 setlinewidth
0.8 0.8 0.8 setrgbcolor
stroke
589.286 261.429 moveto
7.79221 0 rlineto
1 setlinewidth
0.8 0.8 0.8 setrgbcolor
stroke
604.87 261.429 moveto
7.79221 0 rlineto
1 setlinewidth
0.8 0.8 0.8 setrgbcolor
stroke
620.455 261.429 moveto
7.79221 0 rlineto
1 setlinewidth
0.8 0.8 0.8 setrgbcolor
stroke
636.039 261.429 moveto
7.79221 0 rlineto
1 setlinewidth
0.8 0.8 0.8 setrgbcolor
stroke
651.623 261.429 moveto
7.79221 0 rlineto
1 setlinewidth
0.8 0.8 0.8 setrgbcolor
stroke
667.208 261.429 moveto
7.79221 0 rlineto
1 setlinewidth
0.8 0.8 0.8 setrgbcolor
stroke
75 318.571 moveto
75 318.571 moveto
7.79221 0 rlineto
1 setlinewidth
0.8 0.8 0.8 setrgbcolor
stroke
90.5844 318.571 moveto
7.79221 0 rlineto
1 setlinewidth
0.8 0.8 0.8 setrgbcolor
stroke
106.169 318.571 moveto
7.79221 0 rlineto
1 setlinewidth
0.8 0.8 0.8 setrgbcolor
stroke
121.753 318.571 moveto
7.79221 0 rlineto
1 setlinewidth
0.8 0.8 0.8 setrgbcolor
stroke
137.338 318.571 moveto
7.79221 0 rlineto
1 setlinewidth
0.8 0.8 0.8 setrgbcolor
stroke
152.922 318.571 moveto
7.79221 0 rlineto
1 setlinewidth
0.8 0.8 0.8 setrgbcolor
stroke
168.506 318.571 moveto
7.79221 0 rlineto
1 setlinewidth
0.8 0.8 0.8 setrgbcolor
stroke
184.091 318.571 moveto
7.79221 0 rlineto
1 setlinewidth
0.8 0.8 0.8 setrgbcolor
stroke
199.675 318.571 moveto
7.79221 0 rlineto
1 setlinewidth
0.8 0.8 0.8 setrgbcolor
stroke
215.26 318.571 moveto
7.79221 0 rlineto
1 setlinewidth
0.8 0.8 0.8 setrgbcolor
stroke
230.844 318.571 moveto
7.79221 0 rlineto
1 setlinewidth
0.8 0.8 0.8 setrgbcolor
stroke
246.429 318.571 moveto
7.79221 0 rlineto
1 setlinewidth
0.8 0.8 0.8 setrgbcolor
stroke
262.013 318.571 moveto
7.79221 0 rlineto
1 setlinewidth
0.8 0.8 0.8 setrgbcolor
stroke
277.597 318.571 moveto
7.79221 0 rlineto
1 setlinewidth
0.8 0.8 0.8 setrgbcolor
stroke
293.182 318.571 moveto
7.79221 0 rlineto
1 setlinewidth
0.8 0.8 0.8 setrgbcolor
stroke
308.766 318.571 moveto
7.79221 0 rlineto
1 setlinewidth
0.8 0.8 0.8 setrgbcolor
stroke
324.351 318.571 moveto
7.79221 0 rlineto
1 setlinewidth
0.8 0.8 0.8 setrgbcolor
stroke
339.935 318.571 moveto
7.79221 0 rlineto
1 setlinewidth
0.8 0.8 0.8 setrgbcolor
stroke
355.519 318.571 moveto
7.79221 0 rlineto
1 setlinewidth
0.8 0.8 0.8 setrgbcolor
stroke
371.104 318.571 moveto
7.79221 0 rlineto
1 setlinewidth
0.8 0.8 0.8 setrgbcolor
stroke
386.688 318.571 moveto
7.79221 0 rlineto
1 setlinewidth
0.8 0.8 0.8 setrgbcolor
stroke
402.273 318.571 moveto
7.79221 0 rlineto
1 setlinewidth
0.8 0.8 0.8 setrgbcolor
stroke
417.857 318.571 moveto
7.79221 0 rlineto
1 setlinewidth
0.8 0.8 0.8 setrgbcolor
stroke
433.442 318.571 moveto
7.79221 0 rlineto
1 setlinewidth
0.8 0.8 0.8 setrgbcolor
stroke
449.026 318.571 moveto
7.79221 0 rlineto
1 setlinewidth
0.8 0.8 0.8 setrgbcolor
stroke
464.61 318.571 moveto
7.79221 0 rlineto
1 setlinewidth
0.8 0.8 0.8 setrgbcolor
stroke
480.195 318.571 moveto
7.79221 0 rlineto
1 setlinewidth
0.8 0.8 0.8 setrgbcolor
stroke
495.779 318.571 moveto
7.79221 0 rlineto
1 setlinewidth
0.8 0.8 0.8 setrgbcolor
stroke
511.364 318.571 moveto
7.79221 0 rlineto
1 setlinewidth
0.8 0.8 0.8 setrgbcolor
stroke
526.948 318.571 moveto
7.79221 0 rlineto
1 setlinewidth
0.8 0.8 0.8 setrgbcolor
stroke
542.532 318.571 moveto
7.79221 0 rlineto
1 setlinewidth
0.8 0.8 0.8 setrgbcolor
stroke
558.117 318.571 moveto
7.79221 0 rlineto
1 setlinewidth
0.8 0.8 0.8 setrgbcolor
stroke
573.701 318.571 moveto
7.79221 0 rlineto
1 setlinewidth
0.8 0.8 0.8 setrgbcolor
stroke
589.286 318.571 moveto
7.79221 0 rlineto
1 setlinewidth
0.8 0.8 0.8 setrgbcolor
stroke
604.87 318.571 moveto
7.79221 0 rlineto
1 setlinewidth
0.8 0.8 0.8 setrgbcolor
stroke
620.455 318.571 moveto
7.79221 0 rlineto
1 setlinewidth
0.8 0.8 0.8 setrgbcolor
stroke
636.039 318.571 moveto
7.79221 0 rlineto
1 setlinewidth
0.8 0.8 0.8 setrgbcolor
stroke
651.623 318.571 moveto
7.79221 0 rlineto
1 setlinewidth
0.8 0.8 0.8 setrgbcolor
stroke
667.208 318.571 moveto
7.79221 0 rlineto
1 setlinewidth
0.8 0.8 0.8 setrgbcolor
stroke
75 375.714 moveto
75 375.714 moveto
7.79221 0 rlineto
1 setlinewidth
0.8 0.8 0.8 setrgbcolor
stroke
90.5844 375.714 moveto
7.79221 0 rlineto
1 setlinewidth
0.8 0.8 0.8 setrgbcolor
stroke
106.169 375.714 moveto
7.79221 0 rlineto
1 setlinewidth
0.8 0.8 0.8 setrgbcolor
stroke
121.753 375.714 moveto
7.79221 0 rlineto
1 setlinewidth
0.8 0.8 0.8 setrgbcolor
stroke
137.338 375.714 moveto
7.79221 0 rlineto
1 setlinewidth
0.8 0.8 0.8 setrgbcolor
stroke
152.922 375.714 moveto
7.79221 0 rlineto
1 setlinewidth
0.8 0.8 0.8 setrgbcolor
stroke
168.506 375.714 moveto
7.79221 0 rlineto
1 setlinewidth
0.8 0.8 0.8 setrgbcolor
stroke
184.091 375.714 moveto
7.79221 0 rlineto
1 setlinewidth
0.8 0.8 0.8 setrgbcolor
stroke
199.675 375.714 moveto
7.79221 0 rlineto
1 setlinewidth
0.8 0.8 0.8 setrgbcolor
stroke
215.26 375.714 moveto
7.79221 0 rlineto
1 setlinewidth
0.8 0.8 0.8 setrgbcolor
stroke
230.844 375.714 moveto
7.79221 0 rlineto
1 setlinewidth
0.8 0.8 0.8 setrgbcolor
stroke
246.429 375.714 moveto
7.79221 0 rlineto
1 setlinewidth
0.8 0.8 0.8 setrgbcolor
stroke
262.013 375.714 moveto
7.79221 0 rlineto
1 setlinewidth
0.8 0.8 0.8 setrgbcolor
stroke
277.597 375.714 moveto
7.79221 0 rlineto
1 setlinewidth
0.8 0.8 0.8 setrgbcolor
stroke
293.182 375.714 moveto
7.79221 0 rlineto
1 setlinewidth
0.8 0.8 0.8 setrgbcolor
stroke
308.766 375.714 moveto
7.79221 0 rlineto
1 setlinewidth
0.8 0.8 0.8 setrgbcolor
stroke
324.351 375.714 moveto
7.79221 0 rlineto
1 setlinewidth
0.8 0.8 0.8 setrgbcolor
stroke
339.935 375.714 moveto
7.79221 0 rlineto
1 setlinewidth
0.8 0.8 0.8 setrgbcolor
stroke
355.519 375.714 moveto
7.79221 0 rlineto
1 setlinewidth
0.8 0.8 0.8 setrgbcolor
stroke
371.104 375.714 moveto
7.79221 0 rlineto
1 setlinewidth
0.8 0.8 0.8 setrgbcolor
stroke
386.688 375.714 moveto
7.79221 0 rlineto
1 setlinewidth
0.8 0.8 0.8 setrgbcolor
stroke
402.273 375.714 moveto
7.79221 0 rlineto
1 setlinewidth
0.8 0.8 0.8 setrgbcolor
stroke
417.857 375.714 moveto
7.79221 0 rlineto
1 setlinewidth
0.8 0.8 0.8 setrgbcolor
stroke
433.442 375.714 moveto
7.79221 0 rlineto
1 setlinewidth
0.8 0.8 0.8 setrgbcolor
stroke
449.026 375.714 moveto
7.79221 0 rlineto
1 setlinewidth
0.8 0.8 0.8 setrgbcolor
stroke
464.61 375.714 moveto
7.79221 0 rlineto
1 setlinewidth
0.8 0.8 0.8 setrgbcolor
stroke
480.195 375.714 moveto
7.79221 0 rlineto
1 setlinewidth
0.8 0.8 0.8 setrgbcolor
stroke
495.779 375.714 moveto
7.79221 0 rlineto
1 setlinewidth
0.8 0.8 0.8 setrgbcolor
stroke
511.364 375.714 moveto
7.79221 0 rlineto
1 setlinewidth
0.8 0.8 0.8 setrgbcolor
stroke
526.948 375.714 moveto
7.79221 0 rlineto
1 setlinewidth
0.8 0.8 0.8 setrgbcolor
stroke
542.532 375.714 moveto
7.79221 0 rlineto
1 setlinewidth
0.8 0.8 0.8 setrgbcolor
stroke
558.117 375.714 moveto
7.79221 0 rlineto
1 setlinewidth
0.8 0.8 0.8 setrgbcolor
stroke
573.701 375.714 moveto
7.79221 0 rlineto
1 setlinewidth
0.8 0.8 0.8 setrgbcolor
stroke
589.286 375.714 moveto
7.79221 0 rlineto
1 setlinewidth
0.8 0.8 0.8 setrgbcolor
stroke
604.87 375.714 moveto
7.79221 0 rlineto
1 setlinewidth
0.8 0.8 0.8 setrgbcolor
stroke
620.455 375.714 moveto
7.79221 0 rlineto
1 setlinewidth
0.8 0.8 0.8 setrgbcolor
stroke
636.039 375.714 moveto
7.79221 0 rlineto
1 setlinewidth
0.8 0.8 0.8 setrgbcolor
stroke
651.623 375.714 moveto
7.79221 0 rlineto
1 setlinewidth
0.8 0.8 0.8 setrgbcolor
stroke
667.208 375.714 moveto
7.79221 0 rlineto
1 setlinewidth
0.8 0.8 0.8 setrgbcolor
stroke
75 432.857 moveto
75 432.857 moveto
7.79221 0 rlineto
1 setlinewidth
0.8 0.8 0.8 setrgbcolor
stroke
90.5844 432.857 moveto
7.79221 0 rlineto
1 setlinewidth
0.8 0.8 0.8 setrgbcolor
stroke
106.169 432.857 moveto
7.79221 0 rlineto
1 setlinewidth
0.8 0.8 0.8 setrgbcolor
stroke
121.753 432.857 moveto
7.79221 0 rlineto
1 setlinewidth
0.8 0.8 0.8 setrgbcolor
stroke
137.338 432.857 moveto
7.79221 0 rlineto
1 setlinewidth
0.8 0.8 0.8 setrgbcolor
stroke
152.922 432.857 moveto
7.79221 0 rlineto
1 setlinewidth
0.8 0.8 0.8 setrgbcolor
stroke
168.506 432.857 moveto
7.79221 0 rlineto
1 setlinewidth
0.8 0.8 0.8 setrgbcolor
stroke
184.091 432.857 moveto
7.79221 0 rlineto
1 setlinewidth
0.8 0.8 0.8 setrgbcolor
stroke
199.675 432.857 moveto
7.79221 0 rlineto
1 setlinewidth
0.8 0.8 0.8 setrgbcolor
stroke
215.26 432.857 moveto
7.79221 0 rlineto
1 setlinewidth
0.8 0.8 0.8 setrgbcolor
stroke
230.844 432.857 moveto
7.79221 0 rlineto
1 setlinewidth
0.8 0.8 0.8 setrgbcolor
stroke
246.429 432.857 moveto
7.79221 0 rlineto
1 setlinewidth
0.8 0.8 0.8 setrgbcolor
stroke
262.013 432.857 moveto
7.79221 0 rlineto
1 setlinewidth
0.8 0.8 0.8 setrgbcolor
stroke
277.597 432.857 moveto
7.79221 0 rlineto
1 setlinewidth
0.8 0.8 0.8 setrgbcolor
stroke
293.182 432.857 moveto
7.79221 0 rlineto
1 setlinewidth
0.8 0.8 0.8 setrgbcolor
stroke
308.766 432.857 moveto
7.79221 0 rlineto
1 setlinewidth
0.8 0.8 0.8 setrgbcolor
stroke
324.351 432.857 moveto
7.79221 0 rlineto
1 setlinewidth
0.8 0.8 0.8 setrgbcolor
stroke
339.935 432.857 moveto
7.79221 0 rlineto
1 setlinewidth
0.8 0.8 0.8 setrgbcolor
stroke
355.519 432.857 moveto
7.79221 0 rlineto
1 setlinewidth
0.8 0.8 0.8 setrgbcolor
stroke
371.104 432.857 moveto
7.79221 0 rlineto
1 setlinewidth
0.8 0.8 0.8 setrgbcolor
stroke
386.688 432.857 moveto
7.79221 0 rlineto
1 setlinewidth
0.8 0.8 0.8 setrgbcolor
stroke
402.273 432.857 moveto
7.79221 0 rlineto
1 setlinewidth
0.8 0.8 0.8 setrgbcolor
stroke
417.857 432.857 moveto
7.79221 0 rlineto
1 setlinewidth
0.8 0.8 0.8 setrgbcolor
stroke
433.442 432.857 moveto
7.79221 0 rlineto
1 setlinewidth
0.8 0.8 0.8 setrgbcolor
stroke
449.026 432.857 moveto
7.79221 0 rlineto
1 setlinewidth
0.8 0.8 0.8 setrgbcolor
stroke
464.61 432.857 moveto
7.79221 0 rlineto
1 setlinewidth
0.8 0.8 0.8 setrgbcolor
stroke
480.195 432.857 moveto
7.79221 0 rlineto
1 setlinewidth
0.8 0.8 0.8 setrgbcolor
stroke
495.779 432.857 moveto
7.79221 0 rlineto
1 setlinewidth
0.8 0.8 0.8 setrgbcolor
stroke
511.364 432.857 moveto
7.79221 0 rlineto
1 setlinewidth
0.8 0.8 0.8 setrgbcolor
stroke
526.948 432.857 moveto
7.79221 0 rlineto
1 setlinewidth
0.8 0.8 0.8 setrgbcolor
stroke
542.532 432.857 moveto
7.79221 0 rlineto
1 setlinewidth
0.8 0.8 0.8 setrgbcolor
stroke
558.117 432.857 moveto
7.79221 0 rlineto
1 setlinewidth
0.8 0.8 0.8 setrgbcolor
stroke
573.701 432.857 moveto
7.79221 0 rlineto
1 setlinewidth
0.8 0.8 0.8 setrgbcolor
stroke
589.286 432.857 moveto
7.79221 0 rlineto
1 setlinewidth
0.8 0.8 0.8 setrgbcolor
stroke
604.87 432.857 moveto
7.79221 0 rlineto
1 setlinewidth
0.8 0.8 0.8 setrgbcolor
stroke
620.455 432.857 moveto
7.79221 0 rlineto
1 setlinewidth
0.8 0.8 0.8 setrgbcolor
stroke
636.039 432.857 moveto
7.79221 0 rlineto
1 setlinewidth
0.8 0.8 0.8 setrgbcolor
stroke
651.623 432.857 moveto
7.79221 0 rlineto
1 setlinewidth
0.8 0.8 0.8 setrgbcolor
stroke
667.208 432.857 moveto
7.79221 0 rlineto
1 setlinewidth
0.8 0.8 0.8 setrgbcolor
stroke
75 490 moveto
75 490 moveto
7.79221 0 rlineto
1 setlinewidth
0.8 0.8 0.8 setrgbcolor
stroke
90.5844 490 moveto
7.79221 0 rlineto
1 setlinewidth
0.8 0.8 0.8 setrgbcolor
stroke
106.169 490 moveto
7.79221 0 rlineto
1 setlinewidth
0.8 0.8 0.8 setrgbcolor
stroke
121.753 490 moveto
7.79221 0 rlineto
1 setlinewidth
0.8 0.8 0.8 setrgbcolor
stroke
137.338 490 moveto
7.79221 0 rlineto
1 setlinewidth
0.8 0.8 0.8 setrgbcolor
stroke
152.922 490 moveto
7.79221 0 rlineto
1 setlinewidth
0.8 0.8 0.8 setrgbcolor
stroke
168.506 490 moveto
7.79221 0 rlineto
1 setlinewidth
0.8 0.8 0.8 setrgbcolor
stroke
184.091 490 moveto
7.79221 0 rlineto
1 setlinewidth
0.8 0.8 0.8 setrgbcolor
stroke
199.675 490 moveto
7.79221 0 rlineto
1 setlinewidth
0.8 0.8 0.8 setrgbcolor
stroke
215.26 490 moveto
7.79221 0 rlineto
1 setlinewidth
0.8 0.8 0.8 setrgbcolor
stroke
230.844 490 moveto
7.79221 0 rlineto
1 setlinewidth
0.8 0.8 0.8 setrgbcolor
stroke
246.429 490 moveto
7.79221 0 rlineto
1 setlinewidth
0.8 0.8 0.8 setrgbcolor
stroke
262.013 490 moveto
7.79221 0 rlineto
1 setlinewidth
0.8 0.8 0.8 setrgbcolor
stroke
277.597 490 moveto
7.79221 0 rlineto
1 setlinewidth
0.8 0.8 0.8 setrgbcolor
stroke
293.182 490 moveto
7.79221 0 rlineto
1 setlinewidth
0.8 0.8 0.8 setrgbcolor
stroke
308.766 490 moveto
7.79221 0 rlineto
1 setlinewidth
0.8 0.8 0.8 setrgbcolor
stroke
324.351 490 moveto
7.79221 0 rlineto
1 setlinewidth
0.8 0.8 0.8 setrgbcolor
stroke
339.935 490 moveto
7.79221 0 rlineto
1 setlinewidth
0.8 0.8 0.8 setrgbcolor
stroke
355.519 490 moveto
7.79221 0 rlineto
1 setlinewidth
0.8 0.8 0.8 setrgbcolor
stroke
371.104 490 moveto
7.79221 0 rlineto
1 setlinewidth
0.8 0.8 0.8 setrgbcolor
stroke
386.688 490 moveto
7.79221 0 rlineto
1 setlinewidth
0.8 0.8 0.8 setrgbcolor
stroke
402.273 490 moveto
7.79221 0 rlineto
1 setlinewidth
0.8 0.8 0.8 setrgbcolor
stroke
417.857 490 moveto
7.79221 0 rlineto
1 setlinewidth
0.8 0.8 0.8 setrgbcolor
stroke
433.442 490 moveto
7.79221 0 rlineto
1 setlinewidth
0.8 0.8 0.8 setrgbcolor
stroke
449.026 490 moveto
7.79221 0 rlineto
1 setlinewidth
0.8 0.8 0.8 setrgbcolor
stroke
464.61 490 moveto
7.79221 0 rlineto
1 setlinewidth
0.8 0.8 0.8 setrgbcolor
stroke
480.195 490 moveto
7.79221 0 rlineto
1 setlinewidth
0.8 0.8 0.8 setrgbcolor
stroke
495.779 490 moveto
7.79221 0 rlineto
1 setlinewidth
0.8 0.8 0.8 setrgbcolor
stroke
511.364 490 moveto
7.79221 0 rlineto
1 setlinewidth
0.8 0.8 0.8 setrgbcolor
stroke
526.948 490 moveto
7.79221 0 rlineto
1 setlinewidth
0.8 0.8 0.8 setrgbcolor
stroke
542.532 490 moveto
7.79221 0 rlineto
1 setlinewidth
0.8 0.8 0.8 setrgbcolor
stroke
558.117 490 moveto
7.79221 0 rlineto
1 setlinewidth
0.8 0.8 0.8 setrgbcolor
stroke
573.701 490 moveto
7.79221 0 rlineto
1 setlinewidth
0.8 0.8 0.8 setrgbcolor
stroke
589.286 490 moveto
7.79221 0 rlineto
1 setlinewidth
0.8 0.8 0.8 setrgbcolor
stroke
604.87 490 moveto
7.79221 0 rlineto
1 setlinewidth
0.8 0.8 0.8 setrgbcolor
stroke
620.455 490 moveto
7.79221 0 rlineto
1 setlinewidth
0.8 0.8 0.8 setrgbcolor
stroke
636.039 490 moveto
7.79221 0 rlineto
1 setlinewidth
0.8 0.8 0.8 setrgbcolor
stroke
651.623 490 moveto
7.79221 0 rlineto
1 setlinewidth
0.8 0.8 0.8 setrgbcolor
stroke
667.208 490 moveto
7.79221 0 rlineto
1 setlinewidth
0.8 0.8 0.8 setrgbcolor
stroke
newpath
75 90 moveto
600 0 rlineto
0 400 rlineto
-600 0 rlineto
closepath
1 setlinewidth
0 0 0 setrgbcolor
stroke
/Times findfont
16 scalefont
setfont
375 500 moveto
0 0 0 setrgbcolor
(Final resolution =   3.3 Angstroms) dup stringwidth pop 2 div neg 0 rmoveto show
75 90 moveto
0 7.81025 rlineto
1 setlinewidth
0 0 0 setrgbcolor
stroke
141.667 90 moveto
0 7.81025 rlineto
1 setlinewidth
0 0 0 setrgbcolor
stroke
208.333 90 moveto
0 7.81025 rlineto
1 setlinewidth
0 0 0 setrgbcolor
stroke
275 90 moveto
0 7.81025 rlineto
1 setlinewidth
0 0 0 setrgbcolor
stroke
341.667 90 moveto
0 7.81025 rlineto
1 setlinewidth
0 0 0 setrgbcolor
stroke
408.333 90 moveto
0 7.81025 rlineto
1 setlinewidth
0 0 0 setrgbcolor
stroke
475 90 moveto
0 7.81025 rlineto
1 setlinewidth
0 0 0 setrgbcolor
stroke
541.667 90 moveto
0 7.81025 rlineto
1 setlinewidth
0 0 0 setrgbcolor
stroke
608.333 90 moveto
0 7.81025 rlineto
1 setlinewidth
0 0 0 setrgbcolor
stroke
675 90 moveto
0 7.81025 rlineto
1 setlinewidth
0 0 0 setrgbcolor
stroke
75 90 moveto
7.81025 0 rlineto
1 setlinewidth
0 0 0 setrgbcolor
stroke
75 147.143 moveto
7.81025 0 rlineto
1 setlinewidth
0 0 0 setrgbcolor
stroke
75 204.286 moveto
7.81025 0 rlineto
1 setlinewidth
0 0 0 setrgbcolor
stroke
75 261.429 moveto
7.81025 0 rlineto
1 setlinewidth
0 0 0 setrgbcolor
stroke
75 318.571 moveto
7.81025 0 rlineto
1 setlinewidth
0 0 0 setrgbcolor
stroke
75 375.714 moveto
7.81025 0 rlineto
1 setlinewidth
0 0 0 setrgbcolor
stroke
75 432.857 moveto
7.81025 0 rlineto
1 setlinewidth
0 0 0 setrgbcolor
stroke
75 490 moveto
7.81025 0 rlineto
1 setlinewidth
0 0 0 setrgbcolor
stroke
/Times findfont
12 scalefont
setfont
75 75 moveto
0 0 0 setrgbcolor
(0.00) dup stringwidth pop 2 div neg 0 rmoveto show
/Times findfont
12 scalefont
setfont
141.667 75 moveto
0 0 0 setrgbcolor
(0.05) dup stringwidth pop 2 div neg 0 rmoveto show
/Times findfont
12 scalefont
setfont
208.333 75 moveto
0 0 0 setrgbcolor
(0.10) dup stringwidth pop 2 div neg 0 rmoveto show
/Times findfont
12 scalefont
setfont
275 75 moveto
0 0 0 setrgbcolor
(0.15) dup stringwidth pop 2 div neg 0 rmoveto show
/Times findfont
12 scalefont
setfont
341.667 75 moveto
0 0 0 setrgbcolor
(0.20) dup stringwidth pop 2 div neg 0 rmoveto show
/Times findfont
12 scalefont
setfont
408.333 75 moveto
0 0 0 setrgbcolor
(0.25) dup stringwidth pop 2 div neg 0 rmoveto show
/Times findfont
12 scalefont
setfont
475 75 moveto
0 0 0 setrgbcolor
(0.30) dup stringwidth pop 2 div neg 0 rmoveto show
/Times findfont
12 scalefont
setfont
541.667 75 moveto
0 0 0 setrgbcolor
(0.35) dup stringwidth pop 2 div neg 0 rmoveto show
/Times findfont
12 scalefont
setfont
608.333 75 moveto
0 0 0 setrgbcolor
(0.40) dup stringwidth pop 2 div neg 0 rmoveto show
/Times findfont
12 scalefont
setfont
675 75 moveto
0 0 0 setrgbcolor
(0.45) dup stringwidth pop 2 div neg 0 rmoveto show
/Times findfont
12 scalefont
setfont
69 87 moveto
0 0 0 setrgbcolor
(-0.2) dup stringwidth pop neg 0 rmoveto show
/Times findfont
12 scalefont
setfont
69 144.143 moveto
0 0 0 setrgbcolor
(0.0) dup stringwidth pop neg 0 rmoveto show
/Times findfont
12 scalefont
setfont
69 201.286 moveto
0 0 0 setrgbcolor
(0.2) dup stringwidth pop neg 0 rmoveto show
/Times findfont
12 scalefont
setfont
69 258.429 moveto
0 0 0 setrgbcolor
(0.4) dup stringwidth pop neg 0 rmoveto show
/Times findfont
12 scalefont
setfont
69 315.571 moveto
0 0 0 setrgbcolor
(0.6) dup stringwidth pop neg 0 rmoveto show
/Times findfont
12 scalefont
setfont
69 372.714 moveto
0 0 0 setrgbcolor
(0.8) dup stringwidth pop neg 0 rmoveto show
/Times findfont
12 scalefont
setfont
69 429.857 moveto
0 0 0 setrgbcolor
(1.0) dup stringwidth pop neg 0 rmoveto show
/Times findfont
12 scalefont
setfont
69 487 moveto
0 0 0 setrgbcolor
(1.2) dup stringwidth pop neg 0 rmoveto show
/Times findfont
16 scalefont
setfont
375 58 moveto
0 0 0 setrgbcolor
(resolution (1/A)) dup stringwidth pop 2 div neg 0 rmoveto show
/Times findfont
16 scalefont
setfont
26 290 moveto
90 rotate
0 0 0 setrgbcolor
(Fourier Shell Correlation) dup stringwidth pop 2 div neg 0 rmoveto show
-90 rotate
newpath
76.3347 432.857 moveto
79.1868 432.857 lineto
83.3735 432.854 lineto
87.5603 432.836 lineto
91.7471 432.836 lineto
95.9338 432.821 lineto
100.121 432.712 lineto
104.307 432.532 lineto
108.494 432.582 lineto
112.681 432.603 lineto
116.868 432.445 lineto
121.054 432.392 lineto
125.241 432.373 lineto
129.428 432.057 lineto
133.615 431.785 lineto
137.801 431.568 lineto
141.988 430.659 lineto
146.175 428.497 lineto
150.362 427.797 lineto
154.549 427.777 lineto
158.735 416.127 lineto
162.922 418.578 lineto
167.109 421.619 lineto
171.296 425.126 lineto
175.482 426.023 lineto
179.669 425.133 lineto
183.856 423.305 lineto
188.043 422.499 lineto
192.229 423.994 lineto
196.416 424.316 lineto
200.603 424.226 lineto
204.79 424.032 lineto
208.976 423.158 lineto
213.163 420.773 lineto
217.35 417.9 lineto
221.537 414.16 lineto
225.723 412.041 lineto
229.91 411.581 lineto
234.097 409.624 lineto
238.284 409.962 lineto
242.471 409.904 lineto
246.657 406.95 lineto
250.844 400.874 lineto
255.031 399.309 lineto
259.218 398.507 lineto
263.404 396.79 lineto
267.591 393.692 lineto
271.778 389.755 lineto
275.965 388.782 lineto
280.151 387.776 lineto
284.338 384.729 lineto
288.525 382.097 lineto
292.712 383.357 lineto
296.898 380.043 lineto
301.085 377.659 lineto
305.272 381.458 lineto
309.459 385.146 lineto
313.646 383.055 lineto
317.832 376.653 lineto
322.019 373.36 lineto
326.206 374.996 lineto
330.393 378.163 lineto
334.579 376.589 lineto
338.766 373.429 lineto
342.953 371.38 lineto
347.14 373.068 lineto
351.326 374.533 lineto
355.513 373.613 lineto
359.7 370.381 lineto
363.887 368.752 lineto
368.073 365.837 lineto
372.26 364.636 lineto
376.447 362.145 lineto
380.634 354.955 lineto
384.82 341.996 lineto
389.007 329.935 lineto
393.194 325.986 lineto
397.381 319.673 lineto
401.568 310.117 lineto
405.754 299.285 lineto
409.941 292.548 lineto
414.128 282.487 lineto
418.315 270.264 lineto
422.501 261.191 lineto
426.688 261.398 lineto
430.875 260.521 lineto
435.062 250.88 lineto
439.248 243.748 lineto
443.435 238.257 lineto
447.622 230.322 lineto
451.809 223.754 lineto
455.995 214.783 lineto
460.182 204.955 lineto
464.369 204.221 lineto
468.556 203.395 lineto
472.743 198.21 lineto
476.929 191.784 lineto
481.116 179.026 lineto
485.303 170.282 lineto
489.49 167.906 lineto
493.676 169.528 lineto
497.863 166.797 lineto
502.05 160.308 lineto
506.237 159.096 lineto
510.423 154.695 lineto
514.61 155.437 lineto
518.797 159.465 lineto
522.984 158.187 lineto
527.17 153.033 lineto
531.357 148.859 lineto
535.544 152.141 lineto
539.731 155.933 lineto
543.917 151.902 lineto
548.104 148.368 lineto
552.291 149.53 lineto
556.478 148.969 lineto
560.665 149.409 lineto
564.851 151.786 lineto
569.038 152.486 lineto
573.225 149.419 lineto
577.412 147.035 lineto
581.598 147.835 lineto
585.785 146.783 lineto
589.972 146.407 lineto
594.159 144.964 lineto
598.345 145.963 lineto
602.532 144.915 lineto
606.719 145.444 lineto
610.906 148.057 lineto
2 setlinewidth
0 0 0 setrgbcolor
stroke
newpath
76.3347 432.857 moveto
79.1868 432.426 lineto
83.3735 432.584 lineto
87.5603 432.275 lineto
91.7471 431.9 lineto
95.9338 431.493 lineto
100.121 430.47 lineto
104.307 428.822 lineto
108.494 429.725 lineto
112.681 429.021 lineto
116.868 427.489 lineto
121.054 425.924 lineto
125.241 424.852 lineto
129.428 423.955 lineto
133.615 421.057 lineto
137.801 415.657 lineto
141.988 407.539 lineto
146.175 386.168 lineto
150.362 375.265 lineto
154.549 356.564 lineto
158.735 361.044 lineto
162.922 367.08 lineto
167.109 378.657 lineto
171.296 384.015 lineto
175.482 385.43 lineto
179.669 377.912 lineto
183.856 357.864 lineto
188.043 337.23 lineto
192.229 343.489 lineto
196.416 352.508 lineto
200.603 358.363 lineto
204.79 353.507 lineto
208.976 343.255 lineto
213.163 327.297 lineto
217.35 312.719 lineto
221.537 296.618 lineto
225.723 295.562 lineto
229.91 284.396 lineto
234.097 281.915 lineto
238.284 268.515 lineto
242.471 272.149 lineto
246.657 268.791 lineto
250.844 246.79 lineto
255.031 234.582 lineto
259.218 240.444 lineto
263.404 238.895 lineto
267.591 233.123 lineto
271.778 221.775 lineto
275.965 225.677 lineto
280.151 219.772 lineto
284.338 207.991 lineto
288.525 210.829 lineto
292.712 217.226 lineto
296.898 210.411 lineto
301.085 210.998 lineto
305.272 219.874 lineto
309.459 220.847 lineto
313.646 218.589 lineto
317.832 214.898 lineto
322.019 218.378 lineto
326.206 211.261 lineto
330.393 212.68 lineto
334.579 221.663 lineto
338.766 213.838 lineto
342.953 193.908 lineto
347.14 206.531 lineto
351.326 218.619 lineto
355.513 200.216 lineto
359.7 203.97 lineto
363.887 212.844 lineto
368.073 200.446 lineto
372.26 199.223 lineto
376.447 201.866 lineto
380.634 193.429 lineto
384.82 187.016 lineto
389.007 187.216 lineto
393.194 181.782 lineto
397.381 177.509 lineto
401.568 175.456 lineto
405.754 172.176 lineto
409.941 169.349 lineto
414.128 163.643 lineto
418.315 169.589 lineto
422.501 164.521 lineto
426.688 160.229 lineto
430.875 162.574 lineto
435.062 160.205 lineto
439.248 156.514 lineto
443.435 156.359 lineto
447.622 155.101 lineto
451.809 158.932 lineto
455.995 154.364 lineto
460.182 148.452 lineto
464.369 152.963 lineto
468.556 153.478 lineto
472.743 153.697 lineto
476.929 152.834 lineto
481.116 149.506 lineto
485.303 150.277 lineto
489.49 153.682 lineto
493.676 148.273 lineto
497.863 150.288 lineto
502.05 152.941 lineto
506.237 149.583 lineto
510.423 148.474 lineto
514.61 146.133 lineto
518.797 148.126 lineto
522.984 148.232 lineto
527.17 144.975 lineto
531.357 147.276 lineto
535.544 149.439 lineto
539.731 148.108 lineto
543.917 147.297 lineto
548.104 145.888 lineto
552.291 145.893 lineto
556.478 146.827 lineto
560.665 148.331 lineto
564.851 147.901 lineto
569.038 147.291 lineto
573.225 148.999 lineto
577.412 147.635 lineto
581.598 149.173 lineto
585.785 145.241 lineto
589.972 148.664 lineto
594.159 147.966 lineto
598.345 145.329 lineto
602.532 146.711 lineto
606.719 147.028 lineto
610.906 148.043 lineto
1 setlinewidth
0 1 0 setrgbcolor
stroke
newpath
76.3347 432.857 moveto
79.1868 432.857 lineto
83.3735 432.854 lineto
87.5603 432.836 lineto
91.7471 432.836 lineto
95.9338 432.821 lineto
100.121 432.712 lineto
104.307 432.532 lineto
108.494 432.582 lineto
112.681 432.603 lineto
116.868 432.445 lineto
121.054 432.392 lineto
125.241 432.373 lineto
129.428 432.057 lineto
133.615 431.785 lineto
137.801 431.568 lineto
141.988 430.659 lineto
146.175 428.497 lineto
150.362 427.797 lineto
154.549 427.777 lineto
158.735 428.072 lineto
162.922 427.513 lineto
167.109 427.428 lineto
171.296 428.544 lineto
175.482 428.802 lineto
179.669 428.012 lineto
183.856 426.115 lineto
188.043 424.863 lineto
192.229 425.577 lineto
196.416 425.885 lineto
200.603 425.868 lineto
204.79 425.355 lineto
208.976 424.161 lineto
213.163 422.124 lineto
217.35 419.035 lineto
221.537 415.128 lineto
225.723 413.658 lineto
229.91 413.277 lineto
234.097 411.002 lineto
238.284 411.097 lineto
242.471 410.742 lineto
246.657 408.086 lineto
250.844 402.328 lineto
255.031 399.913 lineto
259.218 398.861 lineto
263.404 397.607 lineto
267.591 394.438 lineto
271.778 390.272 lineto
275.965 388.937 lineto
280.151 387.639 lineto
284.338 384.75 lineto
288.525 382.537 lineto
292.712 383.204 lineto
296.898 379.537 lineto
301.085 377.217 lineto
305.272 381.417 lineto
309.459 385.015 lineto
313.646 382.522 lineto
317.832 375.89 lineto
322.019 372.555 lineto
326.206 374.326 lineto
330.393 378.195 lineto
334.579 376.993 lineto
338.766 374.385 lineto
342.953 371.546 lineto
347.14 372.764 lineto
351.326 374.735 lineto
355.513 374.041 lineto
359.7 369.56 lineto
363.887 367.622 lineto
368.073 365.694 lineto
372.26 364.629 lineto
376.447 361.614 lineto
380.634 354.053 lineto
384.82 341.419 lineto
389.007 329.572 lineto
393.194 326.466 lineto
397.381 320.129 lineto
401.568 311.934 lineto
405.754 303.105 lineto
409.941 295.385 lineto
414.128 285.142 lineto
418.315 274.315 lineto
422.501 264.405 lineto
426.688 261.04 lineto
430.875 258.072 lineto
435.062 248.794 lineto
439.248 241.537 lineto
443.435 234.923 lineto
447.622 228.344 lineto
451.809 223.968 lineto
455.995 215.901 lineto
460.182 207.512 lineto
464.369 204.626 lineto
468.556 202.925 lineto
472.743 197.362 lineto
476.929 192.437 lineto
481.116 181.237 lineto
485.303 171.353 lineto
489.49 168.816 lineto
493.676 171.257 lineto
497.863 170.286 lineto
502.05 164.398 lineto
506.237 160.043 lineto
510.423 154.395 lineto
514.61 154.319 lineto
518.797 158.765 lineto
522.984 158.683 lineto
527.17 152.286 lineto
531.357 150.44 lineto
535.544 152.504 lineto
539.731 153.728 lineto
543.917 151.499 lineto
548.104 149.62 lineto
552.291 150.154 lineto
556.478 146.986 lineto
560.665 147.732 lineto
564.851 150.379 lineto
569.038 150.574 lineto
573.225 149.193 lineto
577.412 148.232 lineto
581.598 148.686 lineto
585.785 146.247 lineto
589.972 146.341 lineto
594.159 146.562 lineto
598.345 146.899 lineto
602.532 144.307 lineto
606.719 144.779 lineto
610.906 148.366 lineto
1 setlinewidth
0 0 1 setrgbcolor
stroke
newpath
76.3347 432.857 moveto
79.1868 432.857 lineto
83.3735 432.853 lineto
87.5603 432.834 lineto
91.7471 432.84 lineto
95.9338 432.822 lineto
100.121 432.691 lineto
104.307 432.502 lineto
108.494 432.57 lineto
112.681 432.586 lineto
116.868 432.416 lineto
121.054 432.294 lineto
125.241 432.335 lineto
129.428 432.015 lineto
133.615 431.442 lineto
137.801 430.759 lineto
141.988 429.27 lineto
146.175 424.335 lineto
150.362 412.992 lineto
154.549 385.797 lineto
158.735 351.138 lineto
162.922 325.928 lineto
167.109 294.825 lineto
171.296 273.447 lineto
175.482 263.328 lineto
179.669 253.621 lineto
183.856 231.197 lineto
188.043 212.333 lineto
192.229 198.181 lineto
196.416 199.651 lineto
200.603 201.499 lineto
204.79 189.985 lineto
208.976 176.685 lineto
213.163 179.076 lineto
217.35 168.823 lineto
221.537 161.927 lineto
225.723 169.334 lineto
229.91 169.924 lineto
234.097 164.086 lineto
238.284 161.31 lineto
242.471 157.577 lineto
246.657 159.673 lineto
250.844 160.133 lineto
255.031 152.286 lineto
259.218 150.089 lineto
263.404 153.622 lineto
267.591 152.583 lineto
271.778 150.565 lineto
275.965 148.15 lineto
280.151 146.275 lineto
284.338 147.265 lineto
288.525 149.619 lineto
292.712 146.256 lineto
296.898 144.404 lineto
301.085 144.858 lineto
305.272 146.911 lineto
309.459 146.362 lineto
313.646 144.089 lineto
317.832 143.264 lineto
322.019 143.279 lineto
326.206 143.831 lineto
330.393 147.308 lineto
334.579 149.194 lineto
338.766 151.736 lineto
342.953 147.913 lineto
347.14 145.692 lineto
351.326 148.131 lineto
355.513 149.208 lineto
359.7 143.386 lineto
363.887 142.106 lineto
368.073 146.534 lineto
372.26 147.111 lineto
376.447 144.999 lineto
380.634 143.835 lineto
384.82 145.329 lineto
389.007 146.137 lineto
393.194 148.425 lineto
397.381 148.294 lineto
401.568 151.374 lineto
405.754 155.314 lineto
409.941 152.919 lineto
414.128 152.188 lineto
418.315 154.26 lineto
422.501 152.493 lineto
426.688 146.545 lineto
430.875 143.083 lineto
435.062 143.868 lineto
439.248 143.802 lineto
443.435 142.248 lineto
447.622 144.352 lineto
451.809 147.435 lineto
455.995 148.607 lineto
460.182 150.348 lineto
464.369 147.649 lineto
468.556 146.557 lineto
472.743 146.109 lineto
476.929 147.916 lineto
481.116 149.632 lineto
485.303 148.308 lineto
489.49 148.124 lineto
493.676 149.018 lineto
497.863 150.889 lineto
502.05 151.431 lineto
506.237 148.131 lineto
510.423 146.834 lineto
514.61 145.991 lineto
518.797 146.411 lineto
522.984 147.659 lineto
527.17 146.38 lineto
531.357 148.734 lineto
535.544 147.513 lineto
539.731 144.868 lineto
543.917 146.733 lineto
548.104 148.401 lineto
552.291 147.773 lineto
556.478 145.147 lineto
560.665 145.453 lineto
564.851 145.713 lineto
569.038 145.195 lineto
573.225 146.915 lineto
577.412 148.339 lineto
581.598 147.996 lineto
585.785 146.608 lineto
589.972 147.077 lineto
594.159 148.729 lineto
598.345 148.074 lineto
602.532 146.539 lineto
606.719 146.482 lineto
610.906 147.452 lineto
1 setlinewidth
1 0 0 setrgbcolor
stroke
79 24.3 moveto
15 0 rlineto
2 setlinewidth
0 0 0 setrgbcolor
stroke
101.5 22.5 moveto
/Times findfont
6 scalefont
setfont
101.5 22.5 moveto
0 0 0 setrgbcolor
(rlnFourierShellCorrelationCorrected) show
222 24.3 moveto
15 0 rlineto
1 setlinewidth
0 1 0 setrgbcolor
stroke
244.5 22.5 moveto
/Times findfont
6 scalefont
setfont
244.5 22.5 moveto
0 0 0 setrgbcolor
(rlnFourierShellCorrelationUnmaskedMaps) show
365 24.3 moveto
15 0 rlineto
1 setlinewidth
0 0 1 setrgbcolor
stroke
387.5 22.5 moveto
/Times findfont
6 scalefont
setfont
387.5 22.5 moveto
0 0 0 setrgbcolor
(rlnFourierShellCorrelationMaskedMaps) show
508 24.3 moveto
15 0 rlineto
1 setlinewidth
1 0 0 setrgbcolor
stroke
530.5 22.5 moveto
/Times findfont
6 scalefont
setfont
530.5 22.5 moveto
0 0 0 setrgbcolor
(rlnCorrectedFourierShellCorrelationPhaseRandomizedMaskedMaps) show
