%!PS-Adobe-2.0 EPSF-1.2
%%BoundingBox: 0 0 715 530
%%Pages: 1
%%EndComments
75 90 moveto
75 90 moveto
0 7.84314 rlineto
1 setlinewidth
0.8 0.8 0.8 setrgbcolor
stroke
75 105.686 moveto
0 7.84314 rlineto
1 setlinewidth
0.8 0.8 0.8 setrgbcolor
stroke
75 121.373 moveto
0 7.84314 rlineto
1 setlinewidth
0.8 0.8 0.8 setrgbcolor
stroke
75 137.059 moveto
0 7.84314 rlineto
1 setlinewidth
0.8 0.8 0.8 setrgbcolor
stroke
75 152.745 moveto
0 7.84314 rlineto
1 setlinewidth
0.8 0.8 0.8 setrgbcolor
stroke
75 168.431 moveto
0 7.84314 rlineto
1 setlinewidth
0.8 0.8 0.8 setrgbcolor
stroke
75 184.118 moveto
0 7.84314 rlineto
1 setlinewidth
0.8 0.8 0.8 setrgbcolor
stroke
75 199.804 moveto
0 7.84314 rlineto
1 setlinewidth
0.8 0.8 0.8 setrgbcolor
stroke
75 215.49 moveto
0 7.84314 rlineto
1 setlinewidth
0.8 0.8 0.8 setrgbcolor
stroke
75 231.176 moveto
0 7.84314 rlineto
1 setlinewidth
0.8 0.8 0.8 setrgbcolor
stroke
75 246.863 moveto
0 7.84314 rlineto
1 setlinewidth
0.8 0.8 0.8 setrgbcolor
stroke
75 262.549 moveto
0 7.84314 rlineto
1 setlinewidth
0.8 0.8 0.8 setrgbcolor
stroke
75 278.235 moveto
0 7.84314 rlineto
1 setlinewidth
0.8 0.8 0.8 setrgbcolor
stroke
75 293.922 moveto
0 7.84314 rlineto
1 setlinewidth
0.8 0.8 0.8 setrgbcolor
stroke
75 309.608 moveto
0 7.84314 rlineto
1 setlinewidth
0.8 0.8 0.8 setrgbcolor
stroke
75 325.294 moveto
0 7.84314 rlineto
1 setlinewidth
0.8 0.8 0.8 setrgbcolor
stroke
75 340.98 moveto
0 7.84314 rlineto
1 setlinewidth
0.8 0.8 0.8 setrgbcolor
stroke
75 356.667 moveto
0 7.84314 rlineto
1 setlinewidth
0.8 0.8 0.8 setrgbcolor
stroke
75 372.353 moveto
0 7.84314 rlineto
1 setlinewidth
0.8 0.8 0.8 setrgbcolor
stroke
75 388.039 moveto
0 7.84314 rlineto
1 setlinewidth
0.8 0.8 0.8 setrgbcolor
stroke
75 403.725 moveto
0 7.84314 rlineto
1 setlinewidth
0.8 0.8 0.8 setrgbcolor
stroke
75 419.412 moveto
0 7.84314 rlineto
1 setlinewidth
0.8 0.8 0.8 setrgbcolor
stroke
75 435.098 moveto
0 7.84314 rlineto
1 setlinewidth
0.8 0.8 0.8 setrgbcolor
stroke
75 450.784 moveto
0 7.84314 rlineto
1 setlinewidth
0.8 0.8 0.8 setrgbcolor
stroke
75 466.471 moveto
0 7.84314 rlineto
1 setlinewidth
0.8 0.8 0.8 setrgbcolor
stroke
75 482.157 moveto
0 7.84314 rlineto
1 setlinewidth
0.8 0.8 0.8 setrgbcolor
stroke
141.667 90 moveto
141.667 90 moveto
0 7.84314 rlineto
1 setlinewidth
0.8 0.8 0.8 setrgbcolor
stroke
141.667 105.686 moveto
0 7.84314 rlineto
1 setlinewidth
0.8 0.8 0.8 setrgbcolor
stroke
141.667 121.373 moveto
0 7.84314 rlineto
1 setlinewidth
0.8 0.8 0.8 setrgbcolor
stroke
141.667 137.059 moveto
0 7.84314 rlineto
1 setlinewidth
0.8 0.8 0.8 setrgbcolor
stroke
141.667 152.745 moveto
0 7.84314 rlineto
1 setlinewidth
0.8 0.8 0.8 setrgbcolor
stroke
141.667 168.431 moveto
0 7.84314 rlineto
1 setlinewidth
0.8 0.8 0.8 setrgbcolor
stroke
141.667 184.118 moveto
0 7.84314 rlineto
1 setlinewidth
0.8 0.8 0.8 setrgbcolor
stroke
141.667 199.804 moveto
0 7.84314 rlineto
1 setlinewidth
0.8 0.8 0.8 setrgbcolor
stroke
141.667 215.49 moveto
0 7.84314 rlineto
1 setlinewidth
0.8 0.8 0.8 setrgbcolor
stroke
141.667 231.176 moveto
0 7.84314 rlineto
1 setlinewidth
0.8 0.8 0.8 setrgbcolor
stroke
141.667 246.863 moveto
0 7.84314 rlineto
1 setlinewidth
0.8 0.8 0.8 setrgbcolor
stroke
141.667 262.549 moveto
0 7.84314 rlineto
1 setlinewidth
0.8 0.8 0.8 setrgbcolor
stroke
141.667 278.235 moveto
0 7.84314 rlineto
1 setlinewidth
0.8 0.8 0.8 setrgbcolor
stroke
141.667 293.922 moveto
0 7.84314 rlineto
1 setlinewidth
0.8 0.8 0.8 setrgbcolor
stroke
141.667 309.608 moveto
0 7.84314 rlineto
1 setlinewidth
0.8 0.8 0.8 setrgbcolor
stroke
141.667 325.294 moveto
0 7.84314 rlineto
1 setlinewidth
0.8 0.8 0.8 setrgbcolor
stroke
141.667 340.98 moveto
0 7.84314 rlineto
1 setlinewidth
0.8 0.8 0.8 setrgbcolor
stroke
141.667 356.667 moveto
0 7.84314 rlineto
1 setlinewidth
0.8 0.8 0.8 setrgbcolor
stroke
141.667 372.353 moveto
0 7.84314 rlineto
1 setlinewidth
0.8 0.8 0.8 setrgbcolor
stroke
141.667 388.039 moveto
0 7.84314 rlineto
1 setlinewidth
0.8 0.8 0.8 setrgbcolor
stroke
141.667 403.725 moveto
0 7.84314 rlineto
1 setlinewidth
0.8 0.8 0.8 setrgbcolor
stroke
141.667 419.412 moveto
0 7.84314 rlineto
1 setlinewidth
0.8 0.8 0.8 setrgbcolor
stroke
141.667 435.098 moveto
0 7.84314 rlineto
1 setlinewidth
0.8 0.8 0.8 setrgbcolor
stroke
141.667 450.784 moveto
0 7.84314 rlineto
1 setlinewidth
0.8 0.8 0.8 setrgbcolor
stroke
141.667 466.471 moveto
0 7.84314 rlineto
1 setlinewidth
0.8 0.8 0.8 setrgbcolor
stroke
141.667 482.157 moveto
0 7.84314 rlineto
1 setlinewidth
0.8 0.8 0.8 setrgbcolor
stroke
208.333 90 moveto
208.333 90 moveto
0 7.84314 rlineto
1 setlinewidth
0.8 0.8 0.8 setrgbcolor
stroke
208.333 105.686 moveto
0 7.84314 rlineto
1 setlinewidth
0.8 0.8 0.8 setrgbcolor
stroke
208.333 121.373 moveto
0 7.84314 rlineto
1 setlinewidth
0.8 0.8 0.8 setrgbcolor
stroke
208.333 137.059 moveto
0 7.84314 rlineto
1 setlinewidth
0.8 0.8 0.8 setrgbcolor
stroke
208.333 152.745 moveto
0 7.84314 rlineto
1 setlinewidth
0.8 0.8 0.8 setrgbcolor
stroke
208.333 168.431 moveto
0 7.84314 rlineto
1 setlinewidth
0.8 0.8 0.8 setrgbcolor
stroke
208.333 184.118 moveto
0 7.84314 rlineto
1 setlinewidth
0.8 0.8 0.8 setrgbcolor
stroke
208.333 199.804 moveto
0 7.84314 rlineto
1 setlinewidth
0.8 0.8 0.8 setrgbcolor
stroke
208.333 215.49 moveto
0 7.84314 rlineto
1 setlinewidth
0.8 0.8 0.8 setrgbcolor
stroke
208.333 231.176 moveto
0 7.84314 rlineto
1 setlinewidth
0.8 0.8 0.8 setrgbcolor
stroke
208.333 246.863 moveto
0 7.84314 rlineto
1 setlinewidth
0.8 0.8 0.8 setrgbcolor
stroke
208.333 262.549 moveto
0 7.84314 rlineto
1 setlinewidth
0.8 0.8 0.8 setrgbcolor
stroke
208.333 278.235 moveto
0 7.84314 rlineto
1 setlinewidth
0.8 0.8 0.8 setrgbcolor
stroke
208.333 293.922 moveto
0 7.84314 rlineto
1 setlinewidth
0.8 0.8 0.8 setrgbcolor
stroke
208.333 309.608 moveto
0 7.84314 rlineto
1 setlinewidth
0.8 0.8 0.8 setrgbcolor
stroke
208.333 325.294 moveto
0 7.84314 rlineto
1 setlinewidth
0.8 0.8 0.8 setrgbcolor
stroke
208.333 340.98 moveto
0 7.84314 rlineto
1 setlinewidth
0.8 0.8 0.8 setrgbcolor
stroke
208.333 356.667 moveto
0 7.84314 rlineto
1 setlinewidth
0.8 0.8 0.8 setrgbcolor
stroke
208.333 372.353 moveto
0 7.84314 rlineto
1 setlinewidth
0.8 0.8 0.8 setrgbcolor
stroke
208.333 388.039 moveto
0 7.84314 rlineto
1 setlinewidth
0.8 0.8 0.8 setrgbcolor
stroke
208.333 403.725 moveto
0 7.84314 rlineto
1 setlinewidth
0.8 0.8 0.8 setrgbcolor
stroke
208.333 419.412 moveto
0 7.84314 rlineto
1 setlinewidth
0.8 0.8 0.8 setrgbcolor
stroke
208.333 435.098 moveto
0 7.84314 rlineto
1 setlinewidth
0.8 0.8 0.8 setrgbcolor
stroke
208.333 450.784 moveto
0 7.84314 rlineto
1 setlinewidth
0.8 0.8 0.8 setrgbcolor
stroke
208.333 466.471 moveto
0 7.84314 rlineto
1 setlinewidth
0.8 0.8 0.8 setrgbcolor
stroke
208.333 482.157 moveto
0 7.84314 rlineto
1 setlinewidth
0.8 0.8 0.8 setrgbcolor
stroke
275 90 moveto
275 90 moveto
0 7.84314 rlineto
1 setlinewidth
0.8 0.8 0.8 setrgbcolor
stroke
275 105.686 moveto
0 7.84314 rlineto
1 setlinewidth
0.8 0.8 0.8 setrgbcolor
stroke
275 121.373 moveto
0 7.84314 rlineto
1 setlinewidth
0.8 0.8 0.8 setrgbcolor
stroke
275 137.059 moveto
0 7.84314 rlineto
1 setlinewidth
0.8 0.8 0.8 setrgbcolor
stroke
275 152.745 moveto
0 7.84314 rlineto
1 setlinewidth
0.8 0.8 0.8 setrgbcolor
stroke
275 168.431 moveto
0 7.84314 rlineto
1 setlinewidth
0.8 0.8 0.8 setrgbcolor
stroke
275 184.118 moveto
0 7.84314 rlineto
1 setlinewidth
0.8 0.8 0.8 setrgbcolor
stroke
275 199.804 moveto
0 7.84314 rlineto
1 setlinewidth
0.8 0.8 0.8 setrgbcolor
stroke
275 215.49 moveto
0 7.84314 rlineto
1 setlinewidth
0.8 0.8 0.8 setrgbcolor
stroke
275 231.176 moveto
0 7.84314 rlineto
1 setlinewidth
0.8 0.8 0.8 setrgbcolor
stroke
275 246.863 moveto
0 7.84314 rlineto
1 setlinewidth
0.8 0.8 0.8 setrgbcolor
stroke
275 262.549 moveto
0 7.84314 rlineto
1 setlinewidth
0.8 0.8 0.8 setrgbcolor
stroke
275 278.235 moveto
0 7.84314 rlineto
1 setlinewidth
0.8 0.8 0.8 setrgbcolor
stroke
275 293.922 moveto
0 7.84314 rlineto
1 setlinewidth
0.8 0.8 0.8 setrgbcolor
stroke
275 309.608 moveto
0 7.84314 rlineto
1 setlinewidth
0.8 0.8 0.8 setrgbcolor
stroke
275 325.294 moveto
0 7.84314 rlineto
1 setlinewidth
0.8 0.8 0.8 setrgbcolor
stroke
275 340.98 moveto
0 7.84314 rlineto
1 setlinewidth
0.8 0.8 0.8 setrgbcolor
stroke
275 356.667 moveto
0 7.84314 rlineto
1 setlinewidth
0.8 0.8 0.8 setrgbcolor
stroke
275 372.353 moveto
0 7.84314 rlineto
1 setlinewidth
0.8 0.8 0.8 setrgbcolor
stroke
275 388.039 moveto
0 7.84314 rlineto
1 setlinewidth
0.8 0.8 0.8 setrgbcolor
stroke
275 403.725 moveto
0 7.84314 rlineto
1 setlinewidth
0.8 0.8 0.8 setrgbcolor
stroke
275 419.412 moveto
0 7.84314 rlineto
1 setlinewidth
0.8 0.8 0.8 setrgbcolor
stroke
275 435.098 moveto
0 7.84314 rlineto
1 setlinewidth
0.8 0.8 0.8 setrgbcolor
stroke
275 450.784 moveto
0 7.84314 rlineto
1 setlinewidth
0.8 0.8 0.8 setrgbcolor
stroke
275 466.471 moveto
0 7.84314 rlineto
1 setlinewidth
0.8 0.8 0.8 setrgbcolor
stroke
275 482.157 moveto
0 7.84314 rlineto
1 setlinewidth
0.8 0.8 0.8 setrgbcolor
stroke
341.667 90 moveto
341.667 90 moveto
0 7.84314 rlineto
1 setlinewidth
0.8 0.8 0.8 setrgbcolor
stroke
341.667 105.686 moveto
0 7.84314 rlineto
1 setlinewidth
0.8 0.8 0.8 setrgbcolor
stroke
341.667 121.373 moveto
0 7.84314 rlineto
1 setlinewidth
0.8 0.8 0.8 setrgbcolor
stroke
341.667 137.059 moveto
0 7.84314 rlineto
1 setlinewidth
0.8 0.8 0.8 setrgbcolor
stroke
341.667 152.745 moveto
0 7.84314 rlineto
1 setlinewidth
0.8 0.8 0.8 setrgbcolor
stroke
341.667 168.431 moveto
0 7.84314 rlineto
1 setlinewidth
0.8 0.8 0.8 setrgbcolor
stroke
341.667 184.118 moveto
0 7.84314 rlineto
1 setlinewidth
0.8 0.8 0.8 setrgbcolor
stroke
341.667 199.804 moveto
0 7.84314 rlineto
1 setlinewidth
0.8 0.8 0.8 setrgbcolor
stroke
341.667 215.49 moveto
0 7.84314 rlineto
1 setlinewidth
0.8 0.8 0.8 setrgbcolor
stroke
341.667 231.176 moveto
0 7.84314 rlineto
1 setlinewidth
0.8 0.8 0.8 setrgbcolor
stroke
341.667 246.863 moveto
0 7.84314 rlineto
1 setlinewidth
0.8 0.8 0.8 setrgbcolor
stroke
341.667 262.549 moveto
0 7.84314 rlineto
1 setlinewidth
0.8 0.8 0.8 setrgbcolor
stroke
341.667 278.235 moveto
0 7.84314 rlineto
1 setlinewidth
0.8 0.8 0.8 setrgbcolor
stroke
341.667 293.922 moveto
0 7.84314 rlineto
1 setlinewidth
0.8 0.8 0.8 setrgbcolor
stroke
341.667 309.608 moveto
0 7.84314 rlineto
1 setlinewidth
0.8 0.8 0.8 setrgbcolor
stroke
341.667 325.294 moveto
0 7.84314 rlineto
1 setlinewidth
0.8 0.8 0.8 setrgbcolor
stroke
341.667 340.98 moveto
0 7.84314 rlineto
1 setlinewidth
0.8 0.8 0.8 setrgbcolor
stroke
341.667 356.667 moveto
0 7.84314 rlineto
1 setlinewidth
0.8 0.8 0.8 setrgbcolor
stroke
341.667 372.353 moveto
0 7.84314 rlineto
1 setlinewidth
0.8 0.8 0.8 setrgbcolor
stroke
341.667 388.039 moveto
0 7.84314 rlineto
1 setlinewidth
0.8 0.8 0.8 setrgbcolor
stroke
341.667 403.725 moveto
0 7.84314 rlineto
1 setlinewidth
0.8 0.8 0.8 setrgbcolor
stroke
341.667 419.412 moveto
0 7.84314 rlineto
1 setlinewidth
0.8 0.8 0.8 setrgbcolor
stroke
341.667 435.098 moveto
0 7.84314 rlineto
1 setlinewidth
0.8 0.8 0.8 setrgbcolor
stroke
341.667 450.784 moveto
0 7.84314 rlineto
1 setlinewidth
0.8 0.8 0.8 setrgbcolor
stroke
341.667 466.471 moveto
0 7.84314 rlineto
1 setlinewidth
0.8 0.8 0.8 setrgbcolor
stroke
341.667 482.157 moveto
0 7.84314 rlineto
1 setlinewidth
0.8 0.8 0.8 setrgbcolor
stroke
408.333 90 moveto
408.333 90 moveto
0 7.84314 rlineto
1 setlinewidth
0.8 0.8 0.8 setrgbcolor
stroke
408.333 105.686 moveto
0 7.84314 rlineto
1 setlinewidth
0.8 0.8 0.8 setrgbcolor
stroke
408.333 121.373 moveto
0 7.84314 rlineto
1 setlinewidth
0.8 0.8 0.8 setrgbcolor
stroke
408.333 137.059 moveto
0 7.84314 rlineto
1 setlinewidth
0.8 0.8 0.8 setrgbcolor
stroke
408.333 152.745 moveto
0 7.84314 rlineto
1 setlinewidth
0.8 0.8 0.8 setrgbcolor
stroke
408.333 168.431 moveto
0 7.84314 rlineto
1 setlinewidth
0.8 0.8 0.8 setrgbcolor
stroke
408.333 184.118 moveto
0 7.84314 rlineto
1 setlinewidth
0.8 0.8 0.8 setrgbcolor
stroke
408.333 199.804 moveto
0 7.84314 rlineto
1 setlinewidth
0.8 0.8 0.8 setrgbcolor
stroke
408.333 215.49 moveto
0 7.84314 rlineto
1 setlinewidth
0.8 0.8 0.8 setrgbcolor
stroke
408.333 231.176 moveto
0 7.84314 rlineto
1 setlinewidth
0.8 0.8 0.8 setrgbcolor
stroke
408.333 246.863 moveto
0 7.84314 rlineto
1 setlinewidth
0.8 0.8 0.8 setrgbcolor
stroke
408.333 262.549 moveto
0 7.84314 rlineto
1 setlinewidth
0.8 0.8 0.8 setrgbcolor
stroke
408.333 278.235 moveto
0 7.84314 rlineto
1 setlinewidth
0.8 0.8 0.8 setrgbcolor
stroke
408.333 293.922 moveto
0 7.84314 rlineto
1 setlinewidth
0.8 0.8 0.8 setrgbcolor
stroke
408.333 309.608 moveto
0 7.84314 rlineto
1 setlinewidth
0.8 0.8 0.8 setrgbcolor
stroke
408.333 325.294 moveto
0 7.84314 rlineto
1 setlinewidth
0.8 0.8 0.8 setrgbcolor
stroke
408.333 340.98 moveto
0 7.84314 rlineto
1 setlinewidth
0.8 0.8 0.8 setrgbcolor
stroke
408.333 356.667 moveto
0 7.84314 rlineto
1 setlinewidth
0.8 0.8 0.8 setrgbcolor
stroke
408.333 372.353 moveto
0 7.84314 rlineto
1 setlinewidth
0.8 0.8 0.8 setrgbcolor
stroke
408.333 388.039 moveto
0 7.84314 rlineto
1 setlinewidth
0.8 0.8 0.8 setrgbcolor
stroke
408.333 403.725 moveto
0 7.84314 rlineto
1 setlinewidth
0.8 0.8 0.8 setrgbcolor
stroke
408.333 419.412 moveto
0 7.84314 rlineto
1 setlinewidth
0.8 0.8 0.8 setrgbcolor
stroke
408.333 435.098 moveto
0 7.84314 rlineto
1 setlinewidth
0.8 0.8 0.8 setrgbcolor
stroke
408.333 450.784 moveto
0 7.84314 rlineto
1 setlinewidth
0.8 0.8 0.8 setrgbcolor
stroke
408.333 466.471 moveto
0 7.84314 rlineto
1 setlinewidth
0.8 0.8 0.8 setrgbcolor
stroke
408.333 482.157 moveto
0 7.84314 rlineto
1 setlinewidth
0.8 0.8 0.8 setrgbcolor
stroke
475 90 moveto
475 90 moveto
0 7.84314 rlineto
1 setlinewidth
0.8 0.8 0.8 setrgbcolor
stroke
475 105.686 moveto
0 7.84314 rlineto
1 setlinewidth
0.8 0.8 0.8 setrgbcolor
stroke
475 121.373 moveto
0 7.84314 rlineto
1 setlinewidth
0.8 0.8 0.8 setrgbcolor
stroke
475 137.059 moveto
0 7.84314 rlineto
1 setlinewidth
0.8 0.8 0.8 setrgbcolor
stroke
475 152.745 moveto
0 7.84314 rlineto
1 setlinewidth
0.8 0.8 0.8 setrgbcolor
stroke
475 168.431 moveto
0 7.84314 rlineto
1 setlinewidth
0.8 0.8 0.8 setrgbcolor
stroke
475 184.118 moveto
0 7.84314 rlineto
1 setlinewidth
0.8 0.8 0.8 setrgbcolor
stroke
475 199.804 moveto
0 7.84314 rlineto
1 setlinewidth
0.8 0.8 0.8 setrgbcolor
stroke
475 215.49 moveto
0 7.84314 rlineto
1 setlinewidth
0.8 0.8 0.8 setrgbcolor
stroke
475 231.176 moveto
0 7.84314 rlineto
1 setlinewidth
0.8 0.8 0.8 setrgbcolor
stroke
475 246.863 moveto
0 7.84314 rlineto
1 setlinewidth
0.8 0.8 0.8 setrgbcolor
stroke
475 262.549 moveto
0 7.84314 rlineto
1 setlinewidth
0.8 0.8 0.8 setrgbcolor
stroke
475 278.235 moveto
0 7.84314 rlineto
1 setlinewidth
0.8 0.8 0.8 setrgbcolor
stroke
475 293.922 moveto
0 7.84314 rlineto
1 setlinewidth
0.8 0.8 0.8 setrgbcolor
stroke
475 309.608 moveto
0 7.84314 rlineto
1 setlinewidth
0.8 0.8 0.8 setrgbcolor
stroke
475 325.294 moveto
0 7.84314 rlineto
1 setlinewidth
0.8 0.8 0.8 setrgbcolor
stroke
475 340.98 moveto
0 7.84314 rlineto
1 setlinewidth
0.8 0.8 0.8 setrgbcolor
stroke
475 356.667 moveto
0 7.84314 rlineto
1 setlinewidth
0.8 0.8 0.8 setrgbcolor
stroke
475 372.353 moveto
0 7.84314 rlineto
1 setlinewidth
0.8 0.8 0.8 setrgbcolor
stroke
475 388.039 moveto
0 7.84314 rlineto
1 setlinewidth
0.8 0.8 0.8 setrgbcolor
stroke
475 403.725 moveto
0 7.84314 rlineto
1 setlinewidth
0.8 0.8 0.8 setrgbcolor
stroke
475 419.412 moveto
0 7.84314 rlineto
1 setlinewidth
0.8 0.8 0.8 setrgbcolor
stroke
475 435.098 moveto
0 7.84314 rlineto
1 setlinewidth
0.8 0.8 0.8 setrgbcolor
stroke
475 450.784 moveto
0 7.84314 rlineto
1 setlinewidth
0.8 0.8 0.8 setrgbcolor
stroke
475 466.471 moveto
0 7.84314 rlineto
1 setlinewidth
0.8 0.8 0.8 setrgbcolor
stroke
475 482.157 moveto
0 7.84314 rlineto
1 setlinewidth
0.8 0.8 0.8 setrgbcolor
stroke
541.667 90 moveto
541.667 90 moveto
0 7.84314 rlineto
1 setlinewidth
0.8 0.8 0.8 setrgbcolor
stroke
541.667 105.686 moveto
0 7.84314 rlineto
1 setlinewidth
0.8 0.8 0.8 setrgbcolor
stroke
541.667 121.373 moveto
0 7.84314 rlineto
1 setlinewidth
0.8 0.8 0.8 setrgbcolor
stroke
541.667 137.059 moveto
0 7.84314 rlineto
1 setlinewidth
0.8 0.8 0.8 setrgbcolor
stroke
541.667 152.745 moveto
0 7.84314 rlineto
1 setlinewidth
0.8 0.8 0.8 setrgbcolor
stroke
541.667 168.431 moveto
0 7.84314 rlineto
1 setlinewidth
0.8 0.8 0.8 setrgbcolor
stroke
541.667 184.118 moveto
0 7.84314 rlineto
1 setlinewidth
0.8 0.8 0.8 setrgbcolor
stroke
541.667 199.804 moveto
0 7.84314 rlineto
1 setlinewidth
0.8 0.8 0.8 setrgbcolor
stroke
541.667 215.49 moveto
0 7.84314 rlineto
1 setlinewidth
0.8 0.8 0.8 setrgbcolor
stroke
541.667 231.176 moveto
0 7.84314 rlineto
1 setlinewidth
0.8 0.8 0.8 setrgbcolor
stroke
541.667 246.863 moveto
0 7.84314 rlineto
1 setlinewidth
0.8 0.8 0.8 setrgbcolor
stroke
541.667 262.549 moveto
0 7.84314 rlineto
1 setlinewidth
0.8 0.8 0.8 setrgbcolor
stroke
541.667 278.235 moveto
0 7.84314 rlineto
1 setlinewidth
0.8 0.8 0.8 setrgbcolor
stroke
541.667 293.922 moveto
0 7.84314 rlineto
1 setlinewidth
0.8 0.8 0.8 setrgbcolor
stroke
541.667 309.608 moveto
0 7.84314 rlineto
1 setlinewidth
0.8 0.8 0.8 setrgbcolor
stroke
541.667 325.294 moveto
0 7.84314 rlineto
1 setlinewidth
0.8 0.8 0.8 setrgbcolor
stroke
541.667 340.98 moveto
0 7.84314 rlineto
1 setlinewidth
0.8 0.8 0.8 setrgbcolor
stroke
541.667 356.667 moveto
0 7.84314 rlineto
1 setlinewidth
0.8 0.8 0.8 setrgbcolor
stroke
541.667 372.353 moveto
0 7.84314 rlineto
1 setlinewidth
0.8 0.8 0.8 setrgbcolor
stroke
541.667 388.039 moveto
0 7.84314 rlineto
1 setlinewidth
0.8 0.8 0.8 setrgbcolor
stroke
541.667 403.725 moveto
0 7.84314 rlineto
1 setlinewidth
0.8 0.8 0.8 setrgbcolor
stroke
541.667 419.412 moveto
0 7.84314 rlineto
1 setlinewidth
0.8 0.8 0.8 setrgbcolor
stroke
541.667 435.098 moveto
0 7.84314 rlineto
1 setlinewidth
0.8 0.8 0.8 setrgbcolor
stroke
541.667 450.784 moveto
0 7.84314 rlineto
1 setlinewidth
0.8 0.8 0.8 setrgbcolor
stroke
541.667 466.471 moveto
0 7.84314 rlineto
1 setlinewidth
0.8 0.8 0.8 setrgbcolor
stroke
541.667 482.157 moveto
0 7.84314 rlineto
1 setlinewidth
0.8 0.8 0.8 setrgbcolor
stroke
608.333 90 moveto
608.333 90 moveto
0 7.84314 rlineto
1 setlinewidth
0.8 0.8 0.8 setrgbcolor
stroke
608.333 105.686 moveto
0 7.84314 rlineto
1 setlinewidth
0.8 0.8 0.8 setrgbcolor
stroke
608.333 121.373 moveto
0 7.84314 rlineto
1 setlinewidth
0.8 0.8 0.8 setrgbcolor
stroke
608.333 137.059 moveto
0 7.84314 rlineto
1 setlinewidth
0.8 0.8 0.8 setrgbcolor
stroke
608.333 152.745 moveto
0 7.84314 rlineto
1 setlinewidth
0.8 0.8 0.8 setrgbcolor
stroke
608.333 168.431 moveto
0 7.84314 rlineto
1 setlinewidth
0.8 0.8 0.8 setrgbcolor
stroke
608.333 184.118 moveto
0 7.84314 rlineto
1 setlinewidth
0.8 0.8 0.8 setrgbcolor
stroke
608.333 199.804 moveto
0 7.84314 rlineto
1 setlinewidth
0.8 0.8 0.8 setrgbcolor
stroke
608.333 215.49 moveto
0 7.84314 rlineto
1 setlinewidth
0.8 0.8 0.8 setrgbcolor
stroke
608.333 231.176 moveto
0 7.84314 rlineto
1 setlinewidth
0.8 0.8 0.8 setrgbcolor
stroke
608.333 246.863 moveto
0 7.84314 rlineto
1 setlinewidth
0.8 0.8 0.8 setrgbcolor
stroke
608.333 262.549 moveto
0 7.84314 rlineto
1 setlinewidth
0.8 0.8 0.8 setrgbcolor
stroke
608.333 278.235 moveto
0 7.84314 rlineto
1 setlinewidth
0.8 0.8 0.8 setrgbcolor
stroke
608.333 293.922 moveto
0 7.84314 rlineto
1 setlinewidth
0.8 0.8 0.8 setrgbcolor
stroke
608.333 309.608 moveto
0 7.84314 rlineto
1 setlinewidth
0.8 0.8 0.8 setrgbcolor
stroke
608.333 325.294 moveto
0 7.84314 rlineto
1 setlinewidth
0.8 0.8 0.8 setrgbcolor
stroke
608.333 340.98 moveto
0 7.84314 rlineto
1 setlinewidth
0.8 0.8 0.8 setrgbcolor
stroke
608.333 356.667 moveto
0 7.84314 rlineto
1 setlinewidth
0.8 0.8 0.8 setrgbcolor
stroke
608.333 372.353 moveto
0 7.84314 rlineto
1 setlinewidth
0.8 0.8 0.8 setrgbcolor
stroke
608.333 388.039 moveto
0 7.84314 rlineto
1 setlinewidth
0.8 0.8 0.8 setrgbcolor
stroke
608.333 403.725 moveto
0 7.84314 rlineto
1 setlinewidth
0.8 0.8 0.8 setrgbcolor
stroke
608.333 419.412 moveto
0 7.84314 rlineto
1 setlinewidth
0.8 0.8 0.8 setrgbcolor
stroke
608.333 435.098 moveto
0 7.84314 rlineto
1 setlinewidth
0.8 0.8 0.8 setrgbcolor
stroke
608.333 450.784 moveto
0 7.84314 rlineto
1 setlinewidth
0.8 0.8 0.8 setrgbcolor
stroke
608.333 466.471 moveto
0 7.84314 rlineto
1 setlinewidth
0.8 0.8 0.8 setrgbcolor
stroke
608.333 482.157 moveto
0 7.84314 rlineto
1 setlinewidth
0.8 0.8 0.8 setrgbcolor
stroke
675 90 moveto
675 90 moveto
0 7.84314 rlineto
1 setlinewidth
0.8 0.8 0.8 setrgbcolor
stroke
675 105.686 moveto
0 7.84314 rlineto
1 setlinewidth
0.8 0.8 0.8 setrgbcolor
stroke
675 121.373 moveto
0 7.84314 rlineto
1 setlinewidth
0.8 0.8 0.8 setrgbcolor
stroke
675 137.059 moveto
0 7.84314 rlineto
1 setlinewidth
0.8 0.8 0.8 setrgbcolor
stroke
675 152.745 moveto
0 7.84314 rlineto
1 setlinewidth
0.8 0.8 0.8 setrgbcolor
stroke
675 168.431 moveto
0 7.84314 rlineto
1 setlinewidth
0.8 0.8 0.8 setrgbcolor
stroke
675 184.118 moveto
0 7.84314 rlineto
1 setlinewidth
0.8 0.8 0.8 setrgbcolor
stroke
675 199.804 moveto
0 7.84314 rlineto
1 setlinewidth
0.8 0.8 0.8 setrgbcolor
stroke
675 215.49 moveto
0 7.84314 rlineto
1 setlinewidth
0.8 0.8 0.8 setrgbcolor
stroke
675 231.176 moveto
0 7.84314 rlineto
1 setlinewidth
0.8 0.8 0.8 setrgbcolor
stroke
675 246.863 moveto
0 7.84314 rlineto
1 setlinewidth
0.8 0.8 0.8 setrgbcolor
stroke
675 262.549 moveto
0 7.84314 rlineto
1 setlinewidth
0.8 0.8 0.8 setrgbcolor
stroke
675 278.235 moveto
0 7.84314 rlineto
1 setlinewidth
0.8 0.8 0.8 setrgbcolor
stroke
675 293.922 moveto
0 7.84314 rlineto
1 setlinewidth
0.8 0.8 0.8 setrgbcolor
stroke
675 309.608 moveto
0 7.84314 rlineto
1 setlinewidth
0.8 0.8 0.8 setrgbcolor
stroke
675 325.294 moveto
0 7.84314 rlineto
1 setlinewidth
0.8 0.8 0.8 setrgbcolor
stroke
675 340.98 moveto
0 7.84314 rlineto
1 setlinewidth
0.8 0.8 0.8 setrgbcolor
stroke
675 356.667 moveto
0 7.84314 rlineto
1 setlinewidth
0.8 0.8 0.8 setrgbcolor
stroke
675 372.353 moveto
0 7.84314 rlineto
1 setlinewidth
0.8 0.8 0.8 setrgbcolor
stroke
675 388.039 moveto
0 7.84314 rlineto
1 setlinewidth
0.8 0.8 0.8 setrgbcolor
stroke
675 403.725 moveto
0 7.84314 rlineto
1 setlinewidth
0.8 0.8 0.8 setrgbcolor
stroke
675 419.412 moveto
0 7.84314 rlineto
1 setlinewidth
0.8 0.8 0.8 setrgbcolor
stroke
675 435.098 moveto
0 7.84314 rlineto
1 setlinewidth
0.8 0.8 0.8 setrgbcolor
stroke
675 450.784 moveto
0 7.84314 rlineto
1 setlinewidth
0.8 0.8 0.8 setrgbcolor
stroke
675 466.471 moveto
0 7.84314 rlineto
1 setlinewidth
0.8 0.8 0.8 setrgbcolor
stroke
675 482.157 moveto
0 7.84314 rlineto
1 setlinewidth
0.8 0.8 0.8 setrgbcolor
stroke
75 90 moveto
75 90 moveto
7.79221 0 rlineto
1 setlinewidth
0.8 0.8 0.8 setrgbcolor
stroke
90.5844 90 moveto
7.79221 0 rlineto
1 setlinewidth
0.8 0.8 0.8 setrgbcolor
stroke
106.169 90 moveto
7.79221 0 rlineto
1 setlinewidth
0.8 0.8 0.8 setrgbcolor
stroke
121.753 90 moveto
7.79221 0 rlineto
1 setlinewidth
0.8 0.8 0.8 setrgbcolor
stroke
137.338 90 moveto
7.79221 0 rlineto
1 setlinewidth
0.8 0.8 0.8 setrgbcolor
stroke
152.922 90 moveto
7.79221 0 rlineto
1 setlinewidth
0.8 0.8 0.8 setrgbcolor
stroke
168.506 90 moveto
7.79221 0 rlineto
1 setlinewidth
0.8 0.8 0.8 setrgbcolor
stroke
184.091 90 moveto
7.79221 0 rlineto
1 setlinewidth
0.8 0.8 0.8 setrgbcolor
stroke
199.675 90 moveto
7.79221 0 rlineto
1 setlinewidth
0.8 0.8 0.8 setrgbcolor
stroke
215.26 90 moveto
7.79221 0 rlineto
1 setlinewidth
0.8 0.8 0.8 setrgbcolor
stroke
230.844 90 moveto
7.79221 0 rlineto
1 setlinewidth
0.8 0.8 0.8 setrgbcolor
stroke
246.429 90 moveto
7.79221 0 rlineto
1 setlinewidth
0.8 0.8 0.8 setrgbcolor
stroke
262.013 90 moveto
7.79221 0 rlineto
1 setlinewidth
0.8 0.8 0.8 setrgbcolor
stroke
277.597 90 moveto
7.79221 0 rlineto
1 setlinewidth
0.8 0.8 0.8 setrgbcolor
stroke
293.182 90 moveto
7.79221 0 rlineto
1 setlinewidth
0.8 0.8 0.8 setrgbcolor
stroke
308.766 90 moveto
7.79221 0 rlineto
1 setlinewidth
0.8 0.8 0.8 setrgbcolor
stroke
324.351 90 moveto
7.79221 0 rlineto
1 setlinewidth
0.8 0.8 0.8 setrgbcolor
stroke
339.935 90 moveto
7.79221 0 rlineto
1 setlinewidth
0.8 0.8 0.8 setrgbcolor
stroke
355.519 90 moveto
7.79221 0 rlineto
1 setlinewidth
0.8 0.8 0.8 setrgbcolor
stroke
371.104 90 moveto
7.79221 0 rlineto
1 setlinewidth
0.8 0.8 0.8 setrgbcolor
stroke
386.688 90 moveto
7.79221 0 rlineto
1 setlinewidth
0.8 0.8 0.8 setrgbcolor
stroke
402.273 90 moveto
7.79221 0 rlineto
1 setlinewidth
0.8 0.8 0.8 setrgbcolor
stroke
417.857 90 moveto
7.79221 0 rlineto
1 setlinewidth
0.8 0.8 0.8 setrgbcolor
stroke
433.442 90 moveto
7.79221 0 rlineto
1 setlinewidth
0.8 0.8 0.8 setrgbcolor
stroke
449.026 90 moveto
7.79221 0 rlineto
1 setlinewidth
0.8 0.8 0.8 setrgbcolor
stroke
464.61 90 moveto
7.79221 0 rlineto
1 setlinewidth
0.8 0.8 0.8 setrgbcolor
stroke
480.195 90 moveto
7.79221 0 rlineto
1 setlinewidth
0.8 0.8 0.8 setrgbcolor
stroke
495.779 90 moveto
7.79221 0 rlineto
1 setlinewidth
0.8 0.8 0.8 setrgbcolor
stroke
511.364 90 moveto
7.79221 0 rlineto
1 setlinewidth
0.8 0.8 0.8 setrgbcolor
stroke
526.948 90 moveto
7.79221 0 rlineto
1 setlinewidth
0.8 0.8 0.8 setrgbcolor
stroke
542.532 90 moveto
7.79221 0 rlineto
1 setlinewidth
0.8 0.8 0.8 setrgbcolor
stroke
558.117 90 moveto
7.79221 0 rlineto
1 setlinewidth
0.8 0.8 0.8 setrgbcolor
stroke
573.701 90 moveto
7.79221 0 rlineto
1 setlinewidth
0.8 0.8 0.8 setrgbcolor
stroke
589.286 90 moveto
7.79221 0 rlineto
1 setlinewidth
0.8 0.8 0.8 setrgbcolor
stroke
604.87 90 moveto
7.79221 0 rlineto
1 setlinewidth
0.8 0.8 0.8 setrgbcolor
stroke
620.455 90 moveto
7.79221 0 rlineto
1 setlinewidth
0.8 0.8 0.8 setrgbcolor
stroke
636.039 90 moveto
7.79221 0 rlineto
1 setlinewidth
0.8 0.8 0.8 setrgbcolor
stroke
651.623 90 moveto
7.79221 0 rlineto
1 setlinewidth
0.8 0.8 0.8 setrgbcolor
stroke
667.208 90 moveto
7.79221 0 rlineto
1 setlinewidth
0.8 0.8 0.8 setrgbcolor
stroke
75 140 moveto
75 140 moveto
7.79221 0 rlineto
1 setlinewidth
0.8 0.8 0.8 setrgbcolor
stroke
90.5844 140 moveto
7.79221 0 rlineto
1 setlinewidth
0.8 0.8 0.8 setrgbcolor
stroke
106.169 140 moveto
7.79221 0 rlineto
1 setlinewidth
0.8 0.8 0.8 setrgbcolor
stroke
121.753 140 moveto
7.79221 0 rlineto
1 setlinewidth
0.8 0.8 0.8 setrgbcolor
stroke
137.338 140 moveto
7.79221 0 rlineto
1 setlinewidth
0.8 0.8 0.8 setrgbcolor
stroke
152.922 140 moveto
7.79221 0 rlineto
1 setlinewidth
0.8 0.8 0.8 setrgbcolor
stroke
168.506 140 moveto
7.79221 0 rlineto
1 setlinewidth
0.8 0.8 0.8 setrgbcolor
stroke
184.091 140 moveto
7.79221 0 rlineto
1 setlinewidth
0.8 0.8 0.8 setrgbcolor
stroke
199.675 140 moveto
7.79221 0 rlineto
1 setlinewidth
0.8 0.8 0.8 setrgbcolor
stroke
215.26 140 moveto
7.79221 0 rlineto
1 setlinewidth
0.8 0.8 0.8 setrgbcolor
stroke
230.844 140 moveto
7.79221 0 rlineto
1 setlinewidth
0.8 0.8 0.8 setrgbcolor
stroke
246.429 140 moveto
7.79221 0 rlineto
1 setlinewidth
0.8 0.8 0.8 setrgbcolor
stroke
262.013 140 moveto
7.79221 0 rlineto
1 setlinewidth
0.8 0.8 0.8 setrgbcolor
stroke
277.597 140 moveto
7.79221 0 rlineto
1 setlinewidth
0.8 0.8 0.8 setrgbcolor
stroke
293.182 140 moveto
7.79221 0 rlineto
1 setlinewidth
0.8 0.8 0.8 setrgbcolor
stroke
308.766 140 moveto
7.79221 0 rlineto
1 setlinewidth
0.8 0.8 0.8 setrgbcolor
stroke
324.351 140 moveto
7.79221 0 rlineto
1 setlinewidth
0.8 0.8 0.8 setrgbcolor
stroke
339.935 140 moveto
7.79221 0 rlineto
1 setlinewidth
0.8 0.8 0.8 setrgbcolor
stroke
355.519 140 moveto
7.79221 0 rlineto
1 setlinewidth
0.8 0.8 0.8 setrgbcolor
stroke
371.104 140 moveto
7.79221 0 rlineto
1 setlinewidth
0.8 0.8 0.8 setrgbcolor
stroke
386.688 140 moveto
7.79221 0 rlineto
1 setlinewidth
0.8 0.8 0.8 setrgbcolor
stroke
402.273 140 moveto
7.79221 0 rlineto
1 setlinewidth
0.8 0.8 0.8 setrgbcolor
stroke
417.857 140 moveto
7.79221 0 rlineto
1 setlinewidth
0.8 0.8 0.8 setrgbcolor
stroke
433.442 140 moveto
7.79221 0 rlineto
1 setlinewidth
0.8 0.8 0.8 setrgbcolor
stroke
449.026 140 moveto
7.79221 0 rlineto
1 setlinewidth
0.8 0.8 0.8 setrgbcolor
stroke
464.61 140 moveto
7.79221 0 rlineto
1 setlinewidth
0.8 0.8 0.8 setrgbcolor
stroke
480.195 140 moveto
7.79221 0 rlineto
1 setlinewidth
0.8 0.8 0.8 setrgbcolor
stroke
495.779 140 moveto
7.79221 0 rlineto
1 setlinewidth
0.8 0.8 0.8 setrgbcolor
stroke
511.364 140 moveto
7.79221 0 rlineto
1 setlinewidth
0.8 0.8 0.8 setrgbcolor
stroke
526.948 140 moveto
7.79221 0 rlineto
1 setlinewidth
0.8 0.8 0.8 setrgbcolor
stroke
542.532 140 moveto
7.79221 0 rlineto
1 setlinewidth
0.8 0.8 0.8 setrgbcolor
stroke
558.117 140 moveto
7.79221 0 rlineto
1 setlinewidth
0.8 0.8 0.8 setrgbcolor
stroke
573.701 140 moveto
7.79221 0 rlineto
1 setlinewidth
0.8 0.8 0.8 setrgbcolor
stroke
589.286 140 moveto
7.79221 0 rlineto
1 setlinewidth
0.8 0.8 0.8 setrgbcolor
stroke
604.87 140 moveto
7.79221 0 rlineto
1 setlinewidth
0.8 0.8 0.8 setrgbcolor
stroke
620.455 140 moveto
7.79221 0 rlineto
1 setlinewidth
0.8 0.8 0.8 setrgbcolor
stroke
636.039 140 moveto
7.79221 0 rlineto
1 setlinewidth
0.8 0.8 0.8 setrgbcolor
stroke
651.623 140 moveto
7.79221 0 rlineto
1 setlinewidth
0.8 0.8 0.8 setrgbcolor
stroke
667.208 140 moveto
7.79221 0 rlineto
1 setlinewidth
0.8 0.8 0.8 setrgbcolor
stroke
75 190 moveto
75 190 moveto
7.79221 0 rlineto
1 setlinewidth
0.8 0.8 0.8 setrgbcolor
stroke
90.5844 190 moveto
7.79221 0 rlineto
1 setlinewidth
0.8 0.8 0.8 setrgbcolor
stroke
106.169 190 moveto
7.79221 0 rlineto
1 setlinewidth
0.8 0.8 0.8 setrgbcolor
stroke
121.753 190 moveto
7.79221 0 rlineto
1 setlinewidth
0.8 0.8 0.8 setrgbcolor
stroke
137.338 190 moveto
7.79221 0 rlineto
1 setlinewidth
0.8 0.8 0.8 setrgbcolor
stroke
152.922 190 moveto
7.79221 0 rlineto
1 setlinewidth
0.8 0.8 0.8 setrgbcolor
stroke
168.506 190 moveto
7.79221 0 rlineto
1 setlinewidth
0.8 0.8 0.8 setrgbcolor
stroke
184.091 190 moveto
7.79221 0 rlineto
1 setlinewidth
0.8 0.8 0.8 setrgbcolor
stroke
199.675 190 moveto
7.79221 0 rlineto
1 setlinewidth
0.8 0.8 0.8 setrgbcolor
stroke
215.26 190 moveto
7.79221 0 rlineto
1 setlinewidth
0.8 0.8 0.8 setrgbcolor
stroke
230.844 190 moveto
7.79221 0 rlineto
1 setlinewidth
0.8 0.8 0.8 setrgbcolor
stroke
246.429 190 moveto
7.79221 0 rlineto
1 setlinewidth
0.8 0.8 0.8 setrgbcolor
stroke
262.013 190 moveto
7.79221 0 rlineto
1 setlinewidth
0.8 0.8 0.8 setrgbcolor
stroke
277.597 190 moveto
7.79221 0 rlineto
1 setlinewidth
0.8 0.8 0.8 setrgbcolor
stroke
293.182 190 moveto
7.79221 0 rlineto
1 setlinewidth
0.8 0.8 0.8 setrgbcolor
stroke
308.766 190 moveto
7.79221 0 rlineto
1 setlinewidth
0.8 0.8 0.8 setrgbcolor
stroke
324.351 190 moveto
7.79221 0 rlineto
1 setlinewidth
0.8 0.8 0.8 setrgbcolor
stroke
339.935 190 moveto
7.79221 0 rlineto
1 setlinewidth
0.8 0.8 0.8 setrgbcolor
stroke
355.519 190 moveto
7.79221 0 rlineto
1 setlinewidth
0.8 0.8 0.8 setrgbcolor
stroke
371.104 190 moveto
7.79221 0 rlineto
1 setlinewidth
0.8 0.8 0.8 setrgbcolor
stroke
386.688 190 moveto
7.79221 0 rlineto
1 setlinewidth
0.8 0.8 0.8 setrgbcolor
stroke
402.273 190 moveto
7.79221 0 rlineto
1 setlinewidth
0.8 0.8 0.8 setrgbcolor
stroke
417.857 190 moveto
7.79221 0 rlineto
1 setlinewidth
0.8 0.8 0.8 setrgbcolor
stroke
433.442 190 moveto
7.79221 0 rlineto
1 setlinewidth
0.8 0.8 0.8 setrgbcolor
stroke
449.026 190 moveto
7.79221 0 rlineto
1 setlinewidth
0.8 0.8 0.8 setrgbcolor
stroke
464.61 190 moveto
7.79221 0 rlineto
1 setlinewidth
0.8 0.8 0.8 setrgbcolor
stroke
480.195 190 moveto
7.79221 0 rlineto
1 setlinewidth
0.8 0.8 0.8 setrgbcolor
stroke
495.779 190 moveto
7.79221 0 rlineto
1 setlinewidth
0.8 0.8 0.8 setrgbcolor
stroke
511.364 190 moveto
7.79221 0 rlineto
1 setlinewidth
0.8 0.8 0.8 setrgbcolor
stroke
526.948 190 moveto
7.79221 0 rlineto
1 setlinewidth
0.8 0.8 0.8 setrgbcolor
stroke
542.532 190 moveto
7.79221 0 rlineto
1 setlinewidth
0.8 0.8 0.8 setrgbcolor
stroke
558.117 190 moveto
7.79221 0 rlineto
1 setlinewidth
0.8 0.8 0.8 setrgbcolor
stroke
573.701 190 moveto
7.79221 0 rlineto
1 setlinewidth
0.8 0.8 0.8 setrgbcolor
stroke
589.286 190 moveto
7.79221 0 rlineto
1 setlinewidth
0.8 0.8 0.8 setrgbcolor
stroke
604.87 190 moveto
7.79221 0 rlineto
1 setlinewidth
0.8 0.8 0.8 setrgbcolor
stroke
620.455 190 moveto
7.79221 0 rlineto
1 setlinewidth
0.8 0.8 0.8 setrgbcolor
stroke
636.039 190 moveto
7.79221 0 rlineto
1 setlinewidth
0.8 0.8 0.8 setrgbcolor
stroke
651.623 190 moveto
7.79221 0 rlineto
1 setlinewidth
0.8 0.8 0.8 setrgbcolor
stroke
667.208 190 moveto
7.79221 0 rlineto
1 setlinewidth
0.8 0.8 0.8 setrgbcolor
stroke
75 240 moveto
75 240 moveto
7.79221 0 rlineto
1 setlinewidth
0.8 0.8 0.8 setrgbcolor
stroke
90.5844 240 moveto
7.79221 0 rlineto
1 setlinewidth
0.8 0.8 0.8 setrgbcolor
stroke
106.169 240 moveto
7.79221 0 rlineto
1 setlinewidth
0.8 0.8 0.8 setrgbcolor
stroke
121.753 240 moveto
7.79221 0 rlineto
1 setlinewidth
0.8 0.8 0.8 setrgbcolor
stroke
137.338 240 moveto
7.79221 0 rlineto
1 setlinewidth
0.8 0.8 0.8 setrgbcolor
stroke
152.922 240 moveto
7.79221 0 rlineto
1 setlinewidth
0.8 0.8 0.8 setrgbcolor
stroke
168.506 240 moveto
7.79221 0 rlineto
1 setlinewidth
0.8 0.8 0.8 setrgbcolor
stroke
184.091 240 moveto
7.79221 0 rlineto
1 setlinewidth
0.8 0.8 0.8 setrgbcolor
stroke
199.675 240 moveto
7.79221 0 rlineto
1 setlinewidth
0.8 0.8 0.8 setrgbcolor
stroke
215.26 240 moveto
7.79221 0 rlineto
1 setlinewidth
0.8 0.8 0.8 setrgbcolor
stroke
230.844 240 moveto
7.79221 0 rlineto
1 setlinewidth
0.8 0.8 0.8 setrgbcolor
stroke
246.429 240 moveto
7.79221 0 rlineto
1 setlinewidth
0.8 0.8 0.8 setrgbcolor
stroke
262.013 240 moveto
7.79221 0 rlineto
1 setlinewidth
0.8 0.8 0.8 setrgbcolor
stroke
277.597 240 moveto
7.79221 0 rlineto
1 setlinewidth
0.8 0.8 0.8 setrgbcolor
stroke
293.182 240 moveto
7.79221 0 rlineto
1 setlinewidth
0.8 0.8 0.8 setrgbcolor
stroke
308.766 240 moveto
7.79221 0 rlineto
1 setlinewidth
0.8 0.8 0.8 setrgbcolor
stroke
324.351 240 moveto
7.79221 0 rlineto
1 setlinewidth
0.8 0.8 0.8 setrgbcolor
stroke
339.935 240 moveto
7.79221 0 rlineto
1 setlinewidth
0.8 0.8 0.8 setrgbcolor
stroke
355.519 240 moveto
7.79221 0 rlineto
1 setlinewidth
0.8 0.8 0.8 setrgbcolor
stroke
371.104 240 moveto
7.79221 0 rlineto
1 setlinewidth
0.8 0.8 0.8 setrgbcolor
stroke
386.688 240 moveto
7.79221 0 rlineto
1 setlinewidth
0.8 0.8 0.8 setrgbcolor
stroke
402.273 240 moveto
7.79221 0 rlineto
1 setlinewidth
0.8 0.8 0.8 setrgbcolor
stroke
417.857 240 moveto
7.79221 0 rlineto
1 setlinewidth
0.8 0.8 0.8 setrgbcolor
stroke
433.442 240 moveto
7.79221 0 rlineto
1 setlinewidth
0.8 0.8 0.8 setrgbcolor
stroke
449.026 240 moveto
7.79221 0 rlineto
1 setlinewidth
0.8 0.8 0.8 setrgbcolor
stroke
464.61 240 moveto
7.79221 0 rlineto
1 setlinewidth
0.8 0.8 0.8 setrgbcolor
stroke
480.195 240 moveto
7.79221 0 rlineto
1 setlinewidth
0.8 0.8 0.8 setrgbcolor
stroke
495.779 240 moveto
7.79221 0 rlineto
1 setlinewidth
0.8 0.8 0.8 setrgbcolor
stroke
511.364 240 moveto
7.79221 0 rlineto
1 setlinewidth
0.8 0.8 0.8 setrgbcolor
stroke
526.948 240 moveto
7.79221 0 rlineto
1 setlinewidth
0.8 0.8 0.8 setrgbcolor
stroke
542.532 240 moveto
7.79221 0 rlineto
1 setlinewidth
0.8 0.8 0.8 setrgbcolor
stroke
558.117 240 moveto
7.79221 0 rlineto
1 setlinewidth
0.8 0.8 0.8 setrgbcolor
stroke
573.701 240 moveto
7.79221 0 rlineto
1 setlinewidth
0.8 0.8 0.8 setrgbcolor
stroke
589.286 240 moveto
7.79221 0 rlineto
1 setlinewidth
0.8 0.8 0.8 setrgbcolor
stroke
604.87 240 moveto
7.79221 0 rlineto
1 setlinewidth
0.8 0.8 0.8 setrgbcolor
stroke
620.455 240 moveto
7.79221 0 rlineto
1 setlinewidth
0.8 0.8 0.8 setrgbcolor
stroke
636.039 240 moveto
7.79221 0 rlineto
1 setlinewidth
0.8 0.8 0.8 setrgbcolor
stroke
651.623 240 moveto
7.79221 0 rlineto
1 setlinewidth
0.8 0.8 0.8 setrgbcolor
stroke
667.208 240 moveto
7.79221 0 rlineto
1 setlinewidth
0.8 0.8 0.8 setrgbcolor
stroke
75 290 moveto
75 290 moveto
7.79221 0 rlineto
1 setlinewidth
0.8 0.8 0.8 setrgbcolor
stroke
90.5844 290 moveto
7.79221 0 rlineto
1 setlinewidth
0.8 0.8 0.8 setrgbcolor
stroke
106.169 290 moveto
7.79221 0 rlineto
1 setlinewidth
0.8 0.8 0.8 setrgbcolor
stroke
121.753 290 moveto
7.79221 0 rlineto
1 setlinewidth
0.8 0.8 0.8 setrgbcolor
stroke
137.338 290 moveto
7.79221 0 rlineto
1 setlinewidth
0.8 0.8 0.8 setrgbcolor
stroke
152.922 290 moveto
7.79221 0 rlineto
1 setlinewidth
0.8 0.8 0.8 setrgbcolor
stroke
168.506 290 moveto
7.79221 0 rlineto
1 setlinewidth
0.8 0.8 0.8 setrgbcolor
stroke
184.091 290 moveto
7.79221 0 rlineto
1 setlinewidth
0.8 0.8 0.8 setrgbcolor
stroke
199.675 290 moveto
7.79221 0 rlineto
1 setlinewidth
0.8 0.8 0.8 setrgbcolor
stroke
215.26 290 moveto
7.79221 0 rlineto
1 setlinewidth
0.8 0.8 0.8 setrgbcolor
stroke
230.844 290 moveto
7.79221 0 rlineto
1 setlinewidth
0.8 0.8 0.8 setrgbcolor
stroke
246.429 290 moveto
7.79221 0 rlineto
1 setlinewidth
0.8 0.8 0.8 setrgbcolor
stroke
262.013 290 moveto
7.79221 0 rlineto
1 setlinewidth
0.8 0.8 0.8 setrgbcolor
stroke
277.597 290 moveto
7.79221 0 rlineto
1 setlinewidth
0.8 0.8 0.8 setrgbcolor
stroke
293.182 290 moveto
7.79221 0 rlineto
1 setlinewidth
0.8 0.8 0.8 setrgbcolor
stroke
308.766 290 moveto
7.79221 0 rlineto
1 setlinewidth
0.8 0.8 0.8 setrgbcolor
stroke
324.351 290 moveto
7.79221 0 rlineto
1 setlinewidth
0.8 0.8 0.8 setrgbcolor
stroke
339.935 290 moveto
7.79221 0 rlineto
1 setlinewidth
0.8 0.8 0.8 setrgbcolor
stroke
355.519 290 moveto
7.79221 0 rlineto
1 setlinewidth
0.8 0.8 0.8 setrgbcolor
stroke
371.104 290 moveto
7.79221 0 rlineto
1 setlinewidth
0.8 0.8 0.8 setrgbcolor
stroke
386.688 290 moveto
7.79221 0 rlineto
1 setlinewidth
0.8 0.8 0.8 setrgbcolor
stroke
402.273 290 moveto
7.79221 0 rlineto
1 setlinewidth
0.8 0.8 0.8 setrgbcolor
stroke
417.857 290 moveto
7.79221 0 rlineto
1 setlinewidth
0.8 0.8 0.8 setrgbcolor
stroke
433.442 290 moveto
7.79221 0 rlineto
1 setlinewidth
0.8 0.8 0.8 setrgbcolor
stroke
449.026 290 moveto
7.79221 0 rlineto
1 setlinewidth
0.8 0.8 0.8 setrgbcolor
stroke
464.61 290 moveto
7.79221 0 rlineto
1 setlinewidth
0.8 0.8 0.8 setrgbcolor
stroke
480.195 290 moveto
7.79221 0 rlineto
1 setlinewidth
0.8 0.8 0.8 setrgbcolor
stroke
495.779 290 moveto
7.79221 0 rlineto
1 setlinewidth
0.8 0.8 0.8 setrgbcolor
stroke
511.364 290 moveto
7.79221 0 rlineto
1 setlinewidth
0.8 0.8 0.8 setrgbcolor
stroke
526.948 290 moveto
7.79221 0 rlineto
1 setlinewidth
0.8 0.8 0.8 setrgbcolor
stroke
542.532 290 moveto
7.79221 0 rlineto
1 setlinewidth
0.8 0.8 0.8 setrgbcolor
stroke
558.117 290 moveto
7.79221 0 rlineto
1 setlinewidth
0.8 0.8 0.8 setrgbcolor
stroke
573.701 290 moveto
7.79221 0 rlineto
1 setlinewidth
0.8 0.8 0.8 setrgbcolor
stroke
589.286 290 moveto
7.79221 0 rlineto
1 setlinewidth
0.8 0.8 0.8 setrgbcolor
stroke
604.87 290 moveto
7.79221 0 rlineto
1 setlinewidth
0.8 0.8 0.8 setrgbcolor
stroke
620.455 290 moveto
7.79221 0 rlineto
1 setlinewidth
0.8 0.8 0.8 setrgbcolor
stroke
636.039 290 moveto
7.79221 0 rlineto
1 setlinewidth
0.8 0.8 0.8 setrgbcolor
stroke
651.623 290 moveto
7.79221 0 rlineto
1 setlinewidth
0.8 0.8 0.8 setrgbcolor
stroke
667.208 290 moveto
7.79221 0 rlineto
1 setlinewidth
0.8 0.8 0.8 setrgbcolor
stroke
75 340 moveto
75 340 moveto
7.79221 0 rlineto
1 setlinewidth
0.8 0.8 0.8 setrgbcolor
stroke
90.5844 340 moveto
7.79221 0 rlineto
1 setlinewidth
0.8 0.8 0.8 setrgbcolor
stroke
106.169 340 moveto
7.79221 0 rlineto
1 setlinewidth
0.8 0.8 0.8 setrgbcolor
stroke
121.753 340 moveto
7.79221 0 rlineto
1 setlinewidth
0.8 0.8 0.8 setrgbcolor
stroke
137.338 340 moveto
7.79221 0 rlineto
1 setlinewidth
0.8 0.8 0.8 setrgbcolor
stroke
152.922 340 moveto
7.79221 0 rlineto
1 setlinewidth
0.8 0.8 0.8 setrgbcolor
stroke
168.506 340 moveto
7.79221 0 rlineto
1 setlinewidth
0.8 0.8 0.8 setrgbcolor
stroke
184.091 340 moveto
7.79221 0 rlineto
1 setlinewidth
0.8 0.8 0.8 setrgbcolor
stroke
199.675 340 moveto
7.79221 0 rlineto
1 setlinewidth
0.8 0.8 0.8 setrgbcolor
stroke
215.26 340 moveto
7.79221 0 rlineto
1 setlinewidth
0.8 0.8 0.8 setrgbcolor
stroke
230.844 340 moveto
7.79221 0 rlineto
1 setlinewidth
0.8 0.8 0.8 setrgbcolor
stroke
246.429 340 moveto
7.79221 0 rlineto
1 setlinewidth
0.8 0.8 0.8 setrgbcolor
stroke
262.013 340 moveto
7.79221 0 rlineto
1 setlinewidth
0.8 0.8 0.8 setrgbcolor
stroke
277.597 340 moveto
7.79221 0 rlineto
1 setlinewidth
0.8 0.8 0.8 setrgbcolor
stroke
293.182 340 moveto
7.79221 0 rlineto
1 setlinewidth
0.8 0.8 0.8 setrgbcolor
stroke
308.766 340 moveto
7.79221 0 rlineto
1 setlinewidth
0.8 0.8 0.8 setrgbcolor
stroke
324.351 340 moveto
7.79221 0 rlineto
1 setlinewidth
0.8 0.8 0.8 setrgbcolor
stroke
339.935 340 moveto
7.79221 0 rlineto
1 setlinewidth
0.8 0.8 0.8 setrgbcolor
stroke
355.519 340 moveto
7.79221 0 rlineto
1 setlinewidth
0.8 0.8 0.8 setrgbcolor
stroke
371.104 340 moveto
7.79221 0 rlineto
1 setlinewidth
0.8 0.8 0.8 setrgbcolor
stroke
386.688 340 moveto
7.79221 0 rlineto
1 setlinewidth
0.8 0.8 0.8 setrgbcolor
stroke
402.273 340 moveto
7.79221 0 rlineto
1 setlinewidth
0.8 0.8 0.8 setrgbcolor
stroke
417.857 340 moveto
7.79221 0 rlineto
1 setlinewidth
0.8 0.8 0.8 setrgbcolor
stroke
433.442 340 moveto
7.79221 0 rlineto
1 setlinewidth
0.8 0.8 0.8 setrgbcolor
stroke
449.026 340 moveto
7.79221 0 rlineto
1 setlinewidth
0.8 0.8 0.8 setrgbcolor
stroke
464.61 340 moveto
7.79221 0 rlineto
1 setlinewidth
0.8 0.8 0.8 setrgbcolor
stroke
480.195 340 moveto
7.79221 0 rlineto
1 setlinewidth
0.8 0.8 0.8 setrgbcolor
stroke
495.779 340 moveto
7.79221 0 rlineto
1 setlinewidth
0.8 0.8 0.8 setrgbcolor
stroke
511.364 340 moveto
7.79221 0 rlineto
1 setlinewidth
0.8 0.8 0.8 setrgbcolor
stroke
526.948 340 moveto
7.79221 0 rlineto
1 setlinewidth
0.8 0.8 0.8 setrgbcolor
stroke
542.532 340 moveto
7.79221 0 rlineto
1 setlinewidth
0.8 0.8 0.8 setrgbcolor
stroke
558.117 340 moveto
7.79221 0 rlineto
1 setlinewidth
0.8 0.8 0.8 setrgbcolor
stroke
573.701 340 moveto
7.79221 0 rlineto
1 setlinewidth
0.8 0.8 0.8 setrgbcolor
stroke
589.286 340 moveto
7.79221 0 rlineto
1 setlinewidth
0.8 0.8 0.8 setrgbcolor
stroke
604.87 340 moveto
7.79221 0 rlineto
1 setlinewidth
0.8 0.8 0.8 setrgbcolor
stroke
620.455 340 moveto
7.79221 0 rlineto
1 setlinewidth
0.8 0.8 0.8 setrgbcolor
stroke
636.039 340 moveto
7.79221 0 rlineto
1 setlinewidth
0.8 0.8 0.8 setrgbcolor
stroke
651.623 340 moveto
7.79221 0 rlineto
1 setlinewidth
0.8 0.8 0.8 setrgbcolor
stroke
667.208 340 moveto
7.79221 0 rlineto
1 setlinewidth
0.8 0.8 0.8 setrgbcolor
stroke
75 390 moveto
75 390 moveto
7.79221 0 rlineto
1 setlinewidth
0.8 0.8 0.8 setrgbcolor
stroke
90.5844 390 moveto
7.79221 0 rlineto
1 setlinewidth
0.8 0.8 0.8 setrgbcolor
stroke
106.169 390 moveto
7.79221 0 rlineto
1 setlinewidth
0.8 0.8 0.8 setrgbcolor
stroke
121.753 390 moveto
7.79221 0 rlineto
1 setlinewidth
0.8 0.8 0.8 setrgbcolor
stroke
137.338 390 moveto
7.79221 0 rlineto
1 setlinewidth
0.8 0.8 0.8 setrgbcolor
stroke
152.922 390 moveto
7.79221 0 rlineto
1 setlinewidth
0.8 0.8 0.8 setrgbcolor
stroke
168.506 390 moveto
7.79221 0 rlineto
1 setlinewidth
0.8 0.8 0.8 setrgbcolor
stroke
184.091 390 moveto
7.79221 0 rlineto
1 setlinewidth
0.8 0.8 0.8 setrgbcolor
stroke
199.675 390 moveto
7.79221 0 rlineto
1 setlinewidth
0.8 0.8 0.8 setrgbcolor
stroke
215.26 390 moveto
7.79221 0 rlineto
1 setlinewidth
0.8 0.8 0.8 setrgbcolor
stroke
230.844 390 moveto
7.79221 0 rlineto
1 setlinewidth
0.8 0.8 0.8 setrgbcolor
stroke
246.429 390 moveto
7.79221 0 rlineto
1 setlinewidth
0.8 0.8 0.8 setrgbcolor
stroke
262.013 390 moveto
7.79221 0 rlineto
1 setlinewidth
0.8 0.8 0.8 setrgbcolor
stroke
277.597 390 moveto
7.79221 0 rlineto
1 setlinewidth
0.8 0.8 0.8 setrgbcolor
stroke
293.182 390 moveto
7.79221 0 rlineto
1 setlinewidth
0.8 0.8 0.8 setrgbcolor
stroke
308.766 390 moveto
7.79221 0 rlineto
1 setlinewidth
0.8 0.8 0.8 setrgbcolor
stroke
324.351 390 moveto
7.79221 0 rlineto
1 setlinewidth
0.8 0.8 0.8 setrgbcolor
stroke
339.935 390 moveto
7.79221 0 rlineto
1 setlinewidth
0.8 0.8 0.8 setrgbcolor
stroke
355.519 390 moveto
7.79221 0 rlineto
1 setlinewidth
0.8 0.8 0.8 setrgbcolor
stroke
371.104 390 moveto
7.79221 0 rlineto
1 setlinewidth
0.8 0.8 0.8 setrgbcolor
stroke
386.688 390 moveto
7.79221 0 rlineto
1 setlinewidth
0.8 0.8 0.8 setrgbcolor
stroke
402.273 390 moveto
7.79221 0 rlineto
1 setlinewidth
0.8 0.8 0.8 setrgbcolor
stroke
417.857 390 moveto
7.79221 0 rlineto
1 setlinewidth
0.8 0.8 0.8 setrgbcolor
stroke
433.442 390 moveto
7.79221 0 rlineto
1 setlinewidth
0.8 0.8 0.8 setrgbcolor
stroke
449.026 390 moveto
7.79221 0 rlineto
1 setlinewidth
0.8 0.8 0.8 setrgbcolor
stroke
464.61 390 moveto
7.79221 0 rlineto
1 setlinewidth
0.8 0.8 0.8 setrgbcolor
stroke
480.195 390 moveto
7.79221 0 rlineto
1 setlinewidth
0.8 0.8 0.8 setrgbcolor
stroke
495.779 390 moveto
7.79221 0 rlineto
1 setlinewidth
0.8 0.8 0.8 setrgbcolor
stroke
511.364 390 moveto
7.79221 0 rlineto
1 setlinewidth
0.8 0.8 0.8 setrgbcolor
stroke
526.948 390 moveto
7.79221 0 rlineto
1 setlinewidth
0.8 0.8 0.8 setrgbcolor
stroke
542.532 390 moveto
7.79221 0 rlineto
1 setlinewidth
0.8 0.8 0.8 setrgbcolor
stroke
558.117 390 moveto
7.79221 0 rlineto
1 setlinewidth
0.8 0.8 0.8 setrgbcolor
stroke
573.701 390 moveto
7.79221 0 rlineto
1 setlinewidth
0.8 0.8 0.8 setrgbcolor
stroke
589.286 390 moveto
7.79221 0 rlineto
1 setlinewidth
0.8 0.8 0.8 setrgbcolor
stroke
604.87 390 moveto
7.79221 0 rlineto
1 setlinewidth
0.8 0.8 0.8 setrgbcolor
stroke
620.455 390 moveto
7.79221 0 rlineto
1 setlinewidth
0.8 0.8 0.8 setrgbcolor
stroke
636.039 390 moveto
7.79221 0 rlineto
1 setlinewidth
0.8 0.8 0.8 setrgbcolor
stroke
651.623 390 moveto
7.79221 0 rlineto
1 setlinewidth
0.8 0.8 0.8 setrgbcolor
stroke
667.208 390 moveto
7.79221 0 rlineto
1 setlinewidth
0.8 0.8 0.8 setrgbcolor
stroke
75 440 moveto
75 440 moveto
7.79221 0 rlineto
1 setlinewidth
0.8 0.8 0.8 setrgbcolor
stroke
90.5844 440 moveto
7.79221 0 rlineto
1 setlinewidth
0.8 0.8 0.8 setrgbcolor
stroke
106.169 440 moveto
7.79221 0 rlineto
1 setlinewidth
0.8 0.8 0.8 setrgbcolor
stroke
121.753 440 moveto
7.79221 0 rlineto
1 setlinewidth
0.8 0.8 0.8 setrgbcolor
stroke
137.338 440 moveto
7.79221 0 rlineto
1 setlinewidth
0.8 0.8 0.8 setrgbcolor
stroke
152.922 440 moveto
7.79221 0 rlineto
1 setlinewidth
0.8 0.8 0.8 setrgbcolor
stroke
168.506 440 moveto
7.79221 0 rlineto
1 setlinewidth
0.8 0.8 0.8 setrgbcolor
stroke
184.091 440 moveto
7.79221 0 rlineto
1 setlinewidth
0.8 0.8 0.8 setrgbcolor
stroke
199.675 440 moveto
7.79221 0 rlineto
1 setlinewidth
0.8 0.8 0.8 setrgbcolor
stroke
215.26 440 moveto
7.79221 0 rlineto
1 setlinewidth
0.8 0.8 0.8 setrgbcolor
stroke
230.844 440 moveto
7.79221 0 rlineto
1 setlinewidth
0.8 0.8 0.8 setrgbcolor
stroke
246.429 440 moveto
7.79221 0 rlineto
1 setlinewidth
0.8 0.8 0.8 setrgbcolor
stroke
262.013 440 moveto
7.79221 0 rlineto
1 setlinewidth
0.8 0.8 0.8 setrgbcolor
stroke
277.597 440 moveto
7.79221 0 rlineto
1 setlinewidth
0.8 0.8 0.8 setrgbcolor
stroke
293.182 440 moveto
7.79221 0 rlineto
1 setlinewidth
0.8 0.8 0.8 setrgbcolor
stroke
308.766 440 moveto
7.79221 0 rlineto
1 setlinewidth
0.8 0.8 0.8 setrgbcolor
stroke
324.351 440 moveto
7.79221 0 rlineto
1 setlinewidth
0.8 0.8 0.8 setrgbcolor
stroke
339.935 440 moveto
7.79221 0 rlineto
1 setlinewidth
0.8 0.8 0.8 setrgbcolor
stroke
355.519 440 moveto
7.79221 0 rlineto
1 setlinewidth
0.8 0.8 0.8 setrgbcolor
stroke
371.104 440 moveto
7.79221 0 rlineto
1 setlinewidth
0.8 0.8 0.8 setrgbcolor
stroke
386.688 440 moveto
7.79221 0 rlineto
1 setlinewidth
0.8 0.8 0.8 setrgbcolor
stroke
402.273 440 moveto
7.79221 0 rlineto
1 setlinewidth
0.8 0.8 0.8 setrgbcolor
stroke
417.857 440 moveto
7.79221 0 rlineto
1 setlinewidth
0.8 0.8 0.8 setrgbcolor
stroke
433.442 440 moveto
7.79221 0 rlineto
1 setlinewidth
0.8 0.8 0.8 setrgbcolor
stroke
449.026 440 moveto
7.79221 0 rlineto
1 setlinewidth
0.8 0.8 0.8 setrgbcolor
stroke
464.61 440 moveto
7.79221 0 rlineto
1 setlinewidth
0.8 0.8 0.8 setrgbcolor
stroke
480.195 440 moveto
7.79221 0 rlineto
1 setlinewidth
0.8 0.8 0.8 setrgbcolor
stroke
495.779 440 moveto
7.79221 0 rlineto
1 setlinewidth
0.8 0.8 0.8 setrgbcolor
stroke
511.364 440 moveto
7.79221 0 rlineto
1 setlinewidth
0.8 0.8 0.8 setrgbcolor
stroke
526.948 440 moveto
7.79221 0 rlineto
1 setlinewidth
0.8 0.8 0.8 setrgbcolor
stroke
542.532 440 moveto
7.79221 0 rlineto
1 setlinewidth
0.8 0.8 0.8 setrgbcolor
stroke
558.117 440 moveto
7.79221 0 rlineto
1 setlinewidth
0.8 0.8 0.8 setrgbcolor
stroke
573.701 440 moveto
7.79221 0 rlineto
1 setlinewidth
0.8 0.8 0.8 setrgbcolor
stroke
589.286 440 moveto
7.79221 0 rlineto
1 setlinewidth
0.8 0.8 0.8 setrgbcolor
stroke
604.87 440 moveto
7.79221 0 rlineto
1 setlinewidth
0.8 0.8 0.8 setrgbcolor
stroke
620.455 440 moveto
7.79221 0 rlineto
1 setlinewidth
0.8 0.8 0.8 setrgbcolor
stroke
636.039 440 moveto
7.79221 0 rlineto
1 setlinewidth
0.8 0.8 0.8 setrgbcolor
stroke
651.623 440 moveto
7.79221 0 rlineto
1 setlinewidth
0.8 0.8 0.8 setrgbcolor
stroke
667.208 440 moveto
7.79221 0 rlineto
1 setlinewidth
0.8 0.8 0.8 setrgbcolor
stroke
75 490 moveto
75 490 moveto
7.79221 0 rlineto
1 setlinewidth
0.8 0.8 0.8 setrgbcolor
stroke
90.5844 490 moveto
7.79221 0 rlineto
1 setlinewidth
0.8 0.8 0.8 setrgbcolor
stroke
106.169 490 moveto
7.79221 0 rlineto
1 setlinewidth
0.8 0.8 0.8 setrgbcolor
stroke
121.753 490 moveto
7.79221 0 rlineto
1 setlinewidth
0.8 0.8 0.8 setrgbcolor
stroke
137.338 490 moveto
7.79221 0 rlineto
1 setlinewidth
0.8 0.8 0.8 setrgbcolor
stroke
152.922 490 moveto
7.79221 0 rlineto
1 setlinewidth
0.8 0.8 0.8 setrgbcolor
stroke
168.506 490 moveto
7.79221 0 rlineto
1 setlinewidth
0.8 0.8 0.8 setrgbcolor
stroke
184.091 490 moveto
7.79221 0 rlineto
1 setlinewidth
0.8 0.8 0.8 setrgbcolor
stroke
199.675 490 moveto
7.79221 0 rlineto
1 setlinewidth
0.8 0.8 0.8 setrgbcolor
stroke
215.26 490 moveto
7.79221 0 rlineto
1 setlinewidth
0.8 0.8 0.8 setrgbcolor
stroke
230.844 490 moveto
7.79221 0 rlineto
1 setlinewidth
0.8 0.8 0.8 setrgbcolor
stroke
246.429 490 moveto
7.79221 0 rlineto
1 setlinewidth
0.8 0.8 0.8 setrgbcolor
stroke
262.013 490 moveto
7.79221 0 rlineto
1 setlinewidth
0.8 0.8 0.8 setrgbcolor
stroke
277.597 490 moveto
7.79221 0 rlineto
1 setlinewidth
0.8 0.8 0.8 setrgbcolor
stroke
293.182 490 moveto
7.79221 0 rlineto
1 setlinewidth
0.8 0.8 0.8 setrgbcolor
stroke
308.766 490 moveto
7.79221 0 rlineto
1 setlinewidth
0.8 0.8 0.8 setrgbcolor
stroke
324.351 490 moveto
7.79221 0 rlineto
1 setlinewidth
0.8 0.8 0.8 setrgbcolor
stroke
339.935 490 moveto
7.79221 0 rlineto
1 setlinewidth
0.8 0.8 0.8 setrgbcolor
stroke
355.519 490 moveto
7.79221 0 rlineto
1 setlinewidth
0.8 0.8 0.8 setrgbcolor
stroke
371.104 490 moveto
7.79221 0 rlineto
1 setlinewidth
0.8 0.8 0.8 setrgbcolor
stroke
386.688 490 moveto
7.79221 0 rlineto
1 setlinewidth
0.8 0.8 0.8 setrgbcolor
stroke
402.273 490 moveto
7.79221 0 rlineto
1 setlinewidth
0.8 0.8 0.8 setrgbcolor
stroke
417.857 490 moveto
7.79221 0 rlineto
1 setlinewidth
0.8 0.8 0.8 setrgbcolor
stroke
433.442 490 moveto
7.79221 0 rlineto
1 setlinewidth
0.8 0.8 0.8 setrgbcolor
stroke
449.026 490 moveto
7.79221 0 rlineto
1 setlinewidth
0.8 0.8 0.8 setrgbcolor
stroke
464.61 490 moveto
7.79221 0 rlineto
1 setlinewidth
0.8 0.8 0.8 setrgbcolor
stroke
480.195 490 moveto
7.79221 0 rlineto
1 setlinewidth
0.8 0.8 0.8 setrgbcolor
stroke
495.779 490 moveto
7.79221 0 rlineto
1 setlinewidth
0.8 0.8 0.8 setrgbcolor
stroke
511.364 490 moveto
7.79221 0 rlineto
1 setlinewidth
0.8 0.8 0.8 setrgbcolor
stroke
526.948 490 moveto
7.79221 0 rlineto
1 setlinewidth
0.8 0.8 0.8 setrgbcolor
stroke
542.532 490 moveto
7.79221 0 rlineto
1 setlinewidth
0.8 0.8 0.8 setrgbcolor
stroke
558.117 490 moveto
7.79221 0 rlineto
1 setlinewidth
0.8 0.8 0.8 setrgbcolor
stroke
573.701 490 moveto
7.79221 0 rlineto
1 setlinewidth
0.8 0.8 0.8 setrgbcolor
stroke
589.286 490 moveto
7.79221 0 rlineto
1 setlinewidth
0.8 0.8 0.8 setrgbcolor
stroke
604.87 490 moveto
7.79221 0 rlineto
1 setlinewidth
0.8 0.8 0.8 setrgbcolor
stroke
620.455 490 moveto
7.79221 0 rlineto
1 setlinewidth
0.8 0.8 0.8 setrgbcolor
stroke
636.039 490 moveto
7.79221 0 rlineto
1 setlinewidth
0.8 0.8 0.8 setrgbcolor
stroke
651.623 490 moveto
7.79221 0 rlineto
1 setlinewidth
0.8 0.8 0.8 setrgbcolor
stroke
667.208 490 moveto
7.79221 0 rlineto
1 setlinewidth
0.8 0.8 0.8 setrgbcolor
stroke
newpath
75 90 moveto
600 0 rlineto
0 400 rlineto
-600 0 rlineto
closepath
1 setlinewidth
0 0 0 setrgbcolor
stroke
/Times findfont
16 scalefont
setfont
375 500 moveto
0 0 0 setrgbcolor
(Guinier plots) dup stringwidth pop 2 div neg 0 rmoveto show
75 90 moveto
0 7.81025 rlineto
1 setlinewidth
0 0 0 setrgbcolor
stroke
141.667 90 moveto
0 7.81025 rlineto
1 setlinewidth
0 0 0 setrgbcolor
stroke
208.333 90 moveto
0 7.81025 rlineto
1 setlinewidth
0 0 0 setrgbcolor
stroke
275 90 moveto
0 7.81025 rlineto
1 setlinewidth
0 0 0 setrgbcolor
stroke
341.667 90 moveto
0 7.81025 rlineto
1 setlinewidth
0 0 0 setrgbcolor
stroke
408.333 90 moveto
0 7.81025 rlineto
1 setlinewidth
0 0 0 setrgbcolor
stroke
475 90 moveto
0 7.81025 rlineto
1 setlinewidth
0 0 0 setrgbcolor
stroke
541.667 90 moveto
0 7.81025 rlineto
1 setlinewidth
0 0 0 setrgbcolor
stroke
608.333 90 moveto
0 7.81025 rlineto
1 setlinewidth
0 0 0 setrgbcolor
stroke
675 90 moveto
0 7.81025 rlineto
1 setlinewidth
0 0 0 setrgbcolor
stroke
75 90 moveto
7.81025 0 rlineto
1 setlinewidth
0 0 0 setrgbcolor
stroke
75 140 moveto
7.81025 0 rlineto
1 setlinewidth
0 0 0 setrgbcolor
stroke
75 190 moveto
7.81025 0 rlineto
1 setlinewidth
0 0 0 setrgbcolor
stroke
75 240 moveto
7.81025 0 rlineto
1 setlinewidth
0 0 0 setrgbcolor
stroke
75 290 moveto
7.81025 0 rlineto
1 setlinewidth
0 0 0 setrgbcolor
stroke
75 340 moveto
7.81025 0 rlineto
1 setlinewidth
0 0 0 setrgbcolor
stroke
75 390 moveto
7.81025 0 rlineto
1 setlinewidth
0 0 0 setrgbcolor
stroke
75 440 moveto
7.81025 0 rlineto
1 setlinewidth
0 0 0 setrgbcolor
stroke
75 490 moveto
7.81025 0 rlineto
1 setlinewidth
0 0 0 setrgbcolor
stroke
/Times findfont
12 scalefont
setfont
75 75 moveto
0 0 0 setrgbcolor
(0.00) dup stringwidth pop 2 div neg 0 rmoveto show
/Times findfont
12 scalefont
setfont
141.667 75 moveto
0 0 0 setrgbcolor
(0.02) dup stringwidth pop 2 div neg 0 rmoveto show
/Times findfont
12 scalefont
setfont
208.333 75 moveto
0 0 0 setrgbcolor
(0.04) dup stringwidth pop 2 div neg 0 rmoveto show
/Times findfont
12 scalefont
setfont
275 75 moveto
0 0 0 setrgbcolor
(0.06) dup stringwidth pop 2 div neg 0 rmoveto show
/Times findfont
12 scalefont
setfont
341.667 75 moveto
0 0 0 setrgbcolor
(0.08) dup stringwidth pop 2 div neg 0 rmoveto show
/Times findfont
12 scalefont
setfont
408.333 75 moveto
0 0 0 setrgbcolor
(0.10) dup stringwidth pop 2 div neg 0 rmoveto show
/Times findfont
12 scalefont
setfont
475 75 moveto
0 0 0 setrgbcolor
(0.12) dup stringwidth pop 2 div neg 0 rmoveto show
/Times findfont
12 scalefont
setfont
541.667 75 moveto
0 0 0 setrgbcolor
(0.14) dup stringwidth pop 2 div neg 0 rmoveto show
/Times findfont
12 scalefont
setfont
608.333 75 moveto
0 0 0 setrgbcolor
(0.16) dup stringwidth pop 2 div neg 0 rmoveto show
/Times findfont
12 scalefont
setfont
675 75 moveto
0 0 0 setrgbcolor
(0.18) dup stringwidth pop 2 div neg 0 rmoveto show
/Times findfont
12 scalefont
setfont
69 87 moveto
0 0 0 setrgbcolor
(-16) dup stringwidth pop neg 0 rmoveto show
/Times findfont
12 scalefont
setfont
69 137 moveto
0 0 0 setrgbcolor
(-15) dup stringwidth pop neg 0 rmoveto show
/Times findfont
12 scalefont
setfont
69 187 moveto
0 0 0 setrgbcolor
(-14) dup stringwidth pop neg 0 rmoveto show
/Times findfont
12 scalefont
setfont
69 237 moveto
0 0 0 setrgbcolor
(-13) dup stringwidth pop neg 0 rmoveto show
/Times findfont
12 scalefont
setfont
69 287 moveto
0 0 0 setrgbcolor
(-12) dup stringwidth pop neg 0 rmoveto show
/Times findfont
12 scalefont
setfont
69 337 moveto
0 0 0 setrgbcolor
(-11) dup stringwidth pop neg 0 rmoveto show
/Times findfont
12 scalefont
setfont
69 387 moveto
0 0 0 setrgbcolor
(-10) dup stringwidth pop neg 0 rmoveto show
/Times findfont
12 scalefont
setfont
69 437 moveto
0 0 0 setrgbcolor
(-9) dup stringwidth pop neg 0 rmoveto show
/Times findfont
12 scalefont
setfont
69 487 moveto
0 0 0 setrgbcolor
(-8) dup stringwidth pop neg 0 rmoveto show
/Times findfont
16 scalefont
setfont
375 58 moveto
0 0 0 setrgbcolor
(resolution^2 (1/A^2)) dup stringwidth pop 2 div neg 0 rmoveto show
/Times findfont
16 scalefont
setfont
26 290 moveto
90 rotate
0 0 0 setrgbcolor
(ln(amplitudes)) dup stringwidth pop 2 div neg 0 rmoveto show
-90 rotate
newpath
75 312.856 moveto
75.0329 441.848 lineto
75.1315 458.46 lineto
75.2958 402.859 lineto
75.5259 395.72 lineto
75.8217 382.778 lineto
76.1832 347.768 lineto
76.6105 342.104 lineto
77.1035 341.963 lineto
77.6622 331.402 lineto
78.2867 315.065 lineto
78.9769 303.679 lineto
79.7328 300.367 lineto
80.5545 292.952 lineto
81.4419 288.469 lineto
82.395 281.122 lineto
83.4139 272.866 lineto
84.4985 269.439 lineto
85.6489 273.458 lineto
86.8649 273.718 lineto
88.1467 270.777 lineto
89.4943 262.57 lineto
90.9076 257.023 lineto
92.3866 257.743 lineto
93.9313 258.814 lineto
95.5418 256.609 lineto
97.218 254.356 lineto
98.9599 253.889 lineto
100.768 254.363 lineto
102.641 254.337 lineto
104.58 253.518 lineto
106.585 252.196 lineto
108.656 248.974 lineto
110.792 245.209 lineto
112.994 241.974 lineto
115.262 238.827 lineto
117.595 235.115 lineto
119.995 234.043 lineto
122.46 234.584 lineto
124.99 234.19 lineto
127.587 232.747 lineto
130.249 230.058 lineto
132.977 228.296 lineto
135.771 227.062 lineto
138.63 227.28 lineto
141.555 227.118 lineto
144.546 226.71 lineto
147.603 226.105 lineto
150.725 225.099 lineto
153.913 225.024 lineto
157.167 225.383 lineto
160.487 224.349 lineto
163.872 223.393 lineto
167.323 225.802 lineto
170.84 225.869 lineto
174.422 225.443 lineto
178.07 226.251 lineto
181.784 227.367 lineto
185.564 227.13 lineto
189.41 225.739 lineto
193.321 227.165 lineto
197.298 229.73 lineto
201.34 227.58 lineto
205.449 225.986 lineto
209.623 229.444 lineto
213.862 228.229 lineto
218.168 227.115 lineto
222.539 228.252 lineto
226.976 227.379 lineto
231.479 224.834 lineto
236.048 224.882 lineto
240.682 227.48 lineto
245.382 224.812 lineto
250.147 223.088 lineto
254.979 224.431 lineto
259.876 222.315 lineto
264.839 221.085 lineto
269.868 220.97 lineto
274.962 221.45 lineto
280.122 220.556 lineto
285.348 219.999 lineto
290.639 219.779 lineto
295.997 219.847 lineto
301.42 218.875 lineto
306.908 218.982 lineto
312.463 219.434 lineto
318.083 217.934 lineto
323.769 218.47 lineto
329.521 218.269 lineto
335.338 217.728 lineto
341.221 218.074 lineto
347.17 216.944 lineto
353.185 216.62 lineto
359.265 216.41 lineto
365.411 216.677 lineto
371.623 216.548 lineto
377.901 216.323 lineto
384.244 215.603 lineto
390.653 215.877 lineto
397.128 215.41 lineto
403.669 215.42 lineto
410.275 214.858 lineto
416.947 215.29 lineto
423.684 214.547 lineto
430.488 215.029 lineto
437.357 214.951 lineto
444.292 214.533 lineto
451.293 214.447 lineto
458.359 214.185 lineto
465.491 214.029 lineto
472.689 214.891 lineto
479.952 213.626 lineto
487.282 214.424 lineto
494.677 213.811 lineto
502.138 213.467 lineto
509.664 213.408 lineto
517.256 213.402 lineto
524.914 213.402 lineto
532.638 212.896 lineto
540.427 213.662 lineto
548.283 213 lineto
556.204 213.343 lineto
564.19 212.947 lineto
572.243 212.636 lineto
580.361 213.277 lineto
588.545 211.816 lineto
596.794 212.536 lineto
605.109 211.078 lineto
613.49 195.405 lineto
1 setlinewidth
0 0 0 setrgbcolor
stroke
newpath
75 312.856 moveto
75.0329 441.848 lineto
75.1315 458.46 lineto
75.2958 402.858 lineto
75.5259 395.719 lineto
75.8217 382.776 lineto
76.1832 347.761 lineto
76.6105 342.09 lineto
77.1035 341.951 lineto
77.6622 331.391 lineto
78.2867 315.047 lineto
78.9769 303.659 lineto
79.7328 300.345 lineto
80.5545 292.917 lineto
81.4419 288.422 lineto
82.395 281.066 lineto
83.4139 272.77 lineto
84.4985 269.246 lineto
85.6489 273.233 lineto
86.8649 273.493 lineto
88.1467 270.012 lineto
89.4943 261.921 lineto
90.9076 256.516 lineto
92.3866 257.398 lineto
93.9313 258.509 lineto
95.5418 256.264 lineto
97.218 253.928 lineto
98.9599 253.424 lineto
100.768 253.966 lineto
102.641 253.955 lineto
104.58 253.132 lineto
106.585 251.8 lineto
108.656 248.538 lineto
110.792 244.663 lineto
112.994 241.292 lineto
115.262 237.967 lineto
117.595 234.152 lineto
119.995 233.057 lineto
122.46 233.502 lineto
124.99 233.124 lineto
127.587 231.678 lineto
130.249 228.842 lineto
132.977 226.768 lineto
135.771 225.452 lineto
138.63 225.628 lineto
141.555 225.374 lineto
144.546 224.799 lineto
147.603 223.978 lineto
150.725 222.917 lineto
153.913 222.786 lineto
157.167 222.971 lineto
160.487 221.785 lineto
163.872 220.902 lineto
167.323 223.117 lineto
170.84 223.042 lineto
174.422 222.841 lineto
178.07 223.863 lineto
181.784 224.858 lineto
185.564 224.242 lineto
189.41 222.65 lineto
193.321 224.177 lineto
197.298 226.933 lineto
201.34 224.688 lineto
205.449 222.901 lineto
209.623 226.232 lineto
213.862 225.122 lineto
218.168 224.098 lineto
222.539 225.179 lineto
226.976 224.105 lineto
231.479 221.457 lineto
236.048 221.318 lineto
240.682 223.838 lineto
245.382 221.006 lineto
250.147 218.793 lineto
254.979 219.192 lineto
259.876 216.113 lineto
264.839 214.549 lineto
269.868 213.878 lineto
274.962 213.46 lineto
280.122 211.458 lineto
285.348 210.156 lineto
290.639 208.734 lineto
295.997 207.172 lineto
301.42 204.848 lineto
306.908 204.987 lineto
312.463 205.301 lineto
318.083 202.19 lineto
323.769 201.408 lineto
329.521 200.106 lineto
335.338 197.819 lineto
341.221 196.557 lineto
347.17 192.941 lineto
353.185 189.397 lineto
359.265 188.921 lineto
365.411 188.885 lineto
371.623 186.72 lineto
377.901 183.614 lineto
384.244 175.464 lineto
390.653 168.422 lineto
397.128 165.44 lineto
403.669 167.198 lineto
410.275 163.606 lineto
416.947 154.556 lineto
423.684 151.502 lineto
430.488 140.876 lineto
437.357 143.079 lineto
444.292 152.216 lineto
451.293 149.5 lineto
458.359 133.961 lineto
465.491 103.329 lineto
472.689 130.636 lineto
479.952 143.164 lineto
487.282 128.966 lineto
494.677 94.7348 lineto
502.138 110.963 lineto
509.664 104.265 lineto
517.256 109.607 lineto
524.914 127.335 lineto
532.638 130.281 lineto
540.427 109.978 lineto
1 setlinewidth
0 0 1 setrgbcolor
stroke
newpath
75 312.856 moveto
75.0329 441.866 lineto
75.1315 458.507 lineto
75.2958 402.951 lineto
75.5259 395.877 lineto
75.8217 383.022 lineto
76.1832 348.117 lineto
76.6105 342.568 lineto
77.1035 342.563 lineto
77.6622 332.173 lineto
78.2867 316.025 lineto
78.9769 304.835 lineto
79.7328 301.732 lineto
80.5545 294.546 lineto
81.4419 290.317 lineto
82.395 283.225 lineto
83.4139 275.22 lineto
84.4985 272.027 lineto
85.6489 276.356 lineto
86.8649 276.966 lineto
88.1467 273.85 lineto
89.4943 266.158 lineto
90.9076 261.168 lineto
92.3866 262.48 lineto
93.9313 264.032 lineto
95.5418 262.26 lineto
97.218 260.421 lineto
98.9599 260.424 lineto
100.768 261.491 lineto
102.641 262.029 lineto
104.58 261.771 lineto
106.585 261.022 lineto
108.656 258.359 lineto
110.792 255.104 lineto
112.994 252.38 lineto
115.262 249.716 lineto
117.595 246.582 lineto
119.995 246.191 lineto
122.46 247.355 lineto
124.99 247.71 lineto
127.587 247.013 lineto
130.249 244.961 lineto
132.977 243.691 lineto
135.771 243.185 lineto
138.63 244.195 lineto
141.555 244.798 lineto
144.546 245.096 lineto
147.603 245.152 lineto
150.725 244.997 lineto
153.913 245.812 lineto
157.167 246.952 lineto
160.487 246.725 lineto
163.872 246.833 lineto
167.323 250.061 lineto
170.84 251.007 lineto
174.422 251.843 lineto
178.07 253.92 lineto
181.784 256.006 lineto
185.564 256.498 lineto
189.41 256.019 lineto
193.321 258.695 lineto
197.298 262.606 lineto
201.34 261.538 lineto
205.449 260.951 lineto
209.623 265.49 lineto
213.862 265.617 lineto
218.168 265.862 lineto
222.539 268.221 lineto
226.976 268.428 lineto
231.479 267.098 lineto
236.048 268.302 lineto
240.682 272.157 lineto
245.382 270.68 lineto
250.147 269.876 lineto
254.979 271.687 lineto
259.876 270.036 lineto
264.839 269.919 lineto
269.868 270.718 lineto
274.962 271.784 lineto
280.122 271.274 lineto
285.348 271.495 lineto
290.639 271.62 lineto
295.997 271.624 lineto
301.42 270.885 lineto
306.908 272.624 lineto
312.463 274.555 lineto
318.083 273.088 lineto
323.769 273.966 lineto
329.521 274.325 lineto
335.338 273.748 lineto
341.221 274.2 lineto
347.17 272.328 lineto
353.185 270.531 lineto
359.265 271.829 lineto
365.411 273.577 lineto
371.623 273.217 lineto
377.901 271.932 lineto
384.244 265.636 lineto
390.653 260.482 lineto
397.128 259.389 lineto
403.669 263.054 lineto
410.275 261.38 lineto
416.947 254.283 lineto
423.684 253.197 lineto
430.488 244.545 lineto
437.357 248.746 lineto
444.292 259.919 lineto
451.293 259.242 lineto
458.359 245.752 lineto
465.491 217.209 lineto
472.689 246.626 lineto
479.952 261.253 lineto
487.282 249.194 lineto
494.677 217.109 lineto
502.138 235.536 lineto
509.664 231.021 lineto
517.256 238.575 lineto
524.914 258.538 lineto
532.638 263.747 lineto
540.427 245.691 lineto
1 setlinewidth
1 0 0 setrgbcolor
stroke
79 25.0707 moveto
15 0 rlineto
1 setlinewidth
0 0 0 setrgbcolor
stroke
101.5 22.5 moveto
/Times findfont
8.56889 scalefont
setfont
101.5 22.5 moveto
0 0 0 setrgbcolor
(rlnLogAmplitudesOriginal) show
269.667 25.0707 moveto
15 0 rlineto
1 setlinewidth
0 0 1 setrgbcolor
stroke
292.167 22.5 moveto
/Times findfont
8.56889 scalefont
setfont
292.167 22.5 moveto
0 0 0 setrgbcolor
(rlnLogAmplitudesWeighted) show
460.333 25.0707 moveto
15 0 rlineto
1 setlinewidth
1 0 0 setrgbcolor
stroke
482.833 22.5 moveto
/Times findfont
8.56889 scalefont
setfont
482.833 22.5 moveto
0 0 0 setrgbcolor
(rlnLogAmplitudesSharpened) show
