%!PS-Adobe-2.0 EPSF-1.2
%%BoundingBox: 0 0 715 630
%%Pages: 1
%%EndComments
75 90 moveto
75 90 moveto
0 7.69231 rlineto
1 setlinewidth
0.8 0.8 0.8 setrgbcolor
stroke
75 105.385 moveto
0 7.69231 rlineto
1 setlinewidth
0.8 0.8 0.8 setrgbcolor
stroke
75 120.769 moveto
0 7.69231 rlineto
1 setlinewidth
0.8 0.8 0.8 setrgbcolor
stroke
75 136.154 moveto
0 7.69231 rlineto
1 setlinewidth
0.8 0.8 0.8 setrgbcolor
stroke
75 151.538 moveto
0 7.69231 rlineto
1 setlinewidth
0.8 0.8 0.8 setrgbcolor
stroke
75 166.923 moveto
0 7.69231 rlineto
1 setlinewidth
0.8 0.8 0.8 setrgbcolor
stroke
75 182.308 moveto
0 7.69231 rlineto
1 setlinewidth
0.8 0.8 0.8 setrgbcolor
stroke
75 197.692 moveto
0 7.69231 rlineto
1 setlinewidth
0.8 0.8 0.8 setrgbcolor
stroke
75 213.077 moveto
0 7.69231 rlineto
1 setlinewidth
0.8 0.8 0.8 setrgbcolor
stroke
75 228.462 moveto
0 7.69231 rlineto
1 setlinewidth
0.8 0.8 0.8 setrgbcolor
stroke
75 243.846 moveto
0 7.69231 rlineto
1 setlinewidth
0.8 0.8 0.8 setrgbcolor
stroke
75 259.231 moveto
0 7.69231 rlineto
1 setlinewidth
0.8 0.8 0.8 setrgbcolor
stroke
75 274.615 moveto
0 7.69231 rlineto
1 setlinewidth
0.8 0.8 0.8 setrgbcolor
stroke
75 290 moveto
0 7.69231 rlineto
1 setlinewidth
0.8 0.8 0.8 setrgbcolor
stroke
75 305.385 moveto
0 7.69231 rlineto
1 setlinewidth
0.8 0.8 0.8 setrgbcolor
stroke
75 320.769 moveto
0 7.69231 rlineto
1 setlinewidth
0.8 0.8 0.8 setrgbcolor
stroke
75 336.154 moveto
0 7.69231 rlineto
1 setlinewidth
0.8 0.8 0.8 setrgbcolor
stroke
75 351.538 moveto
0 7.69231 rlineto
1 setlinewidth
0.8 0.8 0.8 setrgbcolor
stroke
75 366.923 moveto
0 7.69231 rlineto
1 setlinewidth
0.8 0.8 0.8 setrgbcolor
stroke
75 382.308 moveto
0 7.69231 rlineto
1 setlinewidth
0.8 0.8 0.8 setrgbcolor
stroke
75 397.692 moveto
0 7.69231 rlineto
1 setlinewidth
0.8 0.8 0.8 setrgbcolor
stroke
75 413.077 moveto
0 7.69231 rlineto
1 setlinewidth
0.8 0.8 0.8 setrgbcolor
stroke
75 428.462 moveto
0 7.69231 rlineto
1 setlinewidth
0.8 0.8 0.8 setrgbcolor
stroke
75 443.846 moveto
0 7.69231 rlineto
1 setlinewidth
0.8 0.8 0.8 setrgbcolor
stroke
75 459.231 moveto
0 7.69231 rlineto
1 setlinewidth
0.8 0.8 0.8 setrgbcolor
stroke
75 474.615 moveto
0 7.69231 rlineto
1 setlinewidth
0.8 0.8 0.8 setrgbcolor
stroke
75 490 moveto
0 7.69231 rlineto
1 setlinewidth
0.8 0.8 0.8 setrgbcolor
stroke
75 505.385 moveto
0 7.69231 rlineto
1 setlinewidth
0.8 0.8 0.8 setrgbcolor
stroke
75 520.769 moveto
0 7.69231 rlineto
1 setlinewidth
0.8 0.8 0.8 setrgbcolor
stroke
75 536.154 moveto
0 7.69231 rlineto
1 setlinewidth
0.8 0.8 0.8 setrgbcolor
stroke
75 551.538 moveto
0 7.69231 rlineto
1 setlinewidth
0.8 0.8 0.8 setrgbcolor
stroke
75 566.923 moveto
0 7.69231 rlineto
1 setlinewidth
0.8 0.8 0.8 setrgbcolor
stroke
75 582.308 moveto
0 7.69231 rlineto
1 setlinewidth
0.8 0.8 0.8 setrgbcolor
stroke
195 90 moveto
195 90 moveto
0 7.69231 rlineto
1 setlinewidth
0.8 0.8 0.8 setrgbcolor
stroke
195 105.385 moveto
0 7.69231 rlineto
1 setlinewidth
0.8 0.8 0.8 setrgbcolor
stroke
195 120.769 moveto
0 7.69231 rlineto
1 setlinewidth
0.8 0.8 0.8 setrgbcolor
stroke
195 136.154 moveto
0 7.69231 rlineto
1 setlinewidth
0.8 0.8 0.8 setrgbcolor
stroke
195 151.538 moveto
0 7.69231 rlineto
1 setlinewidth
0.8 0.8 0.8 setrgbcolor
stroke
195 166.923 moveto
0 7.69231 rlineto
1 setlinewidth
0.8 0.8 0.8 setrgbcolor
stroke
195 182.308 moveto
0 7.69231 rlineto
1 setlinewidth
0.8 0.8 0.8 setrgbcolor
stroke
195 197.692 moveto
0 7.69231 rlineto
1 setlinewidth
0.8 0.8 0.8 setrgbcolor
stroke
195 213.077 moveto
0 7.69231 rlineto
1 setlinewidth
0.8 0.8 0.8 setrgbcolor
stroke
195 228.462 moveto
0 7.69231 rlineto
1 setlinewidth
0.8 0.8 0.8 setrgbcolor
stroke
195 243.846 moveto
0 7.69231 rlineto
1 setlinewidth
0.8 0.8 0.8 setrgbcolor
stroke
195 259.231 moveto
0 7.69231 rlineto
1 setlinewidth
0.8 0.8 0.8 setrgbcolor
stroke
195 274.615 moveto
0 7.69231 rlineto
1 setlinewidth
0.8 0.8 0.8 setrgbcolor
stroke
195 290 moveto
0 7.69231 rlineto
1 setlinewidth
0.8 0.8 0.8 setrgbcolor
stroke
195 305.385 moveto
0 7.69231 rlineto
1 setlinewidth
0.8 0.8 0.8 setrgbcolor
stroke
195 320.769 moveto
0 7.69231 rlineto
1 setlinewidth
0.8 0.8 0.8 setrgbcolor
stroke
195 336.154 moveto
0 7.69231 rlineto
1 setlinewidth
0.8 0.8 0.8 setrgbcolor
stroke
195 351.538 moveto
0 7.69231 rlineto
1 setlinewidth
0.8 0.8 0.8 setrgbcolor
stroke
195 366.923 moveto
0 7.69231 rlineto
1 setlinewidth
0.8 0.8 0.8 setrgbcolor
stroke
195 382.308 moveto
0 7.69231 rlineto
1 setlinewidth
0.8 0.8 0.8 setrgbcolor
stroke
195 397.692 moveto
0 7.69231 rlineto
1 setlinewidth
0.8 0.8 0.8 setrgbcolor
stroke
195 413.077 moveto
0 7.69231 rlineto
1 setlinewidth
0.8 0.8 0.8 setrgbcolor
stroke
195 428.462 moveto
0 7.69231 rlineto
1 setlinewidth
0.8 0.8 0.8 setrgbcolor
stroke
195 443.846 moveto
0 7.69231 rlineto
1 setlinewidth
0.8 0.8 0.8 setrgbcolor
stroke
195 459.231 moveto
0 7.69231 rlineto
1 setlinewidth
0.8 0.8 0.8 setrgbcolor
stroke
195 474.615 moveto
0 7.69231 rlineto
1 setlinewidth
0.8 0.8 0.8 setrgbcolor
stroke
195 490 moveto
0 7.69231 rlineto
1 setlinewidth
0.8 0.8 0.8 setrgbcolor
stroke
195 505.385 moveto
0 7.69231 rlineto
1 setlinewidth
0.8 0.8 0.8 setrgbcolor
stroke
195 520.769 moveto
0 7.69231 rlineto
1 setlinewidth
0.8 0.8 0.8 setrgbcolor
stroke
195 536.154 moveto
0 7.69231 rlineto
1 setlinewidth
0.8 0.8 0.8 setrgbcolor
stroke
195 551.538 moveto
0 7.69231 rlineto
1 setlinewidth
0.8 0.8 0.8 setrgbcolor
stroke
195 566.923 moveto
0 7.69231 rlineto
1 setlinewidth
0.8 0.8 0.8 setrgbcolor
stroke
195 582.308 moveto
0 7.69231 rlineto
1 setlinewidth
0.8 0.8 0.8 setrgbcolor
stroke
315 90 moveto
315 90 moveto
0 7.69231 rlineto
1 setlinewidth
0.8 0.8 0.8 setrgbcolor
stroke
315 105.385 moveto
0 7.69231 rlineto
1 setlinewidth
0.8 0.8 0.8 setrgbcolor
stroke
315 120.769 moveto
0 7.69231 rlineto
1 setlinewidth
0.8 0.8 0.8 setrgbcolor
stroke
315 136.154 moveto
0 7.69231 rlineto
1 setlinewidth
0.8 0.8 0.8 setrgbcolor
stroke
315 151.538 moveto
0 7.69231 rlineto
1 setlinewidth
0.8 0.8 0.8 setrgbcolor
stroke
315 166.923 moveto
0 7.69231 rlineto
1 setlinewidth
0.8 0.8 0.8 setrgbcolor
stroke
315 182.308 moveto
0 7.69231 rlineto
1 setlinewidth
0.8 0.8 0.8 setrgbcolor
stroke
315 197.692 moveto
0 7.69231 rlineto
1 setlinewidth
0.8 0.8 0.8 setrgbcolor
stroke
315 213.077 moveto
0 7.69231 rlineto
1 setlinewidth
0.8 0.8 0.8 setrgbcolor
stroke
315 228.462 moveto
0 7.69231 rlineto
1 setlinewidth
0.8 0.8 0.8 setrgbcolor
stroke
315 243.846 moveto
0 7.69231 rlineto
1 setlinewidth
0.8 0.8 0.8 setrgbcolor
stroke
315 259.231 moveto
0 7.69231 rlineto
1 setlinewidth
0.8 0.8 0.8 setrgbcolor
stroke
315 274.615 moveto
0 7.69231 rlineto
1 setlinewidth
0.8 0.8 0.8 setrgbcolor
stroke
315 290 moveto
0 7.69231 rlineto
1 setlinewidth
0.8 0.8 0.8 setrgbcolor
stroke
315 305.385 moveto
0 7.69231 rlineto
1 setlinewidth
0.8 0.8 0.8 setrgbcolor
stroke
315 320.769 moveto
0 7.69231 rlineto
1 setlinewidth
0.8 0.8 0.8 setrgbcolor
stroke
315 336.154 moveto
0 7.69231 rlineto
1 setlinewidth
0.8 0.8 0.8 setrgbcolor
stroke
315 351.538 moveto
0 7.69231 rlineto
1 setlinewidth
0.8 0.8 0.8 setrgbcolor
stroke
315 366.923 moveto
0 7.69231 rlineto
1 setlinewidth
0.8 0.8 0.8 setrgbcolor
stroke
315 382.308 moveto
0 7.69231 rlineto
1 setlinewidth
0.8 0.8 0.8 setrgbcolor
stroke
315 397.692 moveto
0 7.69231 rlineto
1 setlinewidth
0.8 0.8 0.8 setrgbcolor
stroke
315 413.077 moveto
0 7.69231 rlineto
1 setlinewidth
0.8 0.8 0.8 setrgbcolor
stroke
315 428.462 moveto
0 7.69231 rlineto
1 setlinewidth
0.8 0.8 0.8 setrgbcolor
stroke
315 443.846 moveto
0 7.69231 rlineto
1 setlinewidth
0.8 0.8 0.8 setrgbcolor
stroke
315 459.231 moveto
0 7.69231 rlineto
1 setlinewidth
0.8 0.8 0.8 setrgbcolor
stroke
315 474.615 moveto
0 7.69231 rlineto
1 setlinewidth
0.8 0.8 0.8 setrgbcolor
stroke
315 490 moveto
0 7.69231 rlineto
1 setlinewidth
0.8 0.8 0.8 setrgbcolor
stroke
315 505.385 moveto
0 7.69231 rlineto
1 setlinewidth
0.8 0.8 0.8 setrgbcolor
stroke
315 520.769 moveto
0 7.69231 rlineto
1 setlinewidth
0.8 0.8 0.8 setrgbcolor
stroke
315 536.154 moveto
0 7.69231 rlineto
1 setlinewidth
0.8 0.8 0.8 setrgbcolor
stroke
315 551.538 moveto
0 7.69231 rlineto
1 setlinewidth
0.8 0.8 0.8 setrgbcolor
stroke
315 566.923 moveto
0 7.69231 rlineto
1 setlinewidth
0.8 0.8 0.8 setrgbcolor
stroke
315 582.308 moveto
0 7.69231 rlineto
1 setlinewidth
0.8 0.8 0.8 setrgbcolor
stroke
435 90 moveto
435 90 moveto
0 7.69231 rlineto
1 setlinewidth
0.8 0.8 0.8 setrgbcolor
stroke
435 105.385 moveto
0 7.69231 rlineto
1 setlinewidth
0.8 0.8 0.8 setrgbcolor
stroke
435 120.769 moveto
0 7.69231 rlineto
1 setlinewidth
0.8 0.8 0.8 setrgbcolor
stroke
435 136.154 moveto
0 7.69231 rlineto
1 setlinewidth
0.8 0.8 0.8 setrgbcolor
stroke
435 151.538 moveto
0 7.69231 rlineto
1 setlinewidth
0.8 0.8 0.8 setrgbcolor
stroke
435 166.923 moveto
0 7.69231 rlineto
1 setlinewidth
0.8 0.8 0.8 setrgbcolor
stroke
435 182.308 moveto
0 7.69231 rlineto
1 setlinewidth
0.8 0.8 0.8 setrgbcolor
stroke
435 197.692 moveto
0 7.69231 rlineto
1 setlinewidth
0.8 0.8 0.8 setrgbcolor
stroke
435 213.077 moveto
0 7.69231 rlineto
1 setlinewidth
0.8 0.8 0.8 setrgbcolor
stroke
435 228.462 moveto
0 7.69231 rlineto
1 setlinewidth
0.8 0.8 0.8 setrgbcolor
stroke
435 243.846 moveto
0 7.69231 rlineto
1 setlinewidth
0.8 0.8 0.8 setrgbcolor
stroke
435 259.231 moveto
0 7.69231 rlineto
1 setlinewidth
0.8 0.8 0.8 setrgbcolor
stroke
435 274.615 moveto
0 7.69231 rlineto
1 setlinewidth
0.8 0.8 0.8 setrgbcolor
stroke
435 290 moveto
0 7.69231 rlineto
1 setlinewidth
0.8 0.8 0.8 setrgbcolor
stroke
435 305.385 moveto
0 7.69231 rlineto
1 setlinewidth
0.8 0.8 0.8 setrgbcolor
stroke
435 320.769 moveto
0 7.69231 rlineto
1 setlinewidth
0.8 0.8 0.8 setrgbcolor
stroke
435 336.154 moveto
0 7.69231 rlineto
1 setlinewidth
0.8 0.8 0.8 setrgbcolor
stroke
435 351.538 moveto
0 7.69231 rlineto
1 setlinewidth
0.8 0.8 0.8 setrgbcolor
stroke
435 366.923 moveto
0 7.69231 rlineto
1 setlinewidth
0.8 0.8 0.8 setrgbcolor
stroke
435 382.308 moveto
0 7.69231 rlineto
1 setlinewidth
0.8 0.8 0.8 setrgbcolor
stroke
435 397.692 moveto
0 7.69231 rlineto
1 setlinewidth
0.8 0.8 0.8 setrgbcolor
stroke
435 413.077 moveto
0 7.69231 rlineto
1 setlinewidth
0.8 0.8 0.8 setrgbcolor
stroke
435 428.462 moveto
0 7.69231 rlineto
1 setlinewidth
0.8 0.8 0.8 setrgbcolor
stroke
435 443.846 moveto
0 7.69231 rlineto
1 setlinewidth
0.8 0.8 0.8 setrgbcolor
stroke
435 459.231 moveto
0 7.69231 rlineto
1 setlinewidth
0.8 0.8 0.8 setrgbcolor
stroke
435 474.615 moveto
0 7.69231 rlineto
1 setlinewidth
0.8 0.8 0.8 setrgbcolor
stroke
435 490 moveto
0 7.69231 rlineto
1 setlinewidth
0.8 0.8 0.8 setrgbcolor
stroke
435 505.385 moveto
0 7.69231 rlineto
1 setlinewidth
0.8 0.8 0.8 setrgbcolor
stroke
435 520.769 moveto
0 7.69231 rlineto
1 setlinewidth
0.8 0.8 0.8 setrgbcolor
stroke
435 536.154 moveto
0 7.69231 rlineto
1 setlinewidth
0.8 0.8 0.8 setrgbcolor
stroke
435 551.538 moveto
0 7.69231 rlineto
1 setlinewidth
0.8 0.8 0.8 setrgbcolor
stroke
435 566.923 moveto
0 7.69231 rlineto
1 setlinewidth
0.8 0.8 0.8 setrgbcolor
stroke
435 582.308 moveto
0 7.69231 rlineto
1 setlinewidth
0.8 0.8 0.8 setrgbcolor
stroke
555 90 moveto
555 90 moveto
0 7.69231 rlineto
1 setlinewidth
0.8 0.8 0.8 setrgbcolor
stroke
555 105.385 moveto
0 7.69231 rlineto
1 setlinewidth
0.8 0.8 0.8 setrgbcolor
stroke
555 120.769 moveto
0 7.69231 rlineto
1 setlinewidth
0.8 0.8 0.8 setrgbcolor
stroke
555 136.154 moveto
0 7.69231 rlineto
1 setlinewidth
0.8 0.8 0.8 setrgbcolor
stroke
555 151.538 moveto
0 7.69231 rlineto
1 setlinewidth
0.8 0.8 0.8 setrgbcolor
stroke
555 166.923 moveto
0 7.69231 rlineto
1 setlinewidth
0.8 0.8 0.8 setrgbcolor
stroke
555 182.308 moveto
0 7.69231 rlineto
1 setlinewidth
0.8 0.8 0.8 setrgbcolor
stroke
555 197.692 moveto
0 7.69231 rlineto
1 setlinewidth
0.8 0.8 0.8 setrgbcolor
stroke
555 213.077 moveto
0 7.69231 rlineto
1 setlinewidth
0.8 0.8 0.8 setrgbcolor
stroke
555 228.462 moveto
0 7.69231 rlineto
1 setlinewidth
0.8 0.8 0.8 setrgbcolor
stroke
555 243.846 moveto
0 7.69231 rlineto
1 setlinewidth
0.8 0.8 0.8 setrgbcolor
stroke
555 259.231 moveto
0 7.69231 rlineto
1 setlinewidth
0.8 0.8 0.8 setrgbcolor
stroke
555 274.615 moveto
0 7.69231 rlineto
1 setlinewidth
0.8 0.8 0.8 setrgbcolor
stroke
555 290 moveto
0 7.69231 rlineto
1 setlinewidth
0.8 0.8 0.8 setrgbcolor
stroke
555 305.385 moveto
0 7.69231 rlineto
1 setlinewidth
0.8 0.8 0.8 setrgbcolor
stroke
555 320.769 moveto
0 7.69231 rlineto
1 setlinewidth
0.8 0.8 0.8 setrgbcolor
stroke
555 336.154 moveto
0 7.69231 rlineto
1 setlinewidth
0.8 0.8 0.8 setrgbcolor
stroke
555 351.538 moveto
0 7.69231 rlineto
1 setlinewidth
0.8 0.8 0.8 setrgbcolor
stroke
555 366.923 moveto
0 7.69231 rlineto
1 setlinewidth
0.8 0.8 0.8 setrgbcolor
stroke
555 382.308 moveto
0 7.69231 rlineto
1 setlinewidth
0.8 0.8 0.8 setrgbcolor
stroke
555 397.692 moveto
0 7.69231 rlineto
1 setlinewidth
0.8 0.8 0.8 setrgbcolor
stroke
555 413.077 moveto
0 7.69231 rlineto
1 setlinewidth
0.8 0.8 0.8 setrgbcolor
stroke
555 428.462 moveto
0 7.69231 rlineto
1 setlinewidth
0.8 0.8 0.8 setrgbcolor
stroke
555 443.846 moveto
0 7.69231 rlineto
1 setlinewidth
0.8 0.8 0.8 setrgbcolor
stroke
555 459.231 moveto
0 7.69231 rlineto
1 setlinewidth
0.8 0.8 0.8 setrgbcolor
stroke
555 474.615 moveto
0 7.69231 rlineto
1 setlinewidth
0.8 0.8 0.8 setrgbcolor
stroke
555 490 moveto
0 7.69231 rlineto
1 setlinewidth
0.8 0.8 0.8 setrgbcolor
stroke
555 505.385 moveto
0 7.69231 rlineto
1 setlinewidth
0.8 0.8 0.8 setrgbcolor
stroke
555 520.769 moveto
0 7.69231 rlineto
1 setlinewidth
0.8 0.8 0.8 setrgbcolor
stroke
555 536.154 moveto
0 7.69231 rlineto
1 setlinewidth
0.8 0.8 0.8 setrgbcolor
stroke
555 551.538 moveto
0 7.69231 rlineto
1 setlinewidth
0.8 0.8 0.8 setrgbcolor
stroke
555 566.923 moveto
0 7.69231 rlineto
1 setlinewidth
0.8 0.8 0.8 setrgbcolor
stroke
555 582.308 moveto
0 7.69231 rlineto
1 setlinewidth
0.8 0.8 0.8 setrgbcolor
stroke
675 90 moveto
675 90 moveto
0 7.69231 rlineto
1 setlinewidth
0.8 0.8 0.8 setrgbcolor
stroke
675 105.385 moveto
0 7.69231 rlineto
1 setlinewidth
0.8 0.8 0.8 setrgbcolor
stroke
675 120.769 moveto
0 7.69231 rlineto
1 setlinewidth
0.8 0.8 0.8 setrgbcolor
stroke
675 136.154 moveto
0 7.69231 rlineto
1 setlinewidth
0.8 0.8 0.8 setrgbcolor
stroke
675 151.538 moveto
0 7.69231 rlineto
1 setlinewidth
0.8 0.8 0.8 setrgbcolor
stroke
675 166.923 moveto
0 7.69231 rlineto
1 setlinewidth
0.8 0.8 0.8 setrgbcolor
stroke
675 182.308 moveto
0 7.69231 rlineto
1 setlinewidth
0.8 0.8 0.8 setrgbcolor
stroke
675 197.692 moveto
0 7.69231 rlineto
1 setlinewidth
0.8 0.8 0.8 setrgbcolor
stroke
675 213.077 moveto
0 7.69231 rlineto
1 setlinewidth
0.8 0.8 0.8 setrgbcolor
stroke
675 228.462 moveto
0 7.69231 rlineto
1 setlinewidth
0.8 0.8 0.8 setrgbcolor
stroke
675 243.846 moveto
0 7.69231 rlineto
1 setlinewidth
0.8 0.8 0.8 setrgbcolor
stroke
675 259.231 moveto
0 7.69231 rlineto
1 setlinewidth
0.8 0.8 0.8 setrgbcolor
stroke
675 274.615 moveto
0 7.69231 rlineto
1 setlinewidth
0.8 0.8 0.8 setrgbcolor
stroke
675 290 moveto
0 7.69231 rlineto
1 setlinewidth
0.8 0.8 0.8 setrgbcolor
stroke
675 305.385 moveto
0 7.69231 rlineto
1 setlinewidth
0.8 0.8 0.8 setrgbcolor
stroke
675 320.769 moveto
0 7.69231 rlineto
1 setlinewidth
0.8 0.8 0.8 setrgbcolor
stroke
675 336.154 moveto
0 7.69231 rlineto
1 setlinewidth
0.8 0.8 0.8 setrgbcolor
stroke
675 351.538 moveto
0 7.69231 rlineto
1 setlinewidth
0.8 0.8 0.8 setrgbcolor
stroke
675 366.923 moveto
0 7.69231 rlineto
1 setlinewidth
0.8 0.8 0.8 setrgbcolor
stroke
675 382.308 moveto
0 7.69231 rlineto
1 setlinewidth
0.8 0.8 0.8 setrgbcolor
stroke
675 397.692 moveto
0 7.69231 rlineto
1 setlinewidth
0.8 0.8 0.8 setrgbcolor
stroke
675 413.077 moveto
0 7.69231 rlineto
1 setlinewidth
0.8 0.8 0.8 setrgbcolor
stroke
675 428.462 moveto
0 7.69231 rlineto
1 setlinewidth
0.8 0.8 0.8 setrgbcolor
stroke
675 443.846 moveto
0 7.69231 rlineto
1 setlinewidth
0.8 0.8 0.8 setrgbcolor
stroke
675 459.231 moveto
0 7.69231 rlineto
1 setlinewidth
0.8 0.8 0.8 setrgbcolor
stroke
675 474.615 moveto
0 7.69231 rlineto
1 setlinewidth
0.8 0.8 0.8 setrgbcolor
stroke
675 490 moveto
0 7.69231 rlineto
1 setlinewidth
0.8 0.8 0.8 setrgbcolor
stroke
675 505.385 moveto
0 7.69231 rlineto
1 setlinewidth
0.8 0.8 0.8 setrgbcolor
stroke
675 520.769 moveto
0 7.69231 rlineto
1 setlinewidth
0.8 0.8 0.8 setrgbcolor
stroke
675 536.154 moveto
0 7.69231 rlineto
1 setlinewidth
0.8 0.8 0.8 setrgbcolor
stroke
675 551.538 moveto
0 7.69231 rlineto
1 setlinewidth
0.8 0.8 0.8 setrgbcolor
stroke
675 566.923 moveto
0 7.69231 rlineto
1 setlinewidth
0.8 0.8 0.8 setrgbcolor
stroke
675 582.308 moveto
0 7.69231 rlineto
1 setlinewidth
0.8 0.8 0.8 setrgbcolor
stroke
75 90 moveto
75 90 moveto
7.79221 0 rlineto
1 setlinewidth
0.8 0.8 0.8 setrgbcolor
stroke
90.5844 90 moveto
7.79221 0 rlineto
1 setlinewidth
0.8 0.8 0.8 setrgbcolor
stroke
106.169 90 moveto
7.79221 0 rlineto
1 setlinewidth
0.8 0.8 0.8 setrgbcolor
stroke
121.753 90 moveto
7.79221 0 rlineto
1 setlinewidth
0.8 0.8 0.8 setrgbcolor
stroke
137.338 90 moveto
7.79221 0 rlineto
1 setlinewidth
0.8 0.8 0.8 setrgbcolor
stroke
152.922 90 moveto
7.79221 0 rlineto
1 setlinewidth
0.8 0.8 0.8 setrgbcolor
stroke
168.506 90 moveto
7.79221 0 rlineto
1 setlinewidth
0.8 0.8 0.8 setrgbcolor
stroke
184.091 90 moveto
7.79221 0 rlineto
1 setlinewidth
0.8 0.8 0.8 setrgbcolor
stroke
199.675 90 moveto
7.79221 0 rlineto
1 setlinewidth
0.8 0.8 0.8 setrgbcolor
stroke
215.26 90 moveto
7.79221 0 rlineto
1 setlinewidth
0.8 0.8 0.8 setrgbcolor
stroke
230.844 90 moveto
7.79221 0 rlineto
1 setlinewidth
0.8 0.8 0.8 setrgbcolor
stroke
246.429 90 moveto
7.79221 0 rlineto
1 setlinewidth
0.8 0.8 0.8 setrgbcolor
stroke
262.013 90 moveto
7.79221 0 rlineto
1 setlinewidth
0.8 0.8 0.8 setrgbcolor
stroke
277.597 90 moveto
7.79221 0 rlineto
1 setlinewidth
0.8 0.8 0.8 setrgbcolor
stroke
293.182 90 moveto
7.79221 0 rlineto
1 setlinewidth
0.8 0.8 0.8 setrgbcolor
stroke
308.766 90 moveto
7.79221 0 rlineto
1 setlinewidth
0.8 0.8 0.8 setrgbcolor
stroke
324.351 90 moveto
7.79221 0 rlineto
1 setlinewidth
0.8 0.8 0.8 setrgbcolor
stroke
339.935 90 moveto
7.79221 0 rlineto
1 setlinewidth
0.8 0.8 0.8 setrgbcolor
stroke
355.519 90 moveto
7.79221 0 rlineto
1 setlinewidth
0.8 0.8 0.8 setrgbcolor
stroke
371.104 90 moveto
7.79221 0 rlineto
1 setlinewidth
0.8 0.8 0.8 setrgbcolor
stroke
386.688 90 moveto
7.79221 0 rlineto
1 setlinewidth
0.8 0.8 0.8 setrgbcolor
stroke
402.273 90 moveto
7.79221 0 rlineto
1 setlinewidth
0.8 0.8 0.8 setrgbcolor
stroke
417.857 90 moveto
7.79221 0 rlineto
1 setlinewidth
0.8 0.8 0.8 setrgbcolor
stroke
433.442 90 moveto
7.79221 0 rlineto
1 setlinewidth
0.8 0.8 0.8 setrgbcolor
stroke
449.026 90 moveto
7.79221 0 rlineto
1 setlinewidth
0.8 0.8 0.8 setrgbcolor
stroke
464.61 90 moveto
7.79221 0 rlineto
1 setlinewidth
0.8 0.8 0.8 setrgbcolor
stroke
480.195 90 moveto
7.79221 0 rlineto
1 setlinewidth
0.8 0.8 0.8 setrgbcolor
stroke
495.779 90 moveto
7.79221 0 rlineto
1 setlinewidth
0.8 0.8 0.8 setrgbcolor
stroke
511.364 90 moveto
7.79221 0 rlineto
1 setlinewidth
0.8 0.8 0.8 setrgbcolor
stroke
526.948 90 moveto
7.79221 0 rlineto
1 setlinewidth
0.8 0.8 0.8 setrgbcolor
stroke
542.532 90 moveto
7.79221 0 rlineto
1 setlinewidth
0.8 0.8 0.8 setrgbcolor
stroke
558.117 90 moveto
7.79221 0 rlineto
1 setlinewidth
0.8 0.8 0.8 setrgbcolor
stroke
573.701 90 moveto
7.79221 0 rlineto
1 setlinewidth
0.8 0.8 0.8 setrgbcolor
stroke
589.286 90 moveto
7.79221 0 rlineto
1 setlinewidth
0.8 0.8 0.8 setrgbcolor
stroke
604.87 90 moveto
7.79221 0 rlineto
1 setlinewidth
0.8 0.8 0.8 setrgbcolor
stroke
620.455 90 moveto
7.79221 0 rlineto
1 setlinewidth
0.8 0.8 0.8 setrgbcolor
stroke
636.039 90 moveto
7.79221 0 rlineto
1 setlinewidth
0.8 0.8 0.8 setrgbcolor
stroke
651.623 90 moveto
7.79221 0 rlineto
1 setlinewidth
0.8 0.8 0.8 setrgbcolor
stroke
667.208 90 moveto
7.79221 0 rlineto
1 setlinewidth
0.8 0.8 0.8 setrgbcolor
stroke
75 140 moveto
75 140 moveto
7.79221 0 rlineto
1 setlinewidth
0.8 0.8 0.8 setrgbcolor
stroke
90.5844 140 moveto
7.79221 0 rlineto
1 setlinewidth
0.8 0.8 0.8 setrgbcolor
stroke
106.169 140 moveto
7.79221 0 rlineto
1 setlinewidth
0.8 0.8 0.8 setrgbcolor
stroke
121.753 140 moveto
7.79221 0 rlineto
1 setlinewidth
0.8 0.8 0.8 setrgbcolor
stroke
137.338 140 moveto
7.79221 0 rlineto
1 setlinewidth
0.8 0.8 0.8 setrgbcolor
stroke
152.922 140 moveto
7.79221 0 rlineto
1 setlinewidth
0.8 0.8 0.8 setrgbcolor
stroke
168.506 140 moveto
7.79221 0 rlineto
1 setlinewidth
0.8 0.8 0.8 setrgbcolor
stroke
184.091 140 moveto
7.79221 0 rlineto
1 setlinewidth
0.8 0.8 0.8 setrgbcolor
stroke
199.675 140 moveto
7.79221 0 rlineto
1 setlinewidth
0.8 0.8 0.8 setrgbcolor
stroke
215.26 140 moveto
7.79221 0 rlineto
1 setlinewidth
0.8 0.8 0.8 setrgbcolor
stroke
230.844 140 moveto
7.79221 0 rlineto
1 setlinewidth
0.8 0.8 0.8 setrgbcolor
stroke
246.429 140 moveto
7.79221 0 rlineto
1 setlinewidth
0.8 0.8 0.8 setrgbcolor
stroke
262.013 140 moveto
7.79221 0 rlineto
1 setlinewidth
0.8 0.8 0.8 setrgbcolor
stroke
277.597 140 moveto
7.79221 0 rlineto
1 setlinewidth
0.8 0.8 0.8 setrgbcolor
stroke
293.182 140 moveto
7.79221 0 rlineto
1 setlinewidth
0.8 0.8 0.8 setrgbcolor
stroke
308.766 140 moveto
7.79221 0 rlineto
1 setlinewidth
0.8 0.8 0.8 setrgbcolor
stroke
324.351 140 moveto
7.79221 0 rlineto
1 setlinewidth
0.8 0.8 0.8 setrgbcolor
stroke
339.935 140 moveto
7.79221 0 rlineto
1 setlinewidth
0.8 0.8 0.8 setrgbcolor
stroke
355.519 140 moveto
7.79221 0 rlineto
1 setlinewidth
0.8 0.8 0.8 setrgbcolor
stroke
371.104 140 moveto
7.79221 0 rlineto
1 setlinewidth
0.8 0.8 0.8 setrgbcolor
stroke
386.688 140 moveto
7.79221 0 rlineto
1 setlinewidth
0.8 0.8 0.8 setrgbcolor
stroke
402.273 140 moveto
7.79221 0 rlineto
1 setlinewidth
0.8 0.8 0.8 setrgbcolor
stroke
417.857 140 moveto
7.79221 0 rlineto
1 setlinewidth
0.8 0.8 0.8 setrgbcolor
stroke
433.442 140 moveto
7.79221 0 rlineto
1 setlinewidth
0.8 0.8 0.8 setrgbcolor
stroke
449.026 140 moveto
7.79221 0 rlineto
1 setlinewidth
0.8 0.8 0.8 setrgbcolor
stroke
464.61 140 moveto
7.79221 0 rlineto
1 setlinewidth
0.8 0.8 0.8 setrgbcolor
stroke
480.195 140 moveto
7.79221 0 rlineto
1 setlinewidth
0.8 0.8 0.8 setrgbcolor
stroke
495.779 140 moveto
7.79221 0 rlineto
1 setlinewidth
0.8 0.8 0.8 setrgbcolor
stroke
511.364 140 moveto
7.79221 0 rlineto
1 setlinewidth
0.8 0.8 0.8 setrgbcolor
stroke
526.948 140 moveto
7.79221 0 rlineto
1 setlinewidth
0.8 0.8 0.8 setrgbcolor
stroke
542.532 140 moveto
7.79221 0 rlineto
1 setlinewidth
0.8 0.8 0.8 setrgbcolor
stroke
558.117 140 moveto
7.79221 0 rlineto
1 setlinewidth
0.8 0.8 0.8 setrgbcolor
stroke
573.701 140 moveto
7.79221 0 rlineto
1 setlinewidth
0.8 0.8 0.8 setrgbcolor
stroke
589.286 140 moveto
7.79221 0 rlineto
1 setlinewidth
0.8 0.8 0.8 setrgbcolor
stroke
604.87 140 moveto
7.79221 0 rlineto
1 setlinewidth
0.8 0.8 0.8 setrgbcolor
stroke
620.455 140 moveto
7.79221 0 rlineto
1 setlinewidth
0.8 0.8 0.8 setrgbcolor
stroke
636.039 140 moveto
7.79221 0 rlineto
1 setlinewidth
0.8 0.8 0.8 setrgbcolor
stroke
651.623 140 moveto
7.79221 0 rlineto
1 setlinewidth
0.8 0.8 0.8 setrgbcolor
stroke
667.208 140 moveto
7.79221 0 rlineto
1 setlinewidth
0.8 0.8 0.8 setrgbcolor
stroke
75 190 moveto
75 190 moveto
7.79221 0 rlineto
1 setlinewidth
0.8 0.8 0.8 setrgbcolor
stroke
90.5844 190 moveto
7.79221 0 rlineto
1 setlinewidth
0.8 0.8 0.8 setrgbcolor
stroke
106.169 190 moveto
7.79221 0 rlineto
1 setlinewidth
0.8 0.8 0.8 setrgbcolor
stroke
121.753 190 moveto
7.79221 0 rlineto
1 setlinewidth
0.8 0.8 0.8 setrgbcolor
stroke
137.338 190 moveto
7.79221 0 rlineto
1 setlinewidth
0.8 0.8 0.8 setrgbcolor
stroke
152.922 190 moveto
7.79221 0 rlineto
1 setlinewidth
0.8 0.8 0.8 setrgbcolor
stroke
168.506 190 moveto
7.79221 0 rlineto
1 setlinewidth
0.8 0.8 0.8 setrgbcolor
stroke
184.091 190 moveto
7.79221 0 rlineto
1 setlinewidth
0.8 0.8 0.8 setrgbcolor
stroke
199.675 190 moveto
7.79221 0 rlineto
1 setlinewidth
0.8 0.8 0.8 setrgbcolor
stroke
215.26 190 moveto
7.79221 0 rlineto
1 setlinewidth
0.8 0.8 0.8 setrgbcolor
stroke
230.844 190 moveto
7.79221 0 rlineto
1 setlinewidth
0.8 0.8 0.8 setrgbcolor
stroke
246.429 190 moveto
7.79221 0 rlineto
1 setlinewidth
0.8 0.8 0.8 setrgbcolor
stroke
262.013 190 moveto
7.79221 0 rlineto
1 setlinewidth
0.8 0.8 0.8 setrgbcolor
stroke
277.597 190 moveto
7.79221 0 rlineto
1 setlinewidth
0.8 0.8 0.8 setrgbcolor
stroke
293.182 190 moveto
7.79221 0 rlineto
1 setlinewidth
0.8 0.8 0.8 setrgbcolor
stroke
308.766 190 moveto
7.79221 0 rlineto
1 setlinewidth
0.8 0.8 0.8 setrgbcolor
stroke
324.351 190 moveto
7.79221 0 rlineto
1 setlinewidth
0.8 0.8 0.8 setrgbcolor
stroke
339.935 190 moveto
7.79221 0 rlineto
1 setlinewidth
0.8 0.8 0.8 setrgbcolor
stroke
355.519 190 moveto
7.79221 0 rlineto
1 setlinewidth
0.8 0.8 0.8 setrgbcolor
stroke
371.104 190 moveto
7.79221 0 rlineto
1 setlinewidth
0.8 0.8 0.8 setrgbcolor
stroke
386.688 190 moveto
7.79221 0 rlineto
1 setlinewidth
0.8 0.8 0.8 setrgbcolor
stroke
402.273 190 moveto
7.79221 0 rlineto
1 setlinewidth
0.8 0.8 0.8 setrgbcolor
stroke
417.857 190 moveto
7.79221 0 rlineto
1 setlinewidth
0.8 0.8 0.8 setrgbcolor
stroke
433.442 190 moveto
7.79221 0 rlineto
1 setlinewidth
0.8 0.8 0.8 setrgbcolor
stroke
449.026 190 moveto
7.79221 0 rlineto
1 setlinewidth
0.8 0.8 0.8 setrgbcolor
stroke
464.61 190 moveto
7.79221 0 rlineto
1 setlinewidth
0.8 0.8 0.8 setrgbcolor
stroke
480.195 190 moveto
7.79221 0 rlineto
1 setlinewidth
0.8 0.8 0.8 setrgbcolor
stroke
495.779 190 moveto
7.79221 0 rlineto
1 setlinewidth
0.8 0.8 0.8 setrgbcolor
stroke
511.364 190 moveto
7.79221 0 rlineto
1 setlinewidth
0.8 0.8 0.8 setrgbcolor
stroke
526.948 190 moveto
7.79221 0 rlineto
1 setlinewidth
0.8 0.8 0.8 setrgbcolor
stroke
542.532 190 moveto
7.79221 0 rlineto
1 setlinewidth
0.8 0.8 0.8 setrgbcolor
stroke
558.117 190 moveto
7.79221 0 rlineto
1 setlinewidth
0.8 0.8 0.8 setrgbcolor
stroke
573.701 190 moveto
7.79221 0 rlineto
1 setlinewidth
0.8 0.8 0.8 setrgbcolor
stroke
589.286 190 moveto
7.79221 0 rlineto
1 setlinewidth
0.8 0.8 0.8 setrgbcolor
stroke
604.87 190 moveto
7.79221 0 rlineto
1 setlinewidth
0.8 0.8 0.8 setrgbcolor
stroke
620.455 190 moveto
7.79221 0 rlineto
1 setlinewidth
0.8 0.8 0.8 setrgbcolor
stroke
636.039 190 moveto
7.79221 0 rlineto
1 setlinewidth
0.8 0.8 0.8 setrgbcolor
stroke
651.623 190 moveto
7.79221 0 rlineto
1 setlinewidth
0.8 0.8 0.8 setrgbcolor
stroke
667.208 190 moveto
7.79221 0 rlineto
1 setlinewidth
0.8 0.8 0.8 setrgbcolor
stroke
75 240 moveto
75 240 moveto
7.79221 0 rlineto
1 setlinewidth
0.8 0.8 0.8 setrgbcolor
stroke
90.5844 240 moveto
7.79221 0 rlineto
1 setlinewidth
0.8 0.8 0.8 setrgbcolor
stroke
106.169 240 moveto
7.79221 0 rlineto
1 setlinewidth
0.8 0.8 0.8 setrgbcolor
stroke
121.753 240 moveto
7.79221 0 rlineto
1 setlinewidth
0.8 0.8 0.8 setrgbcolor
stroke
137.338 240 moveto
7.79221 0 rlineto
1 setlinewidth
0.8 0.8 0.8 setrgbcolor
stroke
152.922 240 moveto
7.79221 0 rlineto
1 setlinewidth
0.8 0.8 0.8 setrgbcolor
stroke
168.506 240 moveto
7.79221 0 rlineto
1 setlinewidth
0.8 0.8 0.8 setrgbcolor
stroke
184.091 240 moveto
7.79221 0 rlineto
1 setlinewidth
0.8 0.8 0.8 setrgbcolor
stroke
199.675 240 moveto
7.79221 0 rlineto
1 setlinewidth
0.8 0.8 0.8 setrgbcolor
stroke
215.26 240 moveto
7.79221 0 rlineto
1 setlinewidth
0.8 0.8 0.8 setrgbcolor
stroke
230.844 240 moveto
7.79221 0 rlineto
1 setlinewidth
0.8 0.8 0.8 setrgbcolor
stroke
246.429 240 moveto
7.79221 0 rlineto
1 setlinewidth
0.8 0.8 0.8 setrgbcolor
stroke
262.013 240 moveto
7.79221 0 rlineto
1 setlinewidth
0.8 0.8 0.8 setrgbcolor
stroke
277.597 240 moveto
7.79221 0 rlineto
1 setlinewidth
0.8 0.8 0.8 setrgbcolor
stroke
293.182 240 moveto
7.79221 0 rlineto
1 setlinewidth
0.8 0.8 0.8 setrgbcolor
stroke
308.766 240 moveto
7.79221 0 rlineto
1 setlinewidth
0.8 0.8 0.8 setrgbcolor
stroke
324.351 240 moveto
7.79221 0 rlineto
1 setlinewidth
0.8 0.8 0.8 setrgbcolor
stroke
339.935 240 moveto
7.79221 0 rlineto
1 setlinewidth
0.8 0.8 0.8 setrgbcolor
stroke
355.519 240 moveto
7.79221 0 rlineto
1 setlinewidth
0.8 0.8 0.8 setrgbcolor
stroke
371.104 240 moveto
7.79221 0 rlineto
1 setlinewidth
0.8 0.8 0.8 setrgbcolor
stroke
386.688 240 moveto
7.79221 0 rlineto
1 setlinewidth
0.8 0.8 0.8 setrgbcolor
stroke
402.273 240 moveto
7.79221 0 rlineto
1 setlinewidth
0.8 0.8 0.8 setrgbcolor
stroke
417.857 240 moveto
7.79221 0 rlineto
1 setlinewidth
0.8 0.8 0.8 setrgbcolor
stroke
433.442 240 moveto
7.79221 0 rlineto
1 setlinewidth
0.8 0.8 0.8 setrgbcolor
stroke
449.026 240 moveto
7.79221 0 rlineto
1 setlinewidth
0.8 0.8 0.8 setrgbcolor
stroke
464.61 240 moveto
7.79221 0 rlineto
1 setlinewidth
0.8 0.8 0.8 setrgbcolor
stroke
480.195 240 moveto
7.79221 0 rlineto
1 setlinewidth
0.8 0.8 0.8 setrgbcolor
stroke
495.779 240 moveto
7.79221 0 rlineto
1 setlinewidth
0.8 0.8 0.8 setrgbcolor
stroke
511.364 240 moveto
7.79221 0 rlineto
1 setlinewidth
0.8 0.8 0.8 setrgbcolor
stroke
526.948 240 moveto
7.79221 0 rlineto
1 setlinewidth
0.8 0.8 0.8 setrgbcolor
stroke
542.532 240 moveto
7.79221 0 rlineto
1 setlinewidth
0.8 0.8 0.8 setrgbcolor
stroke
558.117 240 moveto
7.79221 0 rlineto
1 setlinewidth
0.8 0.8 0.8 setrgbcolor
stroke
573.701 240 moveto
7.79221 0 rlineto
1 setlinewidth
0.8 0.8 0.8 setrgbcolor
stroke
589.286 240 moveto
7.79221 0 rlineto
1 setlinewidth
0.8 0.8 0.8 setrgbcolor
stroke
604.87 240 moveto
7.79221 0 rlineto
1 setlinewidth
0.8 0.8 0.8 setrgbcolor
stroke
620.455 240 moveto
7.79221 0 rlineto
1 setlinewidth
0.8 0.8 0.8 setrgbcolor
stroke
636.039 240 moveto
7.79221 0 rlineto
1 setlinewidth
0.8 0.8 0.8 setrgbcolor
stroke
651.623 240 moveto
7.79221 0 rlineto
1 setlinewidth
0.8 0.8 0.8 setrgbcolor
stroke
667.208 240 moveto
7.79221 0 rlineto
1 setlinewidth
0.8 0.8 0.8 setrgbcolor
stroke
75 290 moveto
75 290 moveto
7.79221 0 rlineto
1 setlinewidth
0.8 0.8 0.8 setrgbcolor
stroke
90.5844 290 moveto
7.79221 0 rlineto
1 setlinewidth
0.8 0.8 0.8 setrgbcolor
stroke
106.169 290 moveto
7.79221 0 rlineto
1 setlinewidth
0.8 0.8 0.8 setrgbcolor
stroke
121.753 290 moveto
7.79221 0 rlineto
1 setlinewidth
0.8 0.8 0.8 setrgbcolor
stroke
137.338 290 moveto
7.79221 0 rlineto
1 setlinewidth
0.8 0.8 0.8 setrgbcolor
stroke
152.922 290 moveto
7.79221 0 rlineto
1 setlinewidth
0.8 0.8 0.8 setrgbcolor
stroke
168.506 290 moveto
7.79221 0 rlineto
1 setlinewidth
0.8 0.8 0.8 setrgbcolor
stroke
184.091 290 moveto
7.79221 0 rlineto
1 setlinewidth
0.8 0.8 0.8 setrgbcolor
stroke
199.675 290 moveto
7.79221 0 rlineto
1 setlinewidth
0.8 0.8 0.8 setrgbcolor
stroke
215.26 290 moveto
7.79221 0 rlineto
1 setlinewidth
0.8 0.8 0.8 setrgbcolor
stroke
230.844 290 moveto
7.79221 0 rlineto
1 setlinewidth
0.8 0.8 0.8 setrgbcolor
stroke
246.429 290 moveto
7.79221 0 rlineto
1 setlinewidth
0.8 0.8 0.8 setrgbcolor
stroke
262.013 290 moveto
7.79221 0 rlineto
1 setlinewidth
0.8 0.8 0.8 setrgbcolor
stroke
277.597 290 moveto
7.79221 0 rlineto
1 setlinewidth
0.8 0.8 0.8 setrgbcolor
stroke
293.182 290 moveto
7.79221 0 rlineto
1 setlinewidth
0.8 0.8 0.8 setrgbcolor
stroke
308.766 290 moveto
7.79221 0 rlineto
1 setlinewidth
0.8 0.8 0.8 setrgbcolor
stroke
324.351 290 moveto
7.79221 0 rlineto
1 setlinewidth
0.8 0.8 0.8 setrgbcolor
stroke
339.935 290 moveto
7.79221 0 rlineto
1 setlinewidth
0.8 0.8 0.8 setrgbcolor
stroke
355.519 290 moveto
7.79221 0 rlineto
1 setlinewidth
0.8 0.8 0.8 setrgbcolor
stroke
371.104 290 moveto
7.79221 0 rlineto
1 setlinewidth
0.8 0.8 0.8 setrgbcolor
stroke
386.688 290 moveto
7.79221 0 rlineto
1 setlinewidth
0.8 0.8 0.8 setrgbcolor
stroke
402.273 290 moveto
7.79221 0 rlineto
1 setlinewidth
0.8 0.8 0.8 setrgbcolor
stroke
417.857 290 moveto
7.79221 0 rlineto
1 setlinewidth
0.8 0.8 0.8 setrgbcolor
stroke
433.442 290 moveto
7.79221 0 rlineto
1 setlinewidth
0.8 0.8 0.8 setrgbcolor
stroke
449.026 290 moveto
7.79221 0 rlineto
1 setlinewidth
0.8 0.8 0.8 setrgbcolor
stroke
464.61 290 moveto
7.79221 0 rlineto
1 setlinewidth
0.8 0.8 0.8 setrgbcolor
stroke
480.195 290 moveto
7.79221 0 rlineto
1 setlinewidth
0.8 0.8 0.8 setrgbcolor
stroke
495.779 290 moveto
7.79221 0 rlineto
1 setlinewidth
0.8 0.8 0.8 setrgbcolor
stroke
511.364 290 moveto
7.79221 0 rlineto
1 setlinewidth
0.8 0.8 0.8 setrgbcolor
stroke
526.948 290 moveto
7.79221 0 rlineto
1 setlinewidth
0.8 0.8 0.8 setrgbcolor
stroke
542.532 290 moveto
7.79221 0 rlineto
1 setlinewidth
0.8 0.8 0.8 setrgbcolor
stroke
558.117 290 moveto
7.79221 0 rlineto
1 setlinewidth
0.8 0.8 0.8 setrgbcolor
stroke
573.701 290 moveto
7.79221 0 rlineto
1 setlinewidth
0.8 0.8 0.8 setrgbcolor
stroke
589.286 290 moveto
7.79221 0 rlineto
1 setlinewidth
0.8 0.8 0.8 setrgbcolor
stroke
604.87 290 moveto
7.79221 0 rlineto
1 setlinewidth
0.8 0.8 0.8 setrgbcolor
stroke
620.455 290 moveto
7.79221 0 rlineto
1 setlinewidth
0.8 0.8 0.8 setrgbcolor
stroke
636.039 290 moveto
7.79221 0 rlineto
1 setlinewidth
0.8 0.8 0.8 setrgbcolor
stroke
651.623 290 moveto
7.79221 0 rlineto
1 setlinewidth
0.8 0.8 0.8 setrgbcolor
stroke
667.208 290 moveto
7.79221 0 rlineto
1 setlinewidth
0.8 0.8 0.8 setrgbcolor
stroke
75 340 moveto
75 340 moveto
7.79221 0 rlineto
1 setlinewidth
0.8 0.8 0.8 setrgbcolor
stroke
90.5844 340 moveto
7.79221 0 rlineto
1 setlinewidth
0.8 0.8 0.8 setrgbcolor
stroke
106.169 340 moveto
7.79221 0 rlineto
1 setlinewidth
0.8 0.8 0.8 setrgbcolor
stroke
121.753 340 moveto
7.79221 0 rlineto
1 setlinewidth
0.8 0.8 0.8 setrgbcolor
stroke
137.338 340 moveto
7.79221 0 rlineto
1 setlinewidth
0.8 0.8 0.8 setrgbcolor
stroke
152.922 340 moveto
7.79221 0 rlineto
1 setlinewidth
0.8 0.8 0.8 setrgbcolor
stroke
168.506 340 moveto
7.79221 0 rlineto
1 setlinewidth
0.8 0.8 0.8 setrgbcolor
stroke
184.091 340 moveto
7.79221 0 rlineto
1 setlinewidth
0.8 0.8 0.8 setrgbcolor
stroke
199.675 340 moveto
7.79221 0 rlineto
1 setlinewidth
0.8 0.8 0.8 setrgbcolor
stroke
215.26 340 moveto
7.79221 0 rlineto
1 setlinewidth
0.8 0.8 0.8 setrgbcolor
stroke
230.844 340 moveto
7.79221 0 rlineto
1 setlinewidth
0.8 0.8 0.8 setrgbcolor
stroke
246.429 340 moveto
7.79221 0 rlineto
1 setlinewidth
0.8 0.8 0.8 setrgbcolor
stroke
262.013 340 moveto
7.79221 0 rlineto
1 setlinewidth
0.8 0.8 0.8 setrgbcolor
stroke
277.597 340 moveto
7.79221 0 rlineto
1 setlinewidth
0.8 0.8 0.8 setrgbcolor
stroke
293.182 340 moveto
7.79221 0 rlineto
1 setlinewidth
0.8 0.8 0.8 setrgbcolor
stroke
308.766 340 moveto
7.79221 0 rlineto
1 setlinewidth
0.8 0.8 0.8 setrgbcolor
stroke
324.351 340 moveto
7.79221 0 rlineto
1 setlinewidth
0.8 0.8 0.8 setrgbcolor
stroke
339.935 340 moveto
7.79221 0 rlineto
1 setlinewidth
0.8 0.8 0.8 setrgbcolor
stroke
355.519 340 moveto
7.79221 0 rlineto
1 setlinewidth
0.8 0.8 0.8 setrgbcolor
stroke
371.104 340 moveto
7.79221 0 rlineto
1 setlinewidth
0.8 0.8 0.8 setrgbcolor
stroke
386.688 340 moveto
7.79221 0 rlineto
1 setlinewidth
0.8 0.8 0.8 setrgbcolor
stroke
402.273 340 moveto
7.79221 0 rlineto
1 setlinewidth
0.8 0.8 0.8 setrgbcolor
stroke
417.857 340 moveto
7.79221 0 rlineto
1 setlinewidth
0.8 0.8 0.8 setrgbcolor
stroke
433.442 340 moveto
7.79221 0 rlineto
1 setlinewidth
0.8 0.8 0.8 setrgbcolor
stroke
449.026 340 moveto
7.79221 0 rlineto
1 setlinewidth
0.8 0.8 0.8 setrgbcolor
stroke
464.61 340 moveto
7.79221 0 rlineto
1 setlinewidth
0.8 0.8 0.8 setrgbcolor
stroke
480.195 340 moveto
7.79221 0 rlineto
1 setlinewidth
0.8 0.8 0.8 setrgbcolor
stroke
495.779 340 moveto
7.79221 0 rlineto
1 setlinewidth
0.8 0.8 0.8 setrgbcolor
stroke
511.364 340 moveto
7.79221 0 rlineto
1 setlinewidth
0.8 0.8 0.8 setrgbcolor
stroke
526.948 340 moveto
7.79221 0 rlineto
1 setlinewidth
0.8 0.8 0.8 setrgbcolor
stroke
542.532 340 moveto
7.79221 0 rlineto
1 setlinewidth
0.8 0.8 0.8 setrgbcolor
stroke
558.117 340 moveto
7.79221 0 rlineto
1 setlinewidth
0.8 0.8 0.8 setrgbcolor
stroke
573.701 340 moveto
7.79221 0 rlineto
1 setlinewidth
0.8 0.8 0.8 setrgbcolor
stroke
589.286 340 moveto
7.79221 0 rlineto
1 setlinewidth
0.8 0.8 0.8 setrgbcolor
stroke
604.87 340 moveto
7.79221 0 rlineto
1 setlinewidth
0.8 0.8 0.8 setrgbcolor
stroke
620.455 340 moveto
7.79221 0 rlineto
1 setlinewidth
0.8 0.8 0.8 setrgbcolor
stroke
636.039 340 moveto
7.79221 0 rlineto
1 setlinewidth
0.8 0.8 0.8 setrgbcolor
stroke
651.623 340 moveto
7.79221 0 rlineto
1 setlinewidth
0.8 0.8 0.8 setrgbcolor
stroke
667.208 340 moveto
7.79221 0 rlineto
1 setlinewidth
0.8 0.8 0.8 setrgbcolor
stroke
75 390 moveto
75 390 moveto
7.79221 0 rlineto
1 setlinewidth
0.8 0.8 0.8 setrgbcolor
stroke
90.5844 390 moveto
7.79221 0 rlineto
1 setlinewidth
0.8 0.8 0.8 setrgbcolor
stroke
106.169 390 moveto
7.79221 0 rlineto
1 setlinewidth
0.8 0.8 0.8 setrgbcolor
stroke
121.753 390 moveto
7.79221 0 rlineto
1 setlinewidth
0.8 0.8 0.8 setrgbcolor
stroke
137.338 390 moveto
7.79221 0 rlineto
1 setlinewidth
0.8 0.8 0.8 setrgbcolor
stroke
152.922 390 moveto
7.79221 0 rlineto
1 setlinewidth
0.8 0.8 0.8 setrgbcolor
stroke
168.506 390 moveto
7.79221 0 rlineto
1 setlinewidth
0.8 0.8 0.8 setrgbcolor
stroke
184.091 390 moveto
7.79221 0 rlineto
1 setlinewidth
0.8 0.8 0.8 setrgbcolor
stroke
199.675 390 moveto
7.79221 0 rlineto
1 setlinewidth
0.8 0.8 0.8 setrgbcolor
stroke
215.26 390 moveto
7.79221 0 rlineto
1 setlinewidth
0.8 0.8 0.8 setrgbcolor
stroke
230.844 390 moveto
7.79221 0 rlineto
1 setlinewidth
0.8 0.8 0.8 setrgbcolor
stroke
246.429 390 moveto
7.79221 0 rlineto
1 setlinewidth
0.8 0.8 0.8 setrgbcolor
stroke
262.013 390 moveto
7.79221 0 rlineto
1 setlinewidth
0.8 0.8 0.8 setrgbcolor
stroke
277.597 390 moveto
7.79221 0 rlineto
1 setlinewidth
0.8 0.8 0.8 setrgbcolor
stroke
293.182 390 moveto
7.79221 0 rlineto
1 setlinewidth
0.8 0.8 0.8 setrgbcolor
stroke
308.766 390 moveto
7.79221 0 rlineto
1 setlinewidth
0.8 0.8 0.8 setrgbcolor
stroke
324.351 390 moveto
7.79221 0 rlineto
1 setlinewidth
0.8 0.8 0.8 setrgbcolor
stroke
339.935 390 moveto
7.79221 0 rlineto
1 setlinewidth
0.8 0.8 0.8 setrgbcolor
stroke
355.519 390 moveto
7.79221 0 rlineto
1 setlinewidth
0.8 0.8 0.8 setrgbcolor
stroke
371.104 390 moveto
7.79221 0 rlineto
1 setlinewidth
0.8 0.8 0.8 setrgbcolor
stroke
386.688 390 moveto
7.79221 0 rlineto
1 setlinewidth
0.8 0.8 0.8 setrgbcolor
stroke
402.273 390 moveto
7.79221 0 rlineto
1 setlinewidth
0.8 0.8 0.8 setrgbcolor
stroke
417.857 390 moveto
7.79221 0 rlineto
1 setlinewidth
0.8 0.8 0.8 setrgbcolor
stroke
433.442 390 moveto
7.79221 0 rlineto
1 setlinewidth
0.8 0.8 0.8 setrgbcolor
stroke
449.026 390 moveto
7.79221 0 rlineto
1 setlinewidth
0.8 0.8 0.8 setrgbcolor
stroke
464.61 390 moveto
7.79221 0 rlineto
1 setlinewidth
0.8 0.8 0.8 setrgbcolor
stroke
480.195 390 moveto
7.79221 0 rlineto
1 setlinewidth
0.8 0.8 0.8 setrgbcolor
stroke
495.779 390 moveto
7.79221 0 rlineto
1 setlinewidth
0.8 0.8 0.8 setrgbcolor
stroke
511.364 390 moveto
7.79221 0 rlineto
1 setlinewidth
0.8 0.8 0.8 setrgbcolor
stroke
526.948 390 moveto
7.79221 0 rlineto
1 setlinewidth
0.8 0.8 0.8 setrgbcolor
stroke
542.532 390 moveto
7.79221 0 rlineto
1 setlinewidth
0.8 0.8 0.8 setrgbcolor
stroke
558.117 390 moveto
7.79221 0 rlineto
1 setlinewidth
0.8 0.8 0.8 setrgbcolor
stroke
573.701 390 moveto
7.79221 0 rlineto
1 setlinewidth
0.8 0.8 0.8 setrgbcolor
stroke
589.286 390 moveto
7.79221 0 rlineto
1 setlinewidth
0.8 0.8 0.8 setrgbcolor
stroke
604.87 390 moveto
7.79221 0 rlineto
1 setlinewidth
0.8 0.8 0.8 setrgbcolor
stroke
620.455 390 moveto
7.79221 0 rlineto
1 setlinewidth
0.8 0.8 0.8 setrgbcolor
stroke
636.039 390 moveto
7.79221 0 rlineto
1 setlinewidth
0.8 0.8 0.8 setrgbcolor
stroke
651.623 390 moveto
7.79221 0 rlineto
1 setlinewidth
0.8 0.8 0.8 setrgbcolor
stroke
667.208 390 moveto
7.79221 0 rlineto
1 setlinewidth
0.8 0.8 0.8 setrgbcolor
stroke
75 440 moveto
75 440 moveto
7.79221 0 rlineto
1 setlinewidth
0.8 0.8 0.8 setrgbcolor
stroke
90.5844 440 moveto
7.79221 0 rlineto
1 setlinewidth
0.8 0.8 0.8 setrgbcolor
stroke
106.169 440 moveto
7.79221 0 rlineto
1 setlinewidth
0.8 0.8 0.8 setrgbcolor
stroke
121.753 440 moveto
7.79221 0 rlineto
1 setlinewidth
0.8 0.8 0.8 setrgbcolor
stroke
137.338 440 moveto
7.79221 0 rlineto
1 setlinewidth
0.8 0.8 0.8 setrgbcolor
stroke
152.922 440 moveto
7.79221 0 rlineto
1 setlinewidth
0.8 0.8 0.8 setrgbcolor
stroke
168.506 440 moveto
7.79221 0 rlineto
1 setlinewidth
0.8 0.8 0.8 setrgbcolor
stroke
184.091 440 moveto
7.79221 0 rlineto
1 setlinewidth
0.8 0.8 0.8 setrgbcolor
stroke
199.675 440 moveto
7.79221 0 rlineto
1 setlinewidth
0.8 0.8 0.8 setrgbcolor
stroke
215.26 440 moveto
7.79221 0 rlineto
1 setlinewidth
0.8 0.8 0.8 setrgbcolor
stroke
230.844 440 moveto
7.79221 0 rlineto
1 setlinewidth
0.8 0.8 0.8 setrgbcolor
stroke
246.429 440 moveto
7.79221 0 rlineto
1 setlinewidth
0.8 0.8 0.8 setrgbcolor
stroke
262.013 440 moveto
7.79221 0 rlineto
1 setlinewidth
0.8 0.8 0.8 setrgbcolor
stroke
277.597 440 moveto
7.79221 0 rlineto
1 setlinewidth
0.8 0.8 0.8 setrgbcolor
stroke
293.182 440 moveto
7.79221 0 rlineto
1 setlinewidth
0.8 0.8 0.8 setrgbcolor
stroke
308.766 440 moveto
7.79221 0 rlineto
1 setlinewidth
0.8 0.8 0.8 setrgbcolor
stroke
324.351 440 moveto
7.79221 0 rlineto
1 setlinewidth
0.8 0.8 0.8 setrgbcolor
stroke
339.935 440 moveto
7.79221 0 rlineto
1 setlinewidth
0.8 0.8 0.8 setrgbcolor
stroke
355.519 440 moveto
7.79221 0 rlineto
1 setlinewidth
0.8 0.8 0.8 setrgbcolor
stroke
371.104 440 moveto
7.79221 0 rlineto
1 setlinewidth
0.8 0.8 0.8 setrgbcolor
stroke
386.688 440 moveto
7.79221 0 rlineto
1 setlinewidth
0.8 0.8 0.8 setrgbcolor
stroke
402.273 440 moveto
7.79221 0 rlineto
1 setlinewidth
0.8 0.8 0.8 setrgbcolor
stroke
417.857 440 moveto
7.79221 0 rlineto
1 setlinewidth
0.8 0.8 0.8 setrgbcolor
stroke
433.442 440 moveto
7.79221 0 rlineto
1 setlinewidth
0.8 0.8 0.8 setrgbcolor
stroke
449.026 440 moveto
7.79221 0 rlineto
1 setlinewidth
0.8 0.8 0.8 setrgbcolor
stroke
464.61 440 moveto
7.79221 0 rlineto
1 setlinewidth
0.8 0.8 0.8 setrgbcolor
stroke
480.195 440 moveto
7.79221 0 rlineto
1 setlinewidth
0.8 0.8 0.8 setrgbcolor
stroke
495.779 440 moveto
7.79221 0 rlineto
1 setlinewidth
0.8 0.8 0.8 setrgbcolor
stroke
511.364 440 moveto
7.79221 0 rlineto
1 setlinewidth
0.8 0.8 0.8 setrgbcolor
stroke
526.948 440 moveto
7.79221 0 rlineto
1 setlinewidth
0.8 0.8 0.8 setrgbcolor
stroke
542.532 440 moveto
7.79221 0 rlineto
1 setlinewidth
0.8 0.8 0.8 setrgbcolor
stroke
558.117 440 moveto
7.79221 0 rlineto
1 setlinewidth
0.8 0.8 0.8 setrgbcolor
stroke
573.701 440 moveto
7.79221 0 rlineto
1 setlinewidth
0.8 0.8 0.8 setrgbcolor
stroke
589.286 440 moveto
7.79221 0 rlineto
1 setlinewidth
0.8 0.8 0.8 setrgbcolor
stroke
604.87 440 moveto
7.79221 0 rlineto
1 setlinewidth
0.8 0.8 0.8 setrgbcolor
stroke
620.455 440 moveto
7.79221 0 rlineto
1 setlinewidth
0.8 0.8 0.8 setrgbcolor
stroke
636.039 440 moveto
7.79221 0 rlineto
1 setlinewidth
0.8 0.8 0.8 setrgbcolor
stroke
651.623 440 moveto
7.79221 0 rlineto
1 setlinewidth
0.8 0.8 0.8 setrgbcolor
stroke
667.208 440 moveto
7.79221 0 rlineto
1 setlinewidth
0.8 0.8 0.8 setrgbcolor
stroke
75 490 moveto
75 490 moveto
7.79221 0 rlineto
1 setlinewidth
0.8 0.8 0.8 setrgbcolor
stroke
90.5844 490 moveto
7.79221 0 rlineto
1 setlinewidth
0.8 0.8 0.8 setrgbcolor
stroke
106.169 490 moveto
7.79221 0 rlineto
1 setlinewidth
0.8 0.8 0.8 setrgbcolor
stroke
121.753 490 moveto
7.79221 0 rlineto
1 setlinewidth
0.8 0.8 0.8 setrgbcolor
stroke
137.338 490 moveto
7.79221 0 rlineto
1 setlinewidth
0.8 0.8 0.8 setrgbcolor
stroke
152.922 490 moveto
7.79221 0 rlineto
1 setlinewidth
0.8 0.8 0.8 setrgbcolor
stroke
168.506 490 moveto
7.79221 0 rlineto
1 setlinewidth
0.8 0.8 0.8 setrgbcolor
stroke
184.091 490 moveto
7.79221 0 rlineto
1 setlinewidth
0.8 0.8 0.8 setrgbcolor
stroke
199.675 490 moveto
7.79221 0 rlineto
1 setlinewidth
0.8 0.8 0.8 setrgbcolor
stroke
215.26 490 moveto
7.79221 0 rlineto
1 setlinewidth
0.8 0.8 0.8 setrgbcolor
stroke
230.844 490 moveto
7.79221 0 rlineto
1 setlinewidth
0.8 0.8 0.8 setrgbcolor
stroke
246.429 490 moveto
7.79221 0 rlineto
1 setlinewidth
0.8 0.8 0.8 setrgbcolor
stroke
262.013 490 moveto
7.79221 0 rlineto
1 setlinewidth
0.8 0.8 0.8 setrgbcolor
stroke
277.597 490 moveto
7.79221 0 rlineto
1 setlinewidth
0.8 0.8 0.8 setrgbcolor
stroke
293.182 490 moveto
7.79221 0 rlineto
1 setlinewidth
0.8 0.8 0.8 setrgbcolor
stroke
308.766 490 moveto
7.79221 0 rlineto
1 setlinewidth
0.8 0.8 0.8 setrgbcolor
stroke
324.351 490 moveto
7.79221 0 rlineto
1 setlinewidth
0.8 0.8 0.8 setrgbcolor
stroke
339.935 490 moveto
7.79221 0 rlineto
1 setlinewidth
0.8 0.8 0.8 setrgbcolor
stroke
355.519 490 moveto
7.79221 0 rlineto
1 setlinewidth
0.8 0.8 0.8 setrgbcolor
stroke
371.104 490 moveto
7.79221 0 rlineto
1 setlinewidth
0.8 0.8 0.8 setrgbcolor
stroke
386.688 490 moveto
7.79221 0 rlineto
1 setlinewidth
0.8 0.8 0.8 setrgbcolor
stroke
402.273 490 moveto
7.79221 0 rlineto
1 setlinewidth
0.8 0.8 0.8 setrgbcolor
stroke
417.857 490 moveto
7.79221 0 rlineto
1 setlinewidth
0.8 0.8 0.8 setrgbcolor
stroke
433.442 490 moveto
7.79221 0 rlineto
1 setlinewidth
0.8 0.8 0.8 setrgbcolor
stroke
449.026 490 moveto
7.79221 0 rlineto
1 setlinewidth
0.8 0.8 0.8 setrgbcolor
stroke
464.61 490 moveto
7.79221 0 rlineto
1 setlinewidth
0.8 0.8 0.8 setrgbcolor
stroke
480.195 490 moveto
7.79221 0 rlineto
1 setlinewidth
0.8 0.8 0.8 setrgbcolor
stroke
495.779 490 moveto
7.79221 0 rlineto
1 setlinewidth
0.8 0.8 0.8 setrgbcolor
stroke
511.364 490 moveto
7.79221 0 rlineto
1 setlinewidth
0.8 0.8 0.8 setrgbcolor
stroke
526.948 490 moveto
7.79221 0 rlineto
1 setlinewidth
0.8 0.8 0.8 setrgbcolor
stroke
542.532 490 moveto
7.79221 0 rlineto
1 setlinewidth
0.8 0.8 0.8 setrgbcolor
stroke
558.117 490 moveto
7.79221 0 rlineto
1 setlinewidth
0.8 0.8 0.8 setrgbcolor
stroke
573.701 490 moveto
7.79221 0 rlineto
1 setlinewidth
0.8 0.8 0.8 setrgbcolor
stroke
589.286 490 moveto
7.79221 0 rlineto
1 setlinewidth
0.8 0.8 0.8 setrgbcolor
stroke
604.87 490 moveto
7.79221 0 rlineto
1 setlinewidth
0.8 0.8 0.8 setrgbcolor
stroke
620.455 490 moveto
7.79221 0 rlineto
1 setlinewidth
0.8 0.8 0.8 setrgbcolor
stroke
636.039 490 moveto
7.79221 0 rlineto
1 setlinewidth
0.8 0.8 0.8 setrgbcolor
stroke
651.623 490 moveto
7.79221 0 rlineto
1 setlinewidth
0.8 0.8 0.8 setrgbcolor
stroke
667.208 490 moveto
7.79221 0 rlineto
1 setlinewidth
0.8 0.8 0.8 setrgbcolor
stroke
75 540 moveto
75 540 moveto
7.79221 0 rlineto
1 setlinewidth
0.8 0.8 0.8 setrgbcolor
stroke
90.5844 540 moveto
7.79221 0 rlineto
1 setlinewidth
0.8 0.8 0.8 setrgbcolor
stroke
106.169 540 moveto
7.79221 0 rlineto
1 setlinewidth
0.8 0.8 0.8 setrgbcolor
stroke
121.753 540 moveto
7.79221 0 rlineto
1 setlinewidth
0.8 0.8 0.8 setrgbcolor
stroke
137.338 540 moveto
7.79221 0 rlineto
1 setlinewidth
0.8 0.8 0.8 setrgbcolor
stroke
152.922 540 moveto
7.79221 0 rlineto
1 setlinewidth
0.8 0.8 0.8 setrgbcolor
stroke
168.506 540 moveto
7.79221 0 rlineto
1 setlinewidth
0.8 0.8 0.8 setrgbcolor
stroke
184.091 540 moveto
7.79221 0 rlineto
1 setlinewidth
0.8 0.8 0.8 setrgbcolor
stroke
199.675 540 moveto
7.79221 0 rlineto
1 setlinewidth
0.8 0.8 0.8 setrgbcolor
stroke
215.26 540 moveto
7.79221 0 rlineto
1 setlinewidth
0.8 0.8 0.8 setrgbcolor
stroke
230.844 540 moveto
7.79221 0 rlineto
1 setlinewidth
0.8 0.8 0.8 setrgbcolor
stroke
246.429 540 moveto
7.79221 0 rlineto
1 setlinewidth
0.8 0.8 0.8 setrgbcolor
stroke
262.013 540 moveto
7.79221 0 rlineto
1 setlinewidth
0.8 0.8 0.8 setrgbcolor
stroke
277.597 540 moveto
7.79221 0 rlineto
1 setlinewidth
0.8 0.8 0.8 setrgbcolor
stroke
293.182 540 moveto
7.79221 0 rlineto
1 setlinewidth
0.8 0.8 0.8 setrgbcolor
stroke
308.766 540 moveto
7.79221 0 rlineto
1 setlinewidth
0.8 0.8 0.8 setrgbcolor
stroke
324.351 540 moveto
7.79221 0 rlineto
1 setlinewidth
0.8 0.8 0.8 setrgbcolor
stroke
339.935 540 moveto
7.79221 0 rlineto
1 setlinewidth
0.8 0.8 0.8 setrgbcolor
stroke
355.519 540 moveto
7.79221 0 rlineto
1 setlinewidth
0.8 0.8 0.8 setrgbcolor
stroke
371.104 540 moveto
7.79221 0 rlineto
1 setlinewidth
0.8 0.8 0.8 setrgbcolor
stroke
386.688 540 moveto
7.79221 0 rlineto
1 setlinewidth
0.8 0.8 0.8 setrgbcolor
stroke
402.273 540 moveto
7.79221 0 rlineto
1 setlinewidth
0.8 0.8 0.8 setrgbcolor
stroke
417.857 540 moveto
7.79221 0 rlineto
1 setlinewidth
0.8 0.8 0.8 setrgbcolor
stroke
433.442 540 moveto
7.79221 0 rlineto
1 setlinewidth
0.8 0.8 0.8 setrgbcolor
stroke
449.026 540 moveto
7.79221 0 rlineto
1 setlinewidth
0.8 0.8 0.8 setrgbcolor
stroke
464.61 540 moveto
7.79221 0 rlineto
1 setlinewidth
0.8 0.8 0.8 setrgbcolor
stroke
480.195 540 moveto
7.79221 0 rlineto
1 setlinewidth
0.8 0.8 0.8 setrgbcolor
stroke
495.779 540 moveto
7.79221 0 rlineto
1 setlinewidth
0.8 0.8 0.8 setrgbcolor
stroke
511.364 540 moveto
7.79221 0 rlineto
1 setlinewidth
0.8 0.8 0.8 setrgbcolor
stroke
526.948 540 moveto
7.79221 0 rlineto
1 setlinewidth
0.8 0.8 0.8 setrgbcolor
stroke
542.532 540 moveto
7.79221 0 rlineto
1 setlinewidth
0.8 0.8 0.8 setrgbcolor
stroke
558.117 540 moveto
7.79221 0 rlineto
1 setlinewidth
0.8 0.8 0.8 setrgbcolor
stroke
573.701 540 moveto
7.79221 0 rlineto
1 setlinewidth
0.8 0.8 0.8 setrgbcolor
stroke
589.286 540 moveto
7.79221 0 rlineto
1 setlinewidth
0.8 0.8 0.8 setrgbcolor
stroke
604.87 540 moveto
7.79221 0 rlineto
1 setlinewidth
0.8 0.8 0.8 setrgbcolor
stroke
620.455 540 moveto
7.79221 0 rlineto
1 setlinewidth
0.8 0.8 0.8 setrgbcolor
stroke
636.039 540 moveto
7.79221 0 rlineto
1 setlinewidth
0.8 0.8 0.8 setrgbcolor
stroke
651.623 540 moveto
7.79221 0 rlineto
1 setlinewidth
0.8 0.8 0.8 setrgbcolor
stroke
667.208 540 moveto
7.79221 0 rlineto
1 setlinewidth
0.8 0.8 0.8 setrgbcolor
stroke
75 590 moveto
75 590 moveto
7.79221 0 rlineto
1 setlinewidth
0.8 0.8 0.8 setrgbcolor
stroke
90.5844 590 moveto
7.79221 0 rlineto
1 setlinewidth
0.8 0.8 0.8 setrgbcolor
stroke
106.169 590 moveto
7.79221 0 rlineto
1 setlinewidth
0.8 0.8 0.8 setrgbcolor
stroke
121.753 590 moveto
7.79221 0 rlineto
1 setlinewidth
0.8 0.8 0.8 setrgbcolor
stroke
137.338 590 moveto
7.79221 0 rlineto
1 setlinewidth
0.8 0.8 0.8 setrgbcolor
stroke
152.922 590 moveto
7.79221 0 rlineto
1 setlinewidth
0.8 0.8 0.8 setrgbcolor
stroke
168.506 590 moveto
7.79221 0 rlineto
1 setlinewidth
0.8 0.8 0.8 setrgbcolor
stroke
184.091 590 moveto
7.79221 0 rlineto
1 setlinewidth
0.8 0.8 0.8 setrgbcolor
stroke
199.675 590 moveto
7.79221 0 rlineto
1 setlinewidth
0.8 0.8 0.8 setrgbcolor
stroke
215.26 590 moveto
7.79221 0 rlineto
1 setlinewidth
0.8 0.8 0.8 setrgbcolor
stroke
230.844 590 moveto
7.79221 0 rlineto
1 setlinewidth
0.8 0.8 0.8 setrgbcolor
stroke
246.429 590 moveto
7.79221 0 rlineto
1 setlinewidth
0.8 0.8 0.8 setrgbcolor
stroke
262.013 590 moveto
7.79221 0 rlineto
1 setlinewidth
0.8 0.8 0.8 setrgbcolor
stroke
277.597 590 moveto
7.79221 0 rlineto
1 setlinewidth
0.8 0.8 0.8 setrgbcolor
stroke
293.182 590 moveto
7.79221 0 rlineto
1 setlinewidth
0.8 0.8 0.8 setrgbcolor
stroke
308.766 590 moveto
7.79221 0 rlineto
1 setlinewidth
0.8 0.8 0.8 setrgbcolor
stroke
324.351 590 moveto
7.79221 0 rlineto
1 setlinewidth
0.8 0.8 0.8 setrgbcolor
stroke
339.935 590 moveto
7.79221 0 rlineto
1 setlinewidth
0.8 0.8 0.8 setrgbcolor
stroke
355.519 590 moveto
7.79221 0 rlineto
1 setlinewidth
0.8 0.8 0.8 setrgbcolor
stroke
371.104 590 moveto
7.79221 0 rlineto
1 setlinewidth
0.8 0.8 0.8 setrgbcolor
stroke
386.688 590 moveto
7.79221 0 rlineto
1 setlinewidth
0.8 0.8 0.8 setrgbcolor
stroke
402.273 590 moveto
7.79221 0 rlineto
1 setlinewidth
0.8 0.8 0.8 setrgbcolor
stroke
417.857 590 moveto
7.79221 0 rlineto
1 setlinewidth
0.8 0.8 0.8 setrgbcolor
stroke
433.442 590 moveto
7.79221 0 rlineto
1 setlinewidth
0.8 0.8 0.8 setrgbcolor
stroke
449.026 590 moveto
7.79221 0 rlineto
1 setlinewidth
0.8 0.8 0.8 setrgbcolor
stroke
464.61 590 moveto
7.79221 0 rlineto
1 setlinewidth
0.8 0.8 0.8 setrgbcolor
stroke
480.195 590 moveto
7.79221 0 rlineto
1 setlinewidth
0.8 0.8 0.8 setrgbcolor
stroke
495.779 590 moveto
7.79221 0 rlineto
1 setlinewidth
0.8 0.8 0.8 setrgbcolor
stroke
511.364 590 moveto
7.79221 0 rlineto
1 setlinewidth
0.8 0.8 0.8 setrgbcolor
stroke
526.948 590 moveto
7.79221 0 rlineto
1 setlinewidth
0.8 0.8 0.8 setrgbcolor
stroke
542.532 590 moveto
7.79221 0 rlineto
1 setlinewidth
0.8 0.8 0.8 setrgbcolor
stroke
558.117 590 moveto
7.79221 0 rlineto
1 setlinewidth
0.8 0.8 0.8 setrgbcolor
stroke
573.701 590 moveto
7.79221 0 rlineto
1 setlinewidth
0.8 0.8 0.8 setrgbcolor
stroke
589.286 590 moveto
7.79221 0 rlineto
1 setlinewidth
0.8 0.8 0.8 setrgbcolor
stroke
604.87 590 moveto
7.79221 0 rlineto
1 setlinewidth
0.8 0.8 0.8 setrgbcolor
stroke
620.455 590 moveto
7.79221 0 rlineto
1 setlinewidth
0.8 0.8 0.8 setrgbcolor
stroke
636.039 590 moveto
7.79221 0 rlineto
1 setlinewidth
0.8 0.8 0.8 setrgbcolor
stroke
651.623 590 moveto
7.79221 0 rlineto
1 setlinewidth
0.8 0.8 0.8 setrgbcolor
stroke
667.208 590 moveto
7.79221 0 rlineto
1 setlinewidth
0.8 0.8 0.8 setrgbcolor
stroke
newpath
75 90 moveto
600 0 rlineto
0 500 rlineto
-600 0 rlineto
closepath
1 setlinewidth
0 0 0 setrgbcolor
stroke
/Times findfont
16 scalefont
setfont
375 600 moveto
0 0 0 setrgbcolor
(Nr of picked particles for all micrographs) dup stringwidth pop 2 div neg 0 rmoveto show
75 90 moveto
0 7.81025 rlineto
1 setlinewidth
0 0 0 setrgbcolor
stroke
195 90 moveto
0 7.81025 rlineto
1 setlinewidth
0 0 0 setrgbcolor
stroke
315 90 moveto
0 7.81025 rlineto
1 setlinewidth
0 0 0 setrgbcolor
stroke
435 90 moveto
0 7.81025 rlineto
1 setlinewidth
0 0 0 setrgbcolor
stroke
555 90 moveto
0 7.81025 rlineto
1 setlinewidth
0 0 0 setrgbcolor
stroke
675 90 moveto
0 7.81025 rlineto
1 setlinewidth
0 0 0 setrgbcolor
stroke
75 90 moveto
7.81025 0 rlineto
1 setlinewidth
0 0 0 setrgbcolor
stroke
75 140 moveto
7.81025 0 rlineto
1 setlinewidth
0 0 0 setrgbcolor
stroke
75 190 moveto
7.81025 0 rlineto
1 setlinewidth
0 0 0 setrgbcolor
stroke
75 240 moveto
7.81025 0 rlineto
1 setlinewidth
0 0 0 setrgbcolor
stroke
75 290 moveto
7.81025 0 rlineto
1 setlinewidth
0 0 0 setrgbcolor
stroke
75 340 moveto
7.81025 0 rlineto
1 setlinewidth
0 0 0 setrgbcolor
stroke
75 390 moveto
7.81025 0 rlineto
1 setlinewidth
0 0 0 setrgbcolor
stroke
75 440 moveto
7.81025 0 rlineto
1 setlinewidth
0 0 0 setrgbcolor
stroke
75 490 moveto
7.81025 0 rlineto
1 setlinewidth
0 0 0 setrgbcolor
stroke
75 540 moveto
7.81025 0 rlineto
1 setlinewidth
0 0 0 setrgbcolor
stroke
75 590 moveto
7.81025 0 rlineto
1 setlinewidth
0 0 0 setrgbcolor
stroke
/Times findfont
12 scalefont
setfont
75 75 moveto
0 0 0 setrgbcolor
(0) dup stringwidth pop 2 div neg 0 rmoveto show
/Times findfont
12 scalefont
setfont
195 75 moveto
0 0 0 setrgbcolor
(5) dup stringwidth pop 2 div neg 0 rmoveto show
/Times findfont
12 scalefont
setfont
315 75 moveto
0 0 0 setrgbcolor
(10) dup stringwidth pop 2 div neg 0 rmoveto show
/Times findfont
12 scalefont
setfont
435 75 moveto
0 0 0 setrgbcolor
(15) dup stringwidth pop 2 div neg 0 rmoveto show
/Times findfont
12 scalefont
setfont
555 75 moveto
0 0 0 setrgbcolor
(20) dup stringwidth pop 2 div neg 0 rmoveto show
/Times findfont
12 scalefont
setfont
675 75 moveto
0 0 0 setrgbcolor
(25) dup stringwidth pop 2 div neg 0 rmoveto show
/Times findfont
12 scalefont
setfont
69 87 moveto
0 0 0 setrgbcolor
(350) dup stringwidth pop neg 0 rmoveto show
/Times findfont
12 scalefont
setfont
69 137 moveto
0 0 0 setrgbcolor
(360) dup stringwidth pop neg 0 rmoveto show
/Times findfont
12 scalefont
setfont
69 187 moveto
0 0 0 setrgbcolor
(370) dup stringwidth pop neg 0 rmoveto show
/Times findfont
12 scalefont
setfont
69 237 moveto
0 0 0 setrgbcolor
(380) dup stringwidth pop neg 0 rmoveto show
/Times findfont
12 scalefont
setfont
69 287 moveto
0 0 0 setrgbcolor
(390) dup stringwidth pop neg 0 rmoveto show
/Times findfont
12 scalefont
setfont
69 337 moveto
0 0 0 setrgbcolor
(400) dup stringwidth pop neg 0 rmoveto show
/Times findfont
12 scalefont
setfont
69 387 moveto
0 0 0 setrgbcolor
(410) dup stringwidth pop neg 0 rmoveto show
/Times findfont
12 scalefont
setfont
69 437 moveto
0 0 0 setrgbcolor
(420) dup stringwidth pop neg 0 rmoveto show
/Times findfont
12 scalefont
setfont
69 487 moveto
0 0 0 setrgbcolor
(430) dup stringwidth pop neg 0 rmoveto show
/Times findfont
12 scalefont
setfont
69 537 moveto
0 0 0 setrgbcolor
(440) dup stringwidth pop neg 0 rmoveto show
/Times findfont
12 scalefont
setfont
69 587 moveto
0 0 0 setrgbcolor
(450) dup stringwidth pop neg 0 rmoveto show
/Times findfont
16 scalefont
setfont
375 58 moveto
0 0 0 setrgbcolor
() dup stringwidth pop 2 div neg 0 rmoveto show
/Times findfont
16 scalefont
setfont
26 340 moveto
90 rotate
0 0 0 setrgbcolor
(rlnGroupNrParticles) dup stringwidth pop 2 div neg 0 rmoveto show
-90 rotate
newpath
99 450 moveto
123 400 lineto
147 325 lineto
171 350 lineto
195 365 lineto
219 380 lineto
243 310 lineto
267 315 lineto
291 390 lineto
315 570 lineto
339 530 lineto
363 165 lineto
387 240 lineto
411 95 lineto
435 165 lineto
459 340 lineto
483 460 lineto
507 555 lineto
531 130 lineto
555 215 lineto
579 175 lineto
603 210 lineto
627 175 lineto
651 260 lineto
1 setlinewidth
1 0 0 setrgbcolor
stroke
