%!PS-Adobe-2.0 EPSF-1.2
%%BoundingBox: 0 0 715 630
%%Pages: 1
%%EndComments
75 90 moveto
75 90 moveto
0 7.69231 rlineto
1 setlinewidth
0.8 0.8 0.8 setrgbcolor
stroke
75 105.385 moveto
0 7.69231 rlineto
1 setlinewidth
0.8 0.8 0.8 setrgbcolor
stroke
75 120.769 moveto
0 7.69231 rlineto
1 setlinewidth
0.8 0.8 0.8 setrgbcolor
stroke
75 136.154 moveto
0 7.69231 rlineto
1 setlinewidth
0.8 0.8 0.8 setrgbcolor
stroke
75 151.538 moveto
0 7.69231 rlineto
1 setlinewidth
0.8 0.8 0.8 setrgbcolor
stroke
75 166.923 moveto
0 7.69231 rlineto
1 setlinewidth
0.8 0.8 0.8 setrgbcolor
stroke
75 182.308 moveto
0 7.69231 rlineto
1 setlinewidth
0.8 0.8 0.8 setrgbcolor
stroke
75 197.692 moveto
0 7.69231 rlineto
1 setlinewidth
0.8 0.8 0.8 setrgbcolor
stroke
75 213.077 moveto
0 7.69231 rlineto
1 setlinewidth
0.8 0.8 0.8 setrgbcolor
stroke
75 228.462 moveto
0 7.69231 rlineto
1 setlinewidth
0.8 0.8 0.8 setrgbcolor
stroke
75 243.846 moveto
0 7.69231 rlineto
1 setlinewidth
0.8 0.8 0.8 setrgbcolor
stroke
75 259.231 moveto
0 7.69231 rlineto
1 setlinewidth
0.8 0.8 0.8 setrgbcolor
stroke
75 274.615 moveto
0 7.69231 rlineto
1 setlinewidth
0.8 0.8 0.8 setrgbcolor
stroke
75 290 moveto
0 7.69231 rlineto
1 setlinewidth
0.8 0.8 0.8 setrgbcolor
stroke
75 305.385 moveto
0 7.69231 rlineto
1 setlinewidth
0.8 0.8 0.8 setrgbcolor
stroke
75 320.769 moveto
0 7.69231 rlineto
1 setlinewidth
0.8 0.8 0.8 setrgbcolor
stroke
75 336.154 moveto
0 7.69231 rlineto
1 setlinewidth
0.8 0.8 0.8 setrgbcolor
stroke
75 351.538 moveto
0 7.69231 rlineto
1 setlinewidth
0.8 0.8 0.8 setrgbcolor
stroke
75 366.923 moveto
0 7.69231 rlineto
1 setlinewidth
0.8 0.8 0.8 setrgbcolor
stroke
75 382.308 moveto
0 7.69231 rlineto
1 setlinewidth
0.8 0.8 0.8 setrgbcolor
stroke
75 397.692 moveto
0 7.69231 rlineto
1 setlinewidth
0.8 0.8 0.8 setrgbcolor
stroke
75 413.077 moveto
0 7.69231 rlineto
1 setlinewidth
0.8 0.8 0.8 setrgbcolor
stroke
75 428.462 moveto
0 7.69231 rlineto
1 setlinewidth
0.8 0.8 0.8 setrgbcolor
stroke
75 443.846 moveto
0 7.69231 rlineto
1 setlinewidth
0.8 0.8 0.8 setrgbcolor
stroke
75 459.231 moveto
0 7.69231 rlineto
1 setlinewidth
0.8 0.8 0.8 setrgbcolor
stroke
75 474.615 moveto
0 7.69231 rlineto
1 setlinewidth
0.8 0.8 0.8 setrgbcolor
stroke
75 490 moveto
0 7.69231 rlineto
1 setlinewidth
0.8 0.8 0.8 setrgbcolor
stroke
75 505.385 moveto
0 7.69231 rlineto
1 setlinewidth
0.8 0.8 0.8 setrgbcolor
stroke
75 520.769 moveto
0 7.69231 rlineto
1 setlinewidth
0.8 0.8 0.8 setrgbcolor
stroke
75 536.154 moveto
0 7.69231 rlineto
1 setlinewidth
0.8 0.8 0.8 setrgbcolor
stroke
75 551.538 moveto
0 7.69231 rlineto
1 setlinewidth
0.8 0.8 0.8 setrgbcolor
stroke
75 566.923 moveto
0 7.69231 rlineto
1 setlinewidth
0.8 0.8 0.8 setrgbcolor
stroke
75 582.308 moveto
0 7.69231 rlineto
1 setlinewidth
0.8 0.8 0.8 setrgbcolor
stroke
141.667 90 moveto
141.667 90 moveto
0 7.69231 rlineto
1 setlinewidth
0.8 0.8 0.8 setrgbcolor
stroke
141.667 105.385 moveto
0 7.69231 rlineto
1 setlinewidth
0.8 0.8 0.8 setrgbcolor
stroke
141.667 120.769 moveto
0 7.69231 rlineto
1 setlinewidth
0.8 0.8 0.8 setrgbcolor
stroke
141.667 136.154 moveto
0 7.69231 rlineto
1 setlinewidth
0.8 0.8 0.8 setrgbcolor
stroke
141.667 151.538 moveto
0 7.69231 rlineto
1 setlinewidth
0.8 0.8 0.8 setrgbcolor
stroke
141.667 166.923 moveto
0 7.69231 rlineto
1 setlinewidth
0.8 0.8 0.8 setrgbcolor
stroke
141.667 182.308 moveto
0 7.69231 rlineto
1 setlinewidth
0.8 0.8 0.8 setrgbcolor
stroke
141.667 197.692 moveto
0 7.69231 rlineto
1 setlinewidth
0.8 0.8 0.8 setrgbcolor
stroke
141.667 213.077 moveto
0 7.69231 rlineto
1 setlinewidth
0.8 0.8 0.8 setrgbcolor
stroke
141.667 228.462 moveto
0 7.69231 rlineto
1 setlinewidth
0.8 0.8 0.8 setrgbcolor
stroke
141.667 243.846 moveto
0 7.69231 rlineto
1 setlinewidth
0.8 0.8 0.8 setrgbcolor
stroke
141.667 259.231 moveto
0 7.69231 rlineto
1 setlinewidth
0.8 0.8 0.8 setrgbcolor
stroke
141.667 274.615 moveto
0 7.69231 rlineto
1 setlinewidth
0.8 0.8 0.8 setrgbcolor
stroke
141.667 290 moveto
0 7.69231 rlineto
1 setlinewidth
0.8 0.8 0.8 setrgbcolor
stroke
141.667 305.385 moveto
0 7.69231 rlineto
1 setlinewidth
0.8 0.8 0.8 setrgbcolor
stroke
141.667 320.769 moveto
0 7.69231 rlineto
1 setlinewidth
0.8 0.8 0.8 setrgbcolor
stroke
141.667 336.154 moveto
0 7.69231 rlineto
1 setlinewidth
0.8 0.8 0.8 setrgbcolor
stroke
141.667 351.538 moveto
0 7.69231 rlineto
1 setlinewidth
0.8 0.8 0.8 setrgbcolor
stroke
141.667 366.923 moveto
0 7.69231 rlineto
1 setlinewidth
0.8 0.8 0.8 setrgbcolor
stroke
141.667 382.308 moveto
0 7.69231 rlineto
1 setlinewidth
0.8 0.8 0.8 setrgbcolor
stroke
141.667 397.692 moveto
0 7.69231 rlineto
1 setlinewidth
0.8 0.8 0.8 setrgbcolor
stroke
141.667 413.077 moveto
0 7.69231 rlineto
1 setlinewidth
0.8 0.8 0.8 setrgbcolor
stroke
141.667 428.462 moveto
0 7.69231 rlineto
1 setlinewidth
0.8 0.8 0.8 setrgbcolor
stroke
141.667 443.846 moveto
0 7.69231 rlineto
1 setlinewidth
0.8 0.8 0.8 setrgbcolor
stroke
141.667 459.231 moveto
0 7.69231 rlineto
1 setlinewidth
0.8 0.8 0.8 setrgbcolor
stroke
141.667 474.615 moveto
0 7.69231 rlineto
1 setlinewidth
0.8 0.8 0.8 setrgbcolor
stroke
141.667 490 moveto
0 7.69231 rlineto
1 setlinewidth
0.8 0.8 0.8 setrgbcolor
stroke
141.667 505.385 moveto
0 7.69231 rlineto
1 setlinewidth
0.8 0.8 0.8 setrgbcolor
stroke
141.667 520.769 moveto
0 7.69231 rlineto
1 setlinewidth
0.8 0.8 0.8 setrgbcolor
stroke
141.667 536.154 moveto
0 7.69231 rlineto
1 setlinewidth
0.8 0.8 0.8 setrgbcolor
stroke
141.667 551.538 moveto
0 7.69231 rlineto
1 setlinewidth
0.8 0.8 0.8 setrgbcolor
stroke
141.667 566.923 moveto
0 7.69231 rlineto
1 setlinewidth
0.8 0.8 0.8 setrgbcolor
stroke
141.667 582.308 moveto
0 7.69231 rlineto
1 setlinewidth
0.8 0.8 0.8 setrgbcolor
stroke
208.333 90 moveto
208.333 90 moveto
0 7.69231 rlineto
1 setlinewidth
0.8 0.8 0.8 setrgbcolor
stroke
208.333 105.385 moveto
0 7.69231 rlineto
1 setlinewidth
0.8 0.8 0.8 setrgbcolor
stroke
208.333 120.769 moveto
0 7.69231 rlineto
1 setlinewidth
0.8 0.8 0.8 setrgbcolor
stroke
208.333 136.154 moveto
0 7.69231 rlineto
1 setlinewidth
0.8 0.8 0.8 setrgbcolor
stroke
208.333 151.538 moveto
0 7.69231 rlineto
1 setlinewidth
0.8 0.8 0.8 setrgbcolor
stroke
208.333 166.923 moveto
0 7.69231 rlineto
1 setlinewidth
0.8 0.8 0.8 setrgbcolor
stroke
208.333 182.308 moveto
0 7.69231 rlineto
1 setlinewidth
0.8 0.8 0.8 setrgbcolor
stroke
208.333 197.692 moveto
0 7.69231 rlineto
1 setlinewidth
0.8 0.8 0.8 setrgbcolor
stroke
208.333 213.077 moveto
0 7.69231 rlineto
1 setlinewidth
0.8 0.8 0.8 setrgbcolor
stroke
208.333 228.462 moveto
0 7.69231 rlineto
1 setlinewidth
0.8 0.8 0.8 setrgbcolor
stroke
208.333 243.846 moveto
0 7.69231 rlineto
1 setlinewidth
0.8 0.8 0.8 setrgbcolor
stroke
208.333 259.231 moveto
0 7.69231 rlineto
1 setlinewidth
0.8 0.8 0.8 setrgbcolor
stroke
208.333 274.615 moveto
0 7.69231 rlineto
1 setlinewidth
0.8 0.8 0.8 setrgbcolor
stroke
208.333 290 moveto
0 7.69231 rlineto
1 setlinewidth
0.8 0.8 0.8 setrgbcolor
stroke
208.333 305.385 moveto
0 7.69231 rlineto
1 setlinewidth
0.8 0.8 0.8 setrgbcolor
stroke
208.333 320.769 moveto
0 7.69231 rlineto
1 setlinewidth
0.8 0.8 0.8 setrgbcolor
stroke
208.333 336.154 moveto
0 7.69231 rlineto
1 setlinewidth
0.8 0.8 0.8 setrgbcolor
stroke
208.333 351.538 moveto
0 7.69231 rlineto
1 setlinewidth
0.8 0.8 0.8 setrgbcolor
stroke
208.333 366.923 moveto
0 7.69231 rlineto
1 setlinewidth
0.8 0.8 0.8 setrgbcolor
stroke
208.333 382.308 moveto
0 7.69231 rlineto
1 setlinewidth
0.8 0.8 0.8 setrgbcolor
stroke
208.333 397.692 moveto
0 7.69231 rlineto
1 setlinewidth
0.8 0.8 0.8 setrgbcolor
stroke
208.333 413.077 moveto
0 7.69231 rlineto
1 setlinewidth
0.8 0.8 0.8 setrgbcolor
stroke
208.333 428.462 moveto
0 7.69231 rlineto
1 setlinewidth
0.8 0.8 0.8 setrgbcolor
stroke
208.333 443.846 moveto
0 7.69231 rlineto
1 setlinewidth
0.8 0.8 0.8 setrgbcolor
stroke
208.333 459.231 moveto
0 7.69231 rlineto
1 setlinewidth
0.8 0.8 0.8 setrgbcolor
stroke
208.333 474.615 moveto
0 7.69231 rlineto
1 setlinewidth
0.8 0.8 0.8 setrgbcolor
stroke
208.333 490 moveto
0 7.69231 rlineto
1 setlinewidth
0.8 0.8 0.8 setrgbcolor
stroke
208.333 505.385 moveto
0 7.69231 rlineto
1 setlinewidth
0.8 0.8 0.8 setrgbcolor
stroke
208.333 520.769 moveto
0 7.69231 rlineto
1 setlinewidth
0.8 0.8 0.8 setrgbcolor
stroke
208.333 536.154 moveto
0 7.69231 rlineto
1 setlinewidth
0.8 0.8 0.8 setrgbcolor
stroke
208.333 551.538 moveto
0 7.69231 rlineto
1 setlinewidth
0.8 0.8 0.8 setrgbcolor
stroke
208.333 566.923 moveto
0 7.69231 rlineto
1 setlinewidth
0.8 0.8 0.8 setrgbcolor
stroke
208.333 582.308 moveto
0 7.69231 rlineto
1 setlinewidth
0.8 0.8 0.8 setrgbcolor
stroke
275 90 moveto
275 90 moveto
0 7.69231 rlineto
1 setlinewidth
0.8 0.8 0.8 setrgbcolor
stroke
275 105.385 moveto
0 7.69231 rlineto
1 setlinewidth
0.8 0.8 0.8 setrgbcolor
stroke
275 120.769 moveto
0 7.69231 rlineto
1 setlinewidth
0.8 0.8 0.8 setrgbcolor
stroke
275 136.154 moveto
0 7.69231 rlineto
1 setlinewidth
0.8 0.8 0.8 setrgbcolor
stroke
275 151.538 moveto
0 7.69231 rlineto
1 setlinewidth
0.8 0.8 0.8 setrgbcolor
stroke
275 166.923 moveto
0 7.69231 rlineto
1 setlinewidth
0.8 0.8 0.8 setrgbcolor
stroke
275 182.308 moveto
0 7.69231 rlineto
1 setlinewidth
0.8 0.8 0.8 setrgbcolor
stroke
275 197.692 moveto
0 7.69231 rlineto
1 setlinewidth
0.8 0.8 0.8 setrgbcolor
stroke
275 213.077 moveto
0 7.69231 rlineto
1 setlinewidth
0.8 0.8 0.8 setrgbcolor
stroke
275 228.462 moveto
0 7.69231 rlineto
1 setlinewidth
0.8 0.8 0.8 setrgbcolor
stroke
275 243.846 moveto
0 7.69231 rlineto
1 setlinewidth
0.8 0.8 0.8 setrgbcolor
stroke
275 259.231 moveto
0 7.69231 rlineto
1 setlinewidth
0.8 0.8 0.8 setrgbcolor
stroke
275 274.615 moveto
0 7.69231 rlineto
1 setlinewidth
0.8 0.8 0.8 setrgbcolor
stroke
275 290 moveto
0 7.69231 rlineto
1 setlinewidth
0.8 0.8 0.8 setrgbcolor
stroke
275 305.385 moveto
0 7.69231 rlineto
1 setlinewidth
0.8 0.8 0.8 setrgbcolor
stroke
275 320.769 moveto
0 7.69231 rlineto
1 setlinewidth
0.8 0.8 0.8 setrgbcolor
stroke
275 336.154 moveto
0 7.69231 rlineto
1 setlinewidth
0.8 0.8 0.8 setrgbcolor
stroke
275 351.538 moveto
0 7.69231 rlineto
1 setlinewidth
0.8 0.8 0.8 setrgbcolor
stroke
275 366.923 moveto
0 7.69231 rlineto
1 setlinewidth
0.8 0.8 0.8 setrgbcolor
stroke
275 382.308 moveto
0 7.69231 rlineto
1 setlinewidth
0.8 0.8 0.8 setrgbcolor
stroke
275 397.692 moveto
0 7.69231 rlineto
1 setlinewidth
0.8 0.8 0.8 setrgbcolor
stroke
275 413.077 moveto
0 7.69231 rlineto
1 setlinewidth
0.8 0.8 0.8 setrgbcolor
stroke
275 428.462 moveto
0 7.69231 rlineto
1 setlinewidth
0.8 0.8 0.8 setrgbcolor
stroke
275 443.846 moveto
0 7.69231 rlineto
1 setlinewidth
0.8 0.8 0.8 setrgbcolor
stroke
275 459.231 moveto
0 7.69231 rlineto
1 setlinewidth
0.8 0.8 0.8 setrgbcolor
stroke
275 474.615 moveto
0 7.69231 rlineto
1 setlinewidth
0.8 0.8 0.8 setrgbcolor
stroke
275 490 moveto
0 7.69231 rlineto
1 setlinewidth
0.8 0.8 0.8 setrgbcolor
stroke
275 505.385 moveto
0 7.69231 rlineto
1 setlinewidth
0.8 0.8 0.8 setrgbcolor
stroke
275 520.769 moveto
0 7.69231 rlineto
1 setlinewidth
0.8 0.8 0.8 setrgbcolor
stroke
275 536.154 moveto
0 7.69231 rlineto
1 setlinewidth
0.8 0.8 0.8 setrgbcolor
stroke
275 551.538 moveto
0 7.69231 rlineto
1 setlinewidth
0.8 0.8 0.8 setrgbcolor
stroke
275 566.923 moveto
0 7.69231 rlineto
1 setlinewidth
0.8 0.8 0.8 setrgbcolor
stroke
275 582.308 moveto
0 7.69231 rlineto
1 setlinewidth
0.8 0.8 0.8 setrgbcolor
stroke
341.667 90 moveto
341.667 90 moveto
0 7.69231 rlineto
1 setlinewidth
0.8 0.8 0.8 setrgbcolor
stroke
341.667 105.385 moveto
0 7.69231 rlineto
1 setlinewidth
0.8 0.8 0.8 setrgbcolor
stroke
341.667 120.769 moveto
0 7.69231 rlineto
1 setlinewidth
0.8 0.8 0.8 setrgbcolor
stroke
341.667 136.154 moveto
0 7.69231 rlineto
1 setlinewidth
0.8 0.8 0.8 setrgbcolor
stroke
341.667 151.538 moveto
0 7.69231 rlineto
1 setlinewidth
0.8 0.8 0.8 setrgbcolor
stroke
341.667 166.923 moveto
0 7.69231 rlineto
1 setlinewidth
0.8 0.8 0.8 setrgbcolor
stroke
341.667 182.308 moveto
0 7.69231 rlineto
1 setlinewidth
0.8 0.8 0.8 setrgbcolor
stroke
341.667 197.692 moveto
0 7.69231 rlineto
1 setlinewidth
0.8 0.8 0.8 setrgbcolor
stroke
341.667 213.077 moveto
0 7.69231 rlineto
1 setlinewidth
0.8 0.8 0.8 setrgbcolor
stroke
341.667 228.462 moveto
0 7.69231 rlineto
1 setlinewidth
0.8 0.8 0.8 setrgbcolor
stroke
341.667 243.846 moveto
0 7.69231 rlineto
1 setlinewidth
0.8 0.8 0.8 setrgbcolor
stroke
341.667 259.231 moveto
0 7.69231 rlineto
1 setlinewidth
0.8 0.8 0.8 setrgbcolor
stroke
341.667 274.615 moveto
0 7.69231 rlineto
1 setlinewidth
0.8 0.8 0.8 setrgbcolor
stroke
341.667 290 moveto
0 7.69231 rlineto
1 setlinewidth
0.8 0.8 0.8 setrgbcolor
stroke
341.667 305.385 moveto
0 7.69231 rlineto
1 setlinewidth
0.8 0.8 0.8 setrgbcolor
stroke
341.667 320.769 moveto
0 7.69231 rlineto
1 setlinewidth
0.8 0.8 0.8 setrgbcolor
stroke
341.667 336.154 moveto
0 7.69231 rlineto
1 setlinewidth
0.8 0.8 0.8 setrgbcolor
stroke
341.667 351.538 moveto
0 7.69231 rlineto
1 setlinewidth
0.8 0.8 0.8 setrgbcolor
stroke
341.667 366.923 moveto
0 7.69231 rlineto
1 setlinewidth
0.8 0.8 0.8 setrgbcolor
stroke
341.667 382.308 moveto
0 7.69231 rlineto
1 setlinewidth
0.8 0.8 0.8 setrgbcolor
stroke
341.667 397.692 moveto
0 7.69231 rlineto
1 setlinewidth
0.8 0.8 0.8 setrgbcolor
stroke
341.667 413.077 moveto
0 7.69231 rlineto
1 setlinewidth
0.8 0.8 0.8 setrgbcolor
stroke
341.667 428.462 moveto
0 7.69231 rlineto
1 setlinewidth
0.8 0.8 0.8 setrgbcolor
stroke
341.667 443.846 moveto
0 7.69231 rlineto
1 setlinewidth
0.8 0.8 0.8 setrgbcolor
stroke
341.667 459.231 moveto
0 7.69231 rlineto
1 setlinewidth
0.8 0.8 0.8 setrgbcolor
stroke
341.667 474.615 moveto
0 7.69231 rlineto
1 setlinewidth
0.8 0.8 0.8 setrgbcolor
stroke
341.667 490 moveto
0 7.69231 rlineto
1 setlinewidth
0.8 0.8 0.8 setrgbcolor
stroke
341.667 505.385 moveto
0 7.69231 rlineto
1 setlinewidth
0.8 0.8 0.8 setrgbcolor
stroke
341.667 520.769 moveto
0 7.69231 rlineto
1 setlinewidth
0.8 0.8 0.8 setrgbcolor
stroke
341.667 536.154 moveto
0 7.69231 rlineto
1 setlinewidth
0.8 0.8 0.8 setrgbcolor
stroke
341.667 551.538 moveto
0 7.69231 rlineto
1 setlinewidth
0.8 0.8 0.8 setrgbcolor
stroke
341.667 566.923 moveto
0 7.69231 rlineto
1 setlinewidth
0.8 0.8 0.8 setrgbcolor
stroke
341.667 582.308 moveto
0 7.69231 rlineto
1 setlinewidth
0.8 0.8 0.8 setrgbcolor
stroke
408.333 90 moveto
408.333 90 moveto
0 7.69231 rlineto
1 setlinewidth
0.8 0.8 0.8 setrgbcolor
stroke
408.333 105.385 moveto
0 7.69231 rlineto
1 setlinewidth
0.8 0.8 0.8 setrgbcolor
stroke
408.333 120.769 moveto
0 7.69231 rlineto
1 setlinewidth
0.8 0.8 0.8 setrgbcolor
stroke
408.333 136.154 moveto
0 7.69231 rlineto
1 setlinewidth
0.8 0.8 0.8 setrgbcolor
stroke
408.333 151.538 moveto
0 7.69231 rlineto
1 setlinewidth
0.8 0.8 0.8 setrgbcolor
stroke
408.333 166.923 moveto
0 7.69231 rlineto
1 setlinewidth
0.8 0.8 0.8 setrgbcolor
stroke
408.333 182.308 moveto
0 7.69231 rlineto
1 setlinewidth
0.8 0.8 0.8 setrgbcolor
stroke
408.333 197.692 moveto
0 7.69231 rlineto
1 setlinewidth
0.8 0.8 0.8 setrgbcolor
stroke
408.333 213.077 moveto
0 7.69231 rlineto
1 setlinewidth
0.8 0.8 0.8 setrgbcolor
stroke
408.333 228.462 moveto
0 7.69231 rlineto
1 setlinewidth
0.8 0.8 0.8 setrgbcolor
stroke
408.333 243.846 moveto
0 7.69231 rlineto
1 setlinewidth
0.8 0.8 0.8 setrgbcolor
stroke
408.333 259.231 moveto
0 7.69231 rlineto
1 setlinewidth
0.8 0.8 0.8 setrgbcolor
stroke
408.333 274.615 moveto
0 7.69231 rlineto
1 setlinewidth
0.8 0.8 0.8 setrgbcolor
stroke
408.333 290 moveto
0 7.69231 rlineto
1 setlinewidth
0.8 0.8 0.8 setrgbcolor
stroke
408.333 305.385 moveto
0 7.69231 rlineto
1 setlinewidth
0.8 0.8 0.8 setrgbcolor
stroke
408.333 320.769 moveto
0 7.69231 rlineto
1 setlinewidth
0.8 0.8 0.8 setrgbcolor
stroke
408.333 336.154 moveto
0 7.69231 rlineto
1 setlinewidth
0.8 0.8 0.8 setrgbcolor
stroke
408.333 351.538 moveto
0 7.69231 rlineto
1 setlinewidth
0.8 0.8 0.8 setrgbcolor
stroke
408.333 366.923 moveto
0 7.69231 rlineto
1 setlinewidth
0.8 0.8 0.8 setrgbcolor
stroke
408.333 382.308 moveto
0 7.69231 rlineto
1 setlinewidth
0.8 0.8 0.8 setrgbcolor
stroke
408.333 397.692 moveto
0 7.69231 rlineto
1 setlinewidth
0.8 0.8 0.8 setrgbcolor
stroke
408.333 413.077 moveto
0 7.69231 rlineto
1 setlinewidth
0.8 0.8 0.8 setrgbcolor
stroke
408.333 428.462 moveto
0 7.69231 rlineto
1 setlinewidth
0.8 0.8 0.8 setrgbcolor
stroke
408.333 443.846 moveto
0 7.69231 rlineto
1 setlinewidth
0.8 0.8 0.8 setrgbcolor
stroke
408.333 459.231 moveto
0 7.69231 rlineto
1 setlinewidth
0.8 0.8 0.8 setrgbcolor
stroke
408.333 474.615 moveto
0 7.69231 rlineto
1 setlinewidth
0.8 0.8 0.8 setrgbcolor
stroke
408.333 490 moveto
0 7.69231 rlineto
1 setlinewidth
0.8 0.8 0.8 setrgbcolor
stroke
408.333 505.385 moveto
0 7.69231 rlineto
1 setlinewidth
0.8 0.8 0.8 setrgbcolor
stroke
408.333 520.769 moveto
0 7.69231 rlineto
1 setlinewidth
0.8 0.8 0.8 setrgbcolor
stroke
408.333 536.154 moveto
0 7.69231 rlineto
1 setlinewidth
0.8 0.8 0.8 setrgbcolor
stroke
408.333 551.538 moveto
0 7.69231 rlineto
1 setlinewidth
0.8 0.8 0.8 setrgbcolor
stroke
408.333 566.923 moveto
0 7.69231 rlineto
1 setlinewidth
0.8 0.8 0.8 setrgbcolor
stroke
408.333 582.308 moveto
0 7.69231 rlineto
1 setlinewidth
0.8 0.8 0.8 setrgbcolor
stroke
475 90 moveto
475 90 moveto
0 7.69231 rlineto
1 setlinewidth
0.8 0.8 0.8 setrgbcolor
stroke
475 105.385 moveto
0 7.69231 rlineto
1 setlinewidth
0.8 0.8 0.8 setrgbcolor
stroke
475 120.769 moveto
0 7.69231 rlineto
1 setlinewidth
0.8 0.8 0.8 setrgbcolor
stroke
475 136.154 moveto
0 7.69231 rlineto
1 setlinewidth
0.8 0.8 0.8 setrgbcolor
stroke
475 151.538 moveto
0 7.69231 rlineto
1 setlinewidth
0.8 0.8 0.8 setrgbcolor
stroke
475 166.923 moveto
0 7.69231 rlineto
1 setlinewidth
0.8 0.8 0.8 setrgbcolor
stroke
475 182.308 moveto
0 7.69231 rlineto
1 setlinewidth
0.8 0.8 0.8 setrgbcolor
stroke
475 197.692 moveto
0 7.69231 rlineto
1 setlinewidth
0.8 0.8 0.8 setrgbcolor
stroke
475 213.077 moveto
0 7.69231 rlineto
1 setlinewidth
0.8 0.8 0.8 setrgbcolor
stroke
475 228.462 moveto
0 7.69231 rlineto
1 setlinewidth
0.8 0.8 0.8 setrgbcolor
stroke
475 243.846 moveto
0 7.69231 rlineto
1 setlinewidth
0.8 0.8 0.8 setrgbcolor
stroke
475 259.231 moveto
0 7.69231 rlineto
1 setlinewidth
0.8 0.8 0.8 setrgbcolor
stroke
475 274.615 moveto
0 7.69231 rlineto
1 setlinewidth
0.8 0.8 0.8 setrgbcolor
stroke
475 290 moveto
0 7.69231 rlineto
1 setlinewidth
0.8 0.8 0.8 setrgbcolor
stroke
475 305.385 moveto
0 7.69231 rlineto
1 setlinewidth
0.8 0.8 0.8 setrgbcolor
stroke
475 320.769 moveto
0 7.69231 rlineto
1 setlinewidth
0.8 0.8 0.8 setrgbcolor
stroke
475 336.154 moveto
0 7.69231 rlineto
1 setlinewidth
0.8 0.8 0.8 setrgbcolor
stroke
475 351.538 moveto
0 7.69231 rlineto
1 setlinewidth
0.8 0.8 0.8 setrgbcolor
stroke
475 366.923 moveto
0 7.69231 rlineto
1 setlinewidth
0.8 0.8 0.8 setrgbcolor
stroke
475 382.308 moveto
0 7.69231 rlineto
1 setlinewidth
0.8 0.8 0.8 setrgbcolor
stroke
475 397.692 moveto
0 7.69231 rlineto
1 setlinewidth
0.8 0.8 0.8 setrgbcolor
stroke
475 413.077 moveto
0 7.69231 rlineto
1 setlinewidth
0.8 0.8 0.8 setrgbcolor
stroke
475 428.462 moveto
0 7.69231 rlineto
1 setlinewidth
0.8 0.8 0.8 setrgbcolor
stroke
475 443.846 moveto
0 7.69231 rlineto
1 setlinewidth
0.8 0.8 0.8 setrgbcolor
stroke
475 459.231 moveto
0 7.69231 rlineto
1 setlinewidth
0.8 0.8 0.8 setrgbcolor
stroke
475 474.615 moveto
0 7.69231 rlineto
1 setlinewidth
0.8 0.8 0.8 setrgbcolor
stroke
475 490 moveto
0 7.69231 rlineto
1 setlinewidth
0.8 0.8 0.8 setrgbcolor
stroke
475 505.385 moveto
0 7.69231 rlineto
1 setlinewidth
0.8 0.8 0.8 setrgbcolor
stroke
475 520.769 moveto
0 7.69231 rlineto
1 setlinewidth
0.8 0.8 0.8 setrgbcolor
stroke
475 536.154 moveto
0 7.69231 rlineto
1 setlinewidth
0.8 0.8 0.8 setrgbcolor
stroke
475 551.538 moveto
0 7.69231 rlineto
1 setlinewidth
0.8 0.8 0.8 setrgbcolor
stroke
475 566.923 moveto
0 7.69231 rlineto
1 setlinewidth
0.8 0.8 0.8 setrgbcolor
stroke
475 582.308 moveto
0 7.69231 rlineto
1 setlinewidth
0.8 0.8 0.8 setrgbcolor
stroke
541.667 90 moveto
541.667 90 moveto
0 7.69231 rlineto
1 setlinewidth
0.8 0.8 0.8 setrgbcolor
stroke
541.667 105.385 moveto
0 7.69231 rlineto
1 setlinewidth
0.8 0.8 0.8 setrgbcolor
stroke
541.667 120.769 moveto
0 7.69231 rlineto
1 setlinewidth
0.8 0.8 0.8 setrgbcolor
stroke
541.667 136.154 moveto
0 7.69231 rlineto
1 setlinewidth
0.8 0.8 0.8 setrgbcolor
stroke
541.667 151.538 moveto
0 7.69231 rlineto
1 setlinewidth
0.8 0.8 0.8 setrgbcolor
stroke
541.667 166.923 moveto
0 7.69231 rlineto
1 setlinewidth
0.8 0.8 0.8 setrgbcolor
stroke
541.667 182.308 moveto
0 7.69231 rlineto
1 setlinewidth
0.8 0.8 0.8 setrgbcolor
stroke
541.667 197.692 moveto
0 7.69231 rlineto
1 setlinewidth
0.8 0.8 0.8 setrgbcolor
stroke
541.667 213.077 moveto
0 7.69231 rlineto
1 setlinewidth
0.8 0.8 0.8 setrgbcolor
stroke
541.667 228.462 moveto
0 7.69231 rlineto
1 setlinewidth
0.8 0.8 0.8 setrgbcolor
stroke
541.667 243.846 moveto
0 7.69231 rlineto
1 setlinewidth
0.8 0.8 0.8 setrgbcolor
stroke
541.667 259.231 moveto
0 7.69231 rlineto
1 setlinewidth
0.8 0.8 0.8 setrgbcolor
stroke
541.667 274.615 moveto
0 7.69231 rlineto
1 setlinewidth
0.8 0.8 0.8 setrgbcolor
stroke
541.667 290 moveto
0 7.69231 rlineto
1 setlinewidth
0.8 0.8 0.8 setrgbcolor
stroke
541.667 305.385 moveto
0 7.69231 rlineto
1 setlinewidth
0.8 0.8 0.8 setrgbcolor
stroke
541.667 320.769 moveto
0 7.69231 rlineto
1 setlinewidth
0.8 0.8 0.8 setrgbcolor
stroke
541.667 336.154 moveto
0 7.69231 rlineto
1 setlinewidth
0.8 0.8 0.8 setrgbcolor
stroke
541.667 351.538 moveto
0 7.69231 rlineto
1 setlinewidth
0.8 0.8 0.8 setrgbcolor
stroke
541.667 366.923 moveto
0 7.69231 rlineto
1 setlinewidth
0.8 0.8 0.8 setrgbcolor
stroke
541.667 382.308 moveto
0 7.69231 rlineto
1 setlinewidth
0.8 0.8 0.8 setrgbcolor
stroke
541.667 397.692 moveto
0 7.69231 rlineto
1 setlinewidth
0.8 0.8 0.8 setrgbcolor
stroke
541.667 413.077 moveto
0 7.69231 rlineto
1 setlinewidth
0.8 0.8 0.8 setrgbcolor
stroke
541.667 428.462 moveto
0 7.69231 rlineto
1 setlinewidth
0.8 0.8 0.8 setrgbcolor
stroke
541.667 443.846 moveto
0 7.69231 rlineto
1 setlinewidth
0.8 0.8 0.8 setrgbcolor
stroke
541.667 459.231 moveto
0 7.69231 rlineto
1 setlinewidth
0.8 0.8 0.8 setrgbcolor
stroke
541.667 474.615 moveto
0 7.69231 rlineto
1 setlinewidth
0.8 0.8 0.8 setrgbcolor
stroke
541.667 490 moveto
0 7.69231 rlineto
1 setlinewidth
0.8 0.8 0.8 setrgbcolor
stroke
541.667 505.385 moveto
0 7.69231 rlineto
1 setlinewidth
0.8 0.8 0.8 setrgbcolor
stroke
541.667 520.769 moveto
0 7.69231 rlineto
1 setlinewidth
0.8 0.8 0.8 setrgbcolor
stroke
541.667 536.154 moveto
0 7.69231 rlineto
1 setlinewidth
0.8 0.8 0.8 setrgbcolor
stroke
541.667 551.538 moveto
0 7.69231 rlineto
1 setlinewidth
0.8 0.8 0.8 setrgbcolor
stroke
541.667 566.923 moveto
0 7.69231 rlineto
1 setlinewidth
0.8 0.8 0.8 setrgbcolor
stroke
541.667 582.308 moveto
0 7.69231 rlineto
1 setlinewidth
0.8 0.8 0.8 setrgbcolor
stroke
608.333 90 moveto
608.333 90 moveto
0 7.69231 rlineto
1 setlinewidth
0.8 0.8 0.8 setrgbcolor
stroke
608.333 105.385 moveto
0 7.69231 rlineto
1 setlinewidth
0.8 0.8 0.8 setrgbcolor
stroke
608.333 120.769 moveto
0 7.69231 rlineto
1 setlinewidth
0.8 0.8 0.8 setrgbcolor
stroke
608.333 136.154 moveto
0 7.69231 rlineto
1 setlinewidth
0.8 0.8 0.8 setrgbcolor
stroke
608.333 151.538 moveto
0 7.69231 rlineto
1 setlinewidth
0.8 0.8 0.8 setrgbcolor
stroke
608.333 166.923 moveto
0 7.69231 rlineto
1 setlinewidth
0.8 0.8 0.8 setrgbcolor
stroke
608.333 182.308 moveto
0 7.69231 rlineto
1 setlinewidth
0.8 0.8 0.8 setrgbcolor
stroke
608.333 197.692 moveto
0 7.69231 rlineto
1 setlinewidth
0.8 0.8 0.8 setrgbcolor
stroke
608.333 213.077 moveto
0 7.69231 rlineto
1 setlinewidth
0.8 0.8 0.8 setrgbcolor
stroke
608.333 228.462 moveto
0 7.69231 rlineto
1 setlinewidth
0.8 0.8 0.8 setrgbcolor
stroke
608.333 243.846 moveto
0 7.69231 rlineto
1 setlinewidth
0.8 0.8 0.8 setrgbcolor
stroke
608.333 259.231 moveto
0 7.69231 rlineto
1 setlinewidth
0.8 0.8 0.8 setrgbcolor
stroke
608.333 274.615 moveto
0 7.69231 rlineto
1 setlinewidth
0.8 0.8 0.8 setrgbcolor
stroke
608.333 290 moveto
0 7.69231 rlineto
1 setlinewidth
0.8 0.8 0.8 setrgbcolor
stroke
608.333 305.385 moveto
0 7.69231 rlineto
1 setlinewidth
0.8 0.8 0.8 setrgbcolor
stroke
608.333 320.769 moveto
0 7.69231 rlineto
1 setlinewidth
0.8 0.8 0.8 setrgbcolor
stroke
608.333 336.154 moveto
0 7.69231 rlineto
1 setlinewidth
0.8 0.8 0.8 setrgbcolor
stroke
608.333 351.538 moveto
0 7.69231 rlineto
1 setlinewidth
0.8 0.8 0.8 setrgbcolor
stroke
608.333 366.923 moveto
0 7.69231 rlineto
1 setlinewidth
0.8 0.8 0.8 setrgbcolor
stroke
608.333 382.308 moveto
0 7.69231 rlineto
1 setlinewidth
0.8 0.8 0.8 setrgbcolor
stroke
608.333 397.692 moveto
0 7.69231 rlineto
1 setlinewidth
0.8 0.8 0.8 setrgbcolor
stroke
608.333 413.077 moveto
0 7.69231 rlineto
1 setlinewidth
0.8 0.8 0.8 setrgbcolor
stroke
608.333 428.462 moveto
0 7.69231 rlineto
1 setlinewidth
0.8 0.8 0.8 setrgbcolor
stroke
608.333 443.846 moveto
0 7.69231 rlineto
1 setlinewidth
0.8 0.8 0.8 setrgbcolor
stroke
608.333 459.231 moveto
0 7.69231 rlineto
1 setlinewidth
0.8 0.8 0.8 setrgbcolor
stroke
608.333 474.615 moveto
0 7.69231 rlineto
1 setlinewidth
0.8 0.8 0.8 setrgbcolor
stroke
608.333 490 moveto
0 7.69231 rlineto
1 setlinewidth
0.8 0.8 0.8 setrgbcolor
stroke
608.333 505.385 moveto
0 7.69231 rlineto
1 setlinewidth
0.8 0.8 0.8 setrgbcolor
stroke
608.333 520.769 moveto
0 7.69231 rlineto
1 setlinewidth
0.8 0.8 0.8 setrgbcolor
stroke
608.333 536.154 moveto
0 7.69231 rlineto
1 setlinewidth
0.8 0.8 0.8 setrgbcolor
stroke
608.333 551.538 moveto
0 7.69231 rlineto
1 setlinewidth
0.8 0.8 0.8 setrgbcolor
stroke
608.333 566.923 moveto
0 7.69231 rlineto
1 setlinewidth
0.8 0.8 0.8 setrgbcolor
stroke
608.333 582.308 moveto
0 7.69231 rlineto
1 setlinewidth
0.8 0.8 0.8 setrgbcolor
stroke
675 90 moveto
675 90 moveto
0 7.69231 rlineto
1 setlinewidth
0.8 0.8 0.8 setrgbcolor
stroke
675 105.385 moveto
0 7.69231 rlineto
1 setlinewidth
0.8 0.8 0.8 setrgbcolor
stroke
675 120.769 moveto
0 7.69231 rlineto
1 setlinewidth
0.8 0.8 0.8 setrgbcolor
stroke
675 136.154 moveto
0 7.69231 rlineto
1 setlinewidth
0.8 0.8 0.8 setrgbcolor
stroke
675 151.538 moveto
0 7.69231 rlineto
1 setlinewidth
0.8 0.8 0.8 setrgbcolor
stroke
675 166.923 moveto
0 7.69231 rlineto
1 setlinewidth
0.8 0.8 0.8 setrgbcolor
stroke
675 182.308 moveto
0 7.69231 rlineto
1 setlinewidth
0.8 0.8 0.8 setrgbcolor
stroke
675 197.692 moveto
0 7.69231 rlineto
1 setlinewidth
0.8 0.8 0.8 setrgbcolor
stroke
675 213.077 moveto
0 7.69231 rlineto
1 setlinewidth
0.8 0.8 0.8 setrgbcolor
stroke
675 228.462 moveto
0 7.69231 rlineto
1 setlinewidth
0.8 0.8 0.8 setrgbcolor
stroke
675 243.846 moveto
0 7.69231 rlineto
1 setlinewidth
0.8 0.8 0.8 setrgbcolor
stroke
675 259.231 moveto
0 7.69231 rlineto
1 setlinewidth
0.8 0.8 0.8 setrgbcolor
stroke
675 274.615 moveto
0 7.69231 rlineto
1 setlinewidth
0.8 0.8 0.8 setrgbcolor
stroke
675 290 moveto
0 7.69231 rlineto
1 setlinewidth
0.8 0.8 0.8 setrgbcolor
stroke
675 305.385 moveto
0 7.69231 rlineto
1 setlinewidth
0.8 0.8 0.8 setrgbcolor
stroke
675 320.769 moveto
0 7.69231 rlineto
1 setlinewidth
0.8 0.8 0.8 setrgbcolor
stroke
675 336.154 moveto
0 7.69231 rlineto
1 setlinewidth
0.8 0.8 0.8 setrgbcolor
stroke
675 351.538 moveto
0 7.69231 rlineto
1 setlinewidth
0.8 0.8 0.8 setrgbcolor
stroke
675 366.923 moveto
0 7.69231 rlineto
1 setlinewidth
0.8 0.8 0.8 setrgbcolor
stroke
675 382.308 moveto
0 7.69231 rlineto
1 setlinewidth
0.8 0.8 0.8 setrgbcolor
stroke
675 397.692 moveto
0 7.69231 rlineto
1 setlinewidth
0.8 0.8 0.8 setrgbcolor
stroke
675 413.077 moveto
0 7.69231 rlineto
1 setlinewidth
0.8 0.8 0.8 setrgbcolor
stroke
675 428.462 moveto
0 7.69231 rlineto
1 setlinewidth
0.8 0.8 0.8 setrgbcolor
stroke
675 443.846 moveto
0 7.69231 rlineto
1 setlinewidth
0.8 0.8 0.8 setrgbcolor
stroke
675 459.231 moveto
0 7.69231 rlineto
1 setlinewidth
0.8 0.8 0.8 setrgbcolor
stroke
675 474.615 moveto
0 7.69231 rlineto
1 setlinewidth
0.8 0.8 0.8 setrgbcolor
stroke
675 490 moveto
0 7.69231 rlineto
1 setlinewidth
0.8 0.8 0.8 setrgbcolor
stroke
675 505.385 moveto
0 7.69231 rlineto
1 setlinewidth
0.8 0.8 0.8 setrgbcolor
stroke
675 520.769 moveto
0 7.69231 rlineto
1 setlinewidth
0.8 0.8 0.8 setrgbcolor
stroke
675 536.154 moveto
0 7.69231 rlineto
1 setlinewidth
0.8 0.8 0.8 setrgbcolor
stroke
675 551.538 moveto
0 7.69231 rlineto
1 setlinewidth
0.8 0.8 0.8 setrgbcolor
stroke
675 566.923 moveto
0 7.69231 rlineto
1 setlinewidth
0.8 0.8 0.8 setrgbcolor
stroke
675 582.308 moveto
0 7.69231 rlineto
1 setlinewidth
0.8 0.8 0.8 setrgbcolor
stroke
75 90 moveto
75 90 moveto
7.79221 0 rlineto
1 setlinewidth
0.8 0.8 0.8 setrgbcolor
stroke
90.5844 90 moveto
7.79221 0 rlineto
1 setlinewidth
0.8 0.8 0.8 setrgbcolor
stroke
106.169 90 moveto
7.79221 0 rlineto
1 setlinewidth
0.8 0.8 0.8 setrgbcolor
stroke
121.753 90 moveto
7.79221 0 rlineto
1 setlinewidth
0.8 0.8 0.8 setrgbcolor
stroke
137.338 90 moveto
7.79221 0 rlineto
1 setlinewidth
0.8 0.8 0.8 setrgbcolor
stroke
152.922 90 moveto
7.79221 0 rlineto
1 setlinewidth
0.8 0.8 0.8 setrgbcolor
stroke
168.506 90 moveto
7.79221 0 rlineto
1 setlinewidth
0.8 0.8 0.8 setrgbcolor
stroke
184.091 90 moveto
7.79221 0 rlineto
1 setlinewidth
0.8 0.8 0.8 setrgbcolor
stroke
199.675 90 moveto
7.79221 0 rlineto
1 setlinewidth
0.8 0.8 0.8 setrgbcolor
stroke
215.26 90 moveto
7.79221 0 rlineto
1 setlinewidth
0.8 0.8 0.8 setrgbcolor
stroke
230.844 90 moveto
7.79221 0 rlineto
1 setlinewidth
0.8 0.8 0.8 setrgbcolor
stroke
246.429 90 moveto
7.79221 0 rlineto
1 setlinewidth
0.8 0.8 0.8 setrgbcolor
stroke
262.013 90 moveto
7.79221 0 rlineto
1 setlinewidth
0.8 0.8 0.8 setrgbcolor
stroke
277.597 90 moveto
7.79221 0 rlineto
1 setlinewidth
0.8 0.8 0.8 setrgbcolor
stroke
293.182 90 moveto
7.79221 0 rlineto
1 setlinewidth
0.8 0.8 0.8 setrgbcolor
stroke
308.766 90 moveto
7.79221 0 rlineto
1 setlinewidth
0.8 0.8 0.8 setrgbcolor
stroke
324.351 90 moveto
7.79221 0 rlineto
1 setlinewidth
0.8 0.8 0.8 setrgbcolor
stroke
339.935 90 moveto
7.79221 0 rlineto
1 setlinewidth
0.8 0.8 0.8 setrgbcolor
stroke
355.519 90 moveto
7.79221 0 rlineto
1 setlinewidth
0.8 0.8 0.8 setrgbcolor
stroke
371.104 90 moveto
7.79221 0 rlineto
1 setlinewidth
0.8 0.8 0.8 setrgbcolor
stroke
386.688 90 moveto
7.79221 0 rlineto
1 setlinewidth
0.8 0.8 0.8 setrgbcolor
stroke
402.273 90 moveto
7.79221 0 rlineto
1 setlinewidth
0.8 0.8 0.8 setrgbcolor
stroke
417.857 90 moveto
7.79221 0 rlineto
1 setlinewidth
0.8 0.8 0.8 setrgbcolor
stroke
433.442 90 moveto
7.79221 0 rlineto
1 setlinewidth
0.8 0.8 0.8 setrgbcolor
stroke
449.026 90 moveto
7.79221 0 rlineto
1 setlinewidth
0.8 0.8 0.8 setrgbcolor
stroke
464.61 90 moveto
7.79221 0 rlineto
1 setlinewidth
0.8 0.8 0.8 setrgbcolor
stroke
480.195 90 moveto
7.79221 0 rlineto
1 setlinewidth
0.8 0.8 0.8 setrgbcolor
stroke
495.779 90 moveto
7.79221 0 rlineto
1 setlinewidth
0.8 0.8 0.8 setrgbcolor
stroke
511.364 90 moveto
7.79221 0 rlineto
1 setlinewidth
0.8 0.8 0.8 setrgbcolor
stroke
526.948 90 moveto
7.79221 0 rlineto
1 setlinewidth
0.8 0.8 0.8 setrgbcolor
stroke
542.532 90 moveto
7.79221 0 rlineto
1 setlinewidth
0.8 0.8 0.8 setrgbcolor
stroke
558.117 90 moveto
7.79221 0 rlineto
1 setlinewidth
0.8 0.8 0.8 setrgbcolor
stroke
573.701 90 moveto
7.79221 0 rlineto
1 setlinewidth
0.8 0.8 0.8 setrgbcolor
stroke
589.286 90 moveto
7.79221 0 rlineto
1 setlinewidth
0.8 0.8 0.8 setrgbcolor
stroke
604.87 90 moveto
7.79221 0 rlineto
1 setlinewidth
0.8 0.8 0.8 setrgbcolor
stroke
620.455 90 moveto
7.79221 0 rlineto
1 setlinewidth
0.8 0.8 0.8 setrgbcolor
stroke
636.039 90 moveto
7.79221 0 rlineto
1 setlinewidth
0.8 0.8 0.8 setrgbcolor
stroke
651.623 90 moveto
7.79221 0 rlineto
1 setlinewidth
0.8 0.8 0.8 setrgbcolor
stroke
667.208 90 moveto
7.79221 0 rlineto
1 setlinewidth
0.8 0.8 0.8 setrgbcolor
stroke
75 173.333 moveto
75 173.333 moveto
7.79221 0 rlineto
1 setlinewidth
0.8 0.8 0.8 setrgbcolor
stroke
90.5844 173.333 moveto
7.79221 0 rlineto
1 setlinewidth
0.8 0.8 0.8 setrgbcolor
stroke
106.169 173.333 moveto
7.79221 0 rlineto
1 setlinewidth
0.8 0.8 0.8 setrgbcolor
stroke
121.753 173.333 moveto
7.79221 0 rlineto
1 setlinewidth
0.8 0.8 0.8 setrgbcolor
stroke
137.338 173.333 moveto
7.79221 0 rlineto
1 setlinewidth
0.8 0.8 0.8 setrgbcolor
stroke
152.922 173.333 moveto
7.79221 0 rlineto
1 setlinewidth
0.8 0.8 0.8 setrgbcolor
stroke
168.506 173.333 moveto
7.79221 0 rlineto
1 setlinewidth
0.8 0.8 0.8 setrgbcolor
stroke
184.091 173.333 moveto
7.79221 0 rlineto
1 setlinewidth
0.8 0.8 0.8 setrgbcolor
stroke
199.675 173.333 moveto
7.79221 0 rlineto
1 setlinewidth
0.8 0.8 0.8 setrgbcolor
stroke
215.26 173.333 moveto
7.79221 0 rlineto
1 setlinewidth
0.8 0.8 0.8 setrgbcolor
stroke
230.844 173.333 moveto
7.79221 0 rlineto
1 setlinewidth
0.8 0.8 0.8 setrgbcolor
stroke
246.429 173.333 moveto
7.79221 0 rlineto
1 setlinewidth
0.8 0.8 0.8 setrgbcolor
stroke
262.013 173.333 moveto
7.79221 0 rlineto
1 setlinewidth
0.8 0.8 0.8 setrgbcolor
stroke
277.597 173.333 moveto
7.79221 0 rlineto
1 setlinewidth
0.8 0.8 0.8 setrgbcolor
stroke
293.182 173.333 moveto
7.79221 0 rlineto
1 setlinewidth
0.8 0.8 0.8 setrgbcolor
stroke
308.766 173.333 moveto
7.79221 0 rlineto
1 setlinewidth
0.8 0.8 0.8 setrgbcolor
stroke
324.351 173.333 moveto
7.79221 0 rlineto
1 setlinewidth
0.8 0.8 0.8 setrgbcolor
stroke
339.935 173.333 moveto
7.79221 0 rlineto
1 setlinewidth
0.8 0.8 0.8 setrgbcolor
stroke
355.519 173.333 moveto
7.79221 0 rlineto
1 setlinewidth
0.8 0.8 0.8 setrgbcolor
stroke
371.104 173.333 moveto
7.79221 0 rlineto
1 setlinewidth
0.8 0.8 0.8 setrgbcolor
stroke
386.688 173.333 moveto
7.79221 0 rlineto
1 setlinewidth
0.8 0.8 0.8 setrgbcolor
stroke
402.273 173.333 moveto
7.79221 0 rlineto
1 setlinewidth
0.8 0.8 0.8 setrgbcolor
stroke
417.857 173.333 moveto
7.79221 0 rlineto
1 setlinewidth
0.8 0.8 0.8 setrgbcolor
stroke
433.442 173.333 moveto
7.79221 0 rlineto
1 setlinewidth
0.8 0.8 0.8 setrgbcolor
stroke
449.026 173.333 moveto
7.79221 0 rlineto
1 setlinewidth
0.8 0.8 0.8 setrgbcolor
stroke
464.61 173.333 moveto
7.79221 0 rlineto
1 setlinewidth
0.8 0.8 0.8 setrgbcolor
stroke
480.195 173.333 moveto
7.79221 0 rlineto
1 setlinewidth
0.8 0.8 0.8 setrgbcolor
stroke
495.779 173.333 moveto
7.79221 0 rlineto
1 setlinewidth
0.8 0.8 0.8 setrgbcolor
stroke
511.364 173.333 moveto
7.79221 0 rlineto
1 setlinewidth
0.8 0.8 0.8 setrgbcolor
stroke
526.948 173.333 moveto
7.79221 0 rlineto
1 setlinewidth
0.8 0.8 0.8 setrgbcolor
stroke
542.532 173.333 moveto
7.79221 0 rlineto
1 setlinewidth
0.8 0.8 0.8 setrgbcolor
stroke
558.117 173.333 moveto
7.79221 0 rlineto
1 setlinewidth
0.8 0.8 0.8 setrgbcolor
stroke
573.701 173.333 moveto
7.79221 0 rlineto
1 setlinewidth
0.8 0.8 0.8 setrgbcolor
stroke
589.286 173.333 moveto
7.79221 0 rlineto
1 setlinewidth
0.8 0.8 0.8 setrgbcolor
stroke
604.87 173.333 moveto
7.79221 0 rlineto
1 setlinewidth
0.8 0.8 0.8 setrgbcolor
stroke
620.455 173.333 moveto
7.79221 0 rlineto
1 setlinewidth
0.8 0.8 0.8 setrgbcolor
stroke
636.039 173.333 moveto
7.79221 0 rlineto
1 setlinewidth
0.8 0.8 0.8 setrgbcolor
stroke
651.623 173.333 moveto
7.79221 0 rlineto
1 setlinewidth
0.8 0.8 0.8 setrgbcolor
stroke
667.208 173.333 moveto
7.79221 0 rlineto
1 setlinewidth
0.8 0.8 0.8 setrgbcolor
stroke
75 256.667 moveto
75 256.667 moveto
7.79221 0 rlineto
1 setlinewidth
0.8 0.8 0.8 setrgbcolor
stroke
90.5844 256.667 moveto
7.79221 0 rlineto
1 setlinewidth
0.8 0.8 0.8 setrgbcolor
stroke
106.169 256.667 moveto
7.79221 0 rlineto
1 setlinewidth
0.8 0.8 0.8 setrgbcolor
stroke
121.753 256.667 moveto
7.79221 0 rlineto
1 setlinewidth
0.8 0.8 0.8 setrgbcolor
stroke
137.338 256.667 moveto
7.79221 0 rlineto
1 setlinewidth
0.8 0.8 0.8 setrgbcolor
stroke
152.922 256.667 moveto
7.79221 0 rlineto
1 setlinewidth
0.8 0.8 0.8 setrgbcolor
stroke
168.506 256.667 moveto
7.79221 0 rlineto
1 setlinewidth
0.8 0.8 0.8 setrgbcolor
stroke
184.091 256.667 moveto
7.79221 0 rlineto
1 setlinewidth
0.8 0.8 0.8 setrgbcolor
stroke
199.675 256.667 moveto
7.79221 0 rlineto
1 setlinewidth
0.8 0.8 0.8 setrgbcolor
stroke
215.26 256.667 moveto
7.79221 0 rlineto
1 setlinewidth
0.8 0.8 0.8 setrgbcolor
stroke
230.844 256.667 moveto
7.79221 0 rlineto
1 setlinewidth
0.8 0.8 0.8 setrgbcolor
stroke
246.429 256.667 moveto
7.79221 0 rlineto
1 setlinewidth
0.8 0.8 0.8 setrgbcolor
stroke
262.013 256.667 moveto
7.79221 0 rlineto
1 setlinewidth
0.8 0.8 0.8 setrgbcolor
stroke
277.597 256.667 moveto
7.79221 0 rlineto
1 setlinewidth
0.8 0.8 0.8 setrgbcolor
stroke
293.182 256.667 moveto
7.79221 0 rlineto
1 setlinewidth
0.8 0.8 0.8 setrgbcolor
stroke
308.766 256.667 moveto
7.79221 0 rlineto
1 setlinewidth
0.8 0.8 0.8 setrgbcolor
stroke
324.351 256.667 moveto
7.79221 0 rlineto
1 setlinewidth
0.8 0.8 0.8 setrgbcolor
stroke
339.935 256.667 moveto
7.79221 0 rlineto
1 setlinewidth
0.8 0.8 0.8 setrgbcolor
stroke
355.519 256.667 moveto
7.79221 0 rlineto
1 setlinewidth
0.8 0.8 0.8 setrgbcolor
stroke
371.104 256.667 moveto
7.79221 0 rlineto
1 setlinewidth
0.8 0.8 0.8 setrgbcolor
stroke
386.688 256.667 moveto
7.79221 0 rlineto
1 setlinewidth
0.8 0.8 0.8 setrgbcolor
stroke
402.273 256.667 moveto
7.79221 0 rlineto
1 setlinewidth
0.8 0.8 0.8 setrgbcolor
stroke
417.857 256.667 moveto
7.79221 0 rlineto
1 setlinewidth
0.8 0.8 0.8 setrgbcolor
stroke
433.442 256.667 moveto
7.79221 0 rlineto
1 setlinewidth
0.8 0.8 0.8 setrgbcolor
stroke
449.026 256.667 moveto
7.79221 0 rlineto
1 setlinewidth
0.8 0.8 0.8 setrgbcolor
stroke
464.61 256.667 moveto
7.79221 0 rlineto
1 setlinewidth
0.8 0.8 0.8 setrgbcolor
stroke
480.195 256.667 moveto
7.79221 0 rlineto
1 setlinewidth
0.8 0.8 0.8 setrgbcolor
stroke
495.779 256.667 moveto
7.79221 0 rlineto
1 setlinewidth
0.8 0.8 0.8 setrgbcolor
stroke
511.364 256.667 moveto
7.79221 0 rlineto
1 setlinewidth
0.8 0.8 0.8 setrgbcolor
stroke
526.948 256.667 moveto
7.79221 0 rlineto
1 setlinewidth
0.8 0.8 0.8 setrgbcolor
stroke
542.532 256.667 moveto
7.79221 0 rlineto
1 setlinewidth
0.8 0.8 0.8 setrgbcolor
stroke
558.117 256.667 moveto
7.79221 0 rlineto
1 setlinewidth
0.8 0.8 0.8 setrgbcolor
stroke
573.701 256.667 moveto
7.79221 0 rlineto
1 setlinewidth
0.8 0.8 0.8 setrgbcolor
stroke
589.286 256.667 moveto
7.79221 0 rlineto
1 setlinewidth
0.8 0.8 0.8 setrgbcolor
stroke
604.87 256.667 moveto
7.79221 0 rlineto
1 setlinewidth
0.8 0.8 0.8 setrgbcolor
stroke
620.455 256.667 moveto
7.79221 0 rlineto
1 setlinewidth
0.8 0.8 0.8 setrgbcolor
stroke
636.039 256.667 moveto
7.79221 0 rlineto
1 setlinewidth
0.8 0.8 0.8 setrgbcolor
stroke
651.623 256.667 moveto
7.79221 0 rlineto
1 setlinewidth
0.8 0.8 0.8 setrgbcolor
stroke
667.208 256.667 moveto
7.79221 0 rlineto
1 setlinewidth
0.8 0.8 0.8 setrgbcolor
stroke
75 340 moveto
75 340 moveto
7.79221 0 rlineto
1 setlinewidth
0.8 0.8 0.8 setrgbcolor
stroke
90.5844 340 moveto
7.79221 0 rlineto
1 setlinewidth
0.8 0.8 0.8 setrgbcolor
stroke
106.169 340 moveto
7.79221 0 rlineto
1 setlinewidth
0.8 0.8 0.8 setrgbcolor
stroke
121.753 340 moveto
7.79221 0 rlineto
1 setlinewidth
0.8 0.8 0.8 setrgbcolor
stroke
137.338 340 moveto
7.79221 0 rlineto
1 setlinewidth
0.8 0.8 0.8 setrgbcolor
stroke
152.922 340 moveto
7.79221 0 rlineto
1 setlinewidth
0.8 0.8 0.8 setrgbcolor
stroke
168.506 340 moveto
7.79221 0 rlineto
1 setlinewidth
0.8 0.8 0.8 setrgbcolor
stroke
184.091 340 moveto
7.79221 0 rlineto
1 setlinewidth
0.8 0.8 0.8 setrgbcolor
stroke
199.675 340 moveto
7.79221 0 rlineto
1 setlinewidth
0.8 0.8 0.8 setrgbcolor
stroke
215.26 340 moveto
7.79221 0 rlineto
1 setlinewidth
0.8 0.8 0.8 setrgbcolor
stroke
230.844 340 moveto
7.79221 0 rlineto
1 setlinewidth
0.8 0.8 0.8 setrgbcolor
stroke
246.429 340 moveto
7.79221 0 rlineto
1 setlinewidth
0.8 0.8 0.8 setrgbcolor
stroke
262.013 340 moveto
7.79221 0 rlineto
1 setlinewidth
0.8 0.8 0.8 setrgbcolor
stroke
277.597 340 moveto
7.79221 0 rlineto
1 setlinewidth
0.8 0.8 0.8 setrgbcolor
stroke
293.182 340 moveto
7.79221 0 rlineto
1 setlinewidth
0.8 0.8 0.8 setrgbcolor
stroke
308.766 340 moveto
7.79221 0 rlineto
1 setlinewidth
0.8 0.8 0.8 setrgbcolor
stroke
324.351 340 moveto
7.79221 0 rlineto
1 setlinewidth
0.8 0.8 0.8 setrgbcolor
stroke
339.935 340 moveto
7.79221 0 rlineto
1 setlinewidth
0.8 0.8 0.8 setrgbcolor
stroke
355.519 340 moveto
7.79221 0 rlineto
1 setlinewidth
0.8 0.8 0.8 setrgbcolor
stroke
371.104 340 moveto
7.79221 0 rlineto
1 setlinewidth
0.8 0.8 0.8 setrgbcolor
stroke
386.688 340 moveto
7.79221 0 rlineto
1 setlinewidth
0.8 0.8 0.8 setrgbcolor
stroke
402.273 340 moveto
7.79221 0 rlineto
1 setlinewidth
0.8 0.8 0.8 setrgbcolor
stroke
417.857 340 moveto
7.79221 0 rlineto
1 setlinewidth
0.8 0.8 0.8 setrgbcolor
stroke
433.442 340 moveto
7.79221 0 rlineto
1 setlinewidth
0.8 0.8 0.8 setrgbcolor
stroke
449.026 340 moveto
7.79221 0 rlineto
1 setlinewidth
0.8 0.8 0.8 setrgbcolor
stroke
464.61 340 moveto
7.79221 0 rlineto
1 setlinewidth
0.8 0.8 0.8 setrgbcolor
stroke
480.195 340 moveto
7.79221 0 rlineto
1 setlinewidth
0.8 0.8 0.8 setrgbcolor
stroke
495.779 340 moveto
7.79221 0 rlineto
1 setlinewidth
0.8 0.8 0.8 setrgbcolor
stroke
511.364 340 moveto
7.79221 0 rlineto
1 setlinewidth
0.8 0.8 0.8 setrgbcolor
stroke
526.948 340 moveto
7.79221 0 rlineto
1 setlinewidth
0.8 0.8 0.8 setrgbcolor
stroke
542.532 340 moveto
7.79221 0 rlineto
1 setlinewidth
0.8 0.8 0.8 setrgbcolor
stroke
558.117 340 moveto
7.79221 0 rlineto
1 setlinewidth
0.8 0.8 0.8 setrgbcolor
stroke
573.701 340 moveto
7.79221 0 rlineto
1 setlinewidth
0.8 0.8 0.8 setrgbcolor
stroke
589.286 340 moveto
7.79221 0 rlineto
1 setlinewidth
0.8 0.8 0.8 setrgbcolor
stroke
604.87 340 moveto
7.79221 0 rlineto
1 setlinewidth
0.8 0.8 0.8 setrgbcolor
stroke
620.455 340 moveto
7.79221 0 rlineto
1 setlinewidth
0.8 0.8 0.8 setrgbcolor
stroke
636.039 340 moveto
7.79221 0 rlineto
1 setlinewidth
0.8 0.8 0.8 setrgbcolor
stroke
651.623 340 moveto
7.79221 0 rlineto
1 setlinewidth
0.8 0.8 0.8 setrgbcolor
stroke
667.208 340 moveto
7.79221 0 rlineto
1 setlinewidth
0.8 0.8 0.8 setrgbcolor
stroke
75 423.333 moveto
75 423.333 moveto
7.79221 0 rlineto
1 setlinewidth
0.8 0.8 0.8 setrgbcolor
stroke
90.5844 423.333 moveto
7.79221 0 rlineto
1 setlinewidth
0.8 0.8 0.8 setrgbcolor
stroke
106.169 423.333 moveto
7.79221 0 rlineto
1 setlinewidth
0.8 0.8 0.8 setrgbcolor
stroke
121.753 423.333 moveto
7.79221 0 rlineto
1 setlinewidth
0.8 0.8 0.8 setrgbcolor
stroke
137.338 423.333 moveto
7.79221 0 rlineto
1 setlinewidth
0.8 0.8 0.8 setrgbcolor
stroke
152.922 423.333 moveto
7.79221 0 rlineto
1 setlinewidth
0.8 0.8 0.8 setrgbcolor
stroke
168.506 423.333 moveto
7.79221 0 rlineto
1 setlinewidth
0.8 0.8 0.8 setrgbcolor
stroke
184.091 423.333 moveto
7.79221 0 rlineto
1 setlinewidth
0.8 0.8 0.8 setrgbcolor
stroke
199.675 423.333 moveto
7.79221 0 rlineto
1 setlinewidth
0.8 0.8 0.8 setrgbcolor
stroke
215.26 423.333 moveto
7.79221 0 rlineto
1 setlinewidth
0.8 0.8 0.8 setrgbcolor
stroke
230.844 423.333 moveto
7.79221 0 rlineto
1 setlinewidth
0.8 0.8 0.8 setrgbcolor
stroke
246.429 423.333 moveto
7.79221 0 rlineto
1 setlinewidth
0.8 0.8 0.8 setrgbcolor
stroke
262.013 423.333 moveto
7.79221 0 rlineto
1 setlinewidth
0.8 0.8 0.8 setrgbcolor
stroke
277.597 423.333 moveto
7.79221 0 rlineto
1 setlinewidth
0.8 0.8 0.8 setrgbcolor
stroke
293.182 423.333 moveto
7.79221 0 rlineto
1 setlinewidth
0.8 0.8 0.8 setrgbcolor
stroke
308.766 423.333 moveto
7.79221 0 rlineto
1 setlinewidth
0.8 0.8 0.8 setrgbcolor
stroke
324.351 423.333 moveto
7.79221 0 rlineto
1 setlinewidth
0.8 0.8 0.8 setrgbcolor
stroke
339.935 423.333 moveto
7.79221 0 rlineto
1 setlinewidth
0.8 0.8 0.8 setrgbcolor
stroke
355.519 423.333 moveto
7.79221 0 rlineto
1 setlinewidth
0.8 0.8 0.8 setrgbcolor
stroke
371.104 423.333 moveto
7.79221 0 rlineto
1 setlinewidth
0.8 0.8 0.8 setrgbcolor
stroke
386.688 423.333 moveto
7.79221 0 rlineto
1 setlinewidth
0.8 0.8 0.8 setrgbcolor
stroke
402.273 423.333 moveto
7.79221 0 rlineto
1 setlinewidth
0.8 0.8 0.8 setrgbcolor
stroke
417.857 423.333 moveto
7.79221 0 rlineto
1 setlinewidth
0.8 0.8 0.8 setrgbcolor
stroke
433.442 423.333 moveto
7.79221 0 rlineto
1 setlinewidth
0.8 0.8 0.8 setrgbcolor
stroke
449.026 423.333 moveto
7.79221 0 rlineto
1 setlinewidth
0.8 0.8 0.8 setrgbcolor
stroke
464.61 423.333 moveto
7.79221 0 rlineto
1 setlinewidth
0.8 0.8 0.8 setrgbcolor
stroke
480.195 423.333 moveto
7.79221 0 rlineto
1 setlinewidth
0.8 0.8 0.8 setrgbcolor
stroke
495.779 423.333 moveto
7.79221 0 rlineto
1 setlinewidth
0.8 0.8 0.8 setrgbcolor
stroke
511.364 423.333 moveto
7.79221 0 rlineto
1 setlinewidth
0.8 0.8 0.8 setrgbcolor
stroke
526.948 423.333 moveto
7.79221 0 rlineto
1 setlinewidth
0.8 0.8 0.8 setrgbcolor
stroke
542.532 423.333 moveto
7.79221 0 rlineto
1 setlinewidth
0.8 0.8 0.8 setrgbcolor
stroke
558.117 423.333 moveto
7.79221 0 rlineto
1 setlinewidth
0.8 0.8 0.8 setrgbcolor
stroke
573.701 423.333 moveto
7.79221 0 rlineto
1 setlinewidth
0.8 0.8 0.8 setrgbcolor
stroke
589.286 423.333 moveto
7.79221 0 rlineto
1 setlinewidth
0.8 0.8 0.8 setrgbcolor
stroke
604.87 423.333 moveto
7.79221 0 rlineto
1 setlinewidth
0.8 0.8 0.8 setrgbcolor
stroke
620.455 423.333 moveto
7.79221 0 rlineto
1 setlinewidth
0.8 0.8 0.8 setrgbcolor
stroke
636.039 423.333 moveto
7.79221 0 rlineto
1 setlinewidth
0.8 0.8 0.8 setrgbcolor
stroke
651.623 423.333 moveto
7.79221 0 rlineto
1 setlinewidth
0.8 0.8 0.8 setrgbcolor
stroke
667.208 423.333 moveto
7.79221 0 rlineto
1 setlinewidth
0.8 0.8 0.8 setrgbcolor
stroke
75 506.667 moveto
75 506.667 moveto
7.79221 0 rlineto
1 setlinewidth
0.8 0.8 0.8 setrgbcolor
stroke
90.5844 506.667 moveto
7.79221 0 rlineto
1 setlinewidth
0.8 0.8 0.8 setrgbcolor
stroke
106.169 506.667 moveto
7.79221 0 rlineto
1 setlinewidth
0.8 0.8 0.8 setrgbcolor
stroke
121.753 506.667 moveto
7.79221 0 rlineto
1 setlinewidth
0.8 0.8 0.8 setrgbcolor
stroke
137.338 506.667 moveto
7.79221 0 rlineto
1 setlinewidth
0.8 0.8 0.8 setrgbcolor
stroke
152.922 506.667 moveto
7.79221 0 rlineto
1 setlinewidth
0.8 0.8 0.8 setrgbcolor
stroke
168.506 506.667 moveto
7.79221 0 rlineto
1 setlinewidth
0.8 0.8 0.8 setrgbcolor
stroke
184.091 506.667 moveto
7.79221 0 rlineto
1 setlinewidth
0.8 0.8 0.8 setrgbcolor
stroke
199.675 506.667 moveto
7.79221 0 rlineto
1 setlinewidth
0.8 0.8 0.8 setrgbcolor
stroke
215.26 506.667 moveto
7.79221 0 rlineto
1 setlinewidth
0.8 0.8 0.8 setrgbcolor
stroke
230.844 506.667 moveto
7.79221 0 rlineto
1 setlinewidth
0.8 0.8 0.8 setrgbcolor
stroke
246.429 506.667 moveto
7.79221 0 rlineto
1 setlinewidth
0.8 0.8 0.8 setrgbcolor
stroke
262.013 506.667 moveto
7.79221 0 rlineto
1 setlinewidth
0.8 0.8 0.8 setrgbcolor
stroke
277.597 506.667 moveto
7.79221 0 rlineto
1 setlinewidth
0.8 0.8 0.8 setrgbcolor
stroke
293.182 506.667 moveto
7.79221 0 rlineto
1 setlinewidth
0.8 0.8 0.8 setrgbcolor
stroke
308.766 506.667 moveto
7.79221 0 rlineto
1 setlinewidth
0.8 0.8 0.8 setrgbcolor
stroke
324.351 506.667 moveto
7.79221 0 rlineto
1 setlinewidth
0.8 0.8 0.8 setrgbcolor
stroke
339.935 506.667 moveto
7.79221 0 rlineto
1 setlinewidth
0.8 0.8 0.8 setrgbcolor
stroke
355.519 506.667 moveto
7.79221 0 rlineto
1 setlinewidth
0.8 0.8 0.8 setrgbcolor
stroke
371.104 506.667 moveto
7.79221 0 rlineto
1 setlinewidth
0.8 0.8 0.8 setrgbcolor
stroke
386.688 506.667 moveto
7.79221 0 rlineto
1 setlinewidth
0.8 0.8 0.8 setrgbcolor
stroke
402.273 506.667 moveto
7.79221 0 rlineto
1 setlinewidth
0.8 0.8 0.8 setrgbcolor
stroke
417.857 506.667 moveto
7.79221 0 rlineto
1 setlinewidth
0.8 0.8 0.8 setrgbcolor
stroke
433.442 506.667 moveto
7.79221 0 rlineto
1 setlinewidth
0.8 0.8 0.8 setrgbcolor
stroke
449.026 506.667 moveto
7.79221 0 rlineto
1 setlinewidth
0.8 0.8 0.8 setrgbcolor
stroke
464.61 506.667 moveto
7.79221 0 rlineto
1 setlinewidth
0.8 0.8 0.8 setrgbcolor
stroke
480.195 506.667 moveto
7.79221 0 rlineto
1 setlinewidth
0.8 0.8 0.8 setrgbcolor
stroke
495.779 506.667 moveto
7.79221 0 rlineto
1 setlinewidth
0.8 0.8 0.8 setrgbcolor
stroke
511.364 506.667 moveto
7.79221 0 rlineto
1 setlinewidth
0.8 0.8 0.8 setrgbcolor
stroke
526.948 506.667 moveto
7.79221 0 rlineto
1 setlinewidth
0.8 0.8 0.8 setrgbcolor
stroke
542.532 506.667 moveto
7.79221 0 rlineto
1 setlinewidth
0.8 0.8 0.8 setrgbcolor
stroke
558.117 506.667 moveto
7.79221 0 rlineto
1 setlinewidth
0.8 0.8 0.8 setrgbcolor
stroke
573.701 506.667 moveto
7.79221 0 rlineto
1 setlinewidth
0.8 0.8 0.8 setrgbcolor
stroke
589.286 506.667 moveto
7.79221 0 rlineto
1 setlinewidth
0.8 0.8 0.8 setrgbcolor
stroke
604.87 506.667 moveto
7.79221 0 rlineto
1 setlinewidth
0.8 0.8 0.8 setrgbcolor
stroke
620.455 506.667 moveto
7.79221 0 rlineto
1 setlinewidth
0.8 0.8 0.8 setrgbcolor
stroke
636.039 506.667 moveto
7.79221 0 rlineto
1 setlinewidth
0.8 0.8 0.8 setrgbcolor
stroke
651.623 506.667 moveto
7.79221 0 rlineto
1 setlinewidth
0.8 0.8 0.8 setrgbcolor
stroke
667.208 506.667 moveto
7.79221 0 rlineto
1 setlinewidth
0.8 0.8 0.8 setrgbcolor
stroke
75 590 moveto
75 590 moveto
7.79221 0 rlineto
1 setlinewidth
0.8 0.8 0.8 setrgbcolor
stroke
90.5844 590 moveto
7.79221 0 rlineto
1 setlinewidth
0.8 0.8 0.8 setrgbcolor
stroke
106.169 590 moveto
7.79221 0 rlineto
1 setlinewidth
0.8 0.8 0.8 setrgbcolor
stroke
121.753 590 moveto
7.79221 0 rlineto
1 setlinewidth
0.8 0.8 0.8 setrgbcolor
stroke
137.338 590 moveto
7.79221 0 rlineto
1 setlinewidth
0.8 0.8 0.8 setrgbcolor
stroke
152.922 590 moveto
7.79221 0 rlineto
1 setlinewidth
0.8 0.8 0.8 setrgbcolor
stroke
168.506 590 moveto
7.79221 0 rlineto
1 setlinewidth
0.8 0.8 0.8 setrgbcolor
stroke
184.091 590 moveto
7.79221 0 rlineto
1 setlinewidth
0.8 0.8 0.8 setrgbcolor
stroke
199.675 590 moveto
7.79221 0 rlineto
1 setlinewidth
0.8 0.8 0.8 setrgbcolor
stroke
215.26 590 moveto
7.79221 0 rlineto
1 setlinewidth
0.8 0.8 0.8 setrgbcolor
stroke
230.844 590 moveto
7.79221 0 rlineto
1 setlinewidth
0.8 0.8 0.8 setrgbcolor
stroke
246.429 590 moveto
7.79221 0 rlineto
1 setlinewidth
0.8 0.8 0.8 setrgbcolor
stroke
262.013 590 moveto
7.79221 0 rlineto
1 setlinewidth
0.8 0.8 0.8 setrgbcolor
stroke
277.597 590 moveto
7.79221 0 rlineto
1 setlinewidth
0.8 0.8 0.8 setrgbcolor
stroke
293.182 590 moveto
7.79221 0 rlineto
1 setlinewidth
0.8 0.8 0.8 setrgbcolor
stroke
308.766 590 moveto
7.79221 0 rlineto
1 setlinewidth
0.8 0.8 0.8 setrgbcolor
stroke
324.351 590 moveto
7.79221 0 rlineto
1 setlinewidth
0.8 0.8 0.8 setrgbcolor
stroke
339.935 590 moveto
7.79221 0 rlineto
1 setlinewidth
0.8 0.8 0.8 setrgbcolor
stroke
355.519 590 moveto
7.79221 0 rlineto
1 setlinewidth
0.8 0.8 0.8 setrgbcolor
stroke
371.104 590 moveto
7.79221 0 rlineto
1 setlinewidth
0.8 0.8 0.8 setrgbcolor
stroke
386.688 590 moveto
7.79221 0 rlineto
1 setlinewidth
0.8 0.8 0.8 setrgbcolor
stroke
402.273 590 moveto
7.79221 0 rlineto
1 setlinewidth
0.8 0.8 0.8 setrgbcolor
stroke
417.857 590 moveto
7.79221 0 rlineto
1 setlinewidth
0.8 0.8 0.8 setrgbcolor
stroke
433.442 590 moveto
7.79221 0 rlineto
1 setlinewidth
0.8 0.8 0.8 setrgbcolor
stroke
449.026 590 moveto
7.79221 0 rlineto
1 setlinewidth
0.8 0.8 0.8 setrgbcolor
stroke
464.61 590 moveto
7.79221 0 rlineto
1 setlinewidth
0.8 0.8 0.8 setrgbcolor
stroke
480.195 590 moveto
7.79221 0 rlineto
1 setlinewidth
0.8 0.8 0.8 setrgbcolor
stroke
495.779 590 moveto
7.79221 0 rlineto
1 setlinewidth
0.8 0.8 0.8 setrgbcolor
stroke
511.364 590 moveto
7.79221 0 rlineto
1 setlinewidth
0.8 0.8 0.8 setrgbcolor
stroke
526.948 590 moveto
7.79221 0 rlineto
1 setlinewidth
0.8 0.8 0.8 setrgbcolor
stroke
542.532 590 moveto
7.79221 0 rlineto
1 setlinewidth
0.8 0.8 0.8 setrgbcolor
stroke
558.117 590 moveto
7.79221 0 rlineto
1 setlinewidth
0.8 0.8 0.8 setrgbcolor
stroke
573.701 590 moveto
7.79221 0 rlineto
1 setlinewidth
0.8 0.8 0.8 setrgbcolor
stroke
589.286 590 moveto
7.79221 0 rlineto
1 setlinewidth
0.8 0.8 0.8 setrgbcolor
stroke
604.87 590 moveto
7.79221 0 rlineto
1 setlinewidth
0.8 0.8 0.8 setrgbcolor
stroke
620.455 590 moveto
7.79221 0 rlineto
1 setlinewidth
0.8 0.8 0.8 setrgbcolor
stroke
636.039 590 moveto
7.79221 0 rlineto
1 setlinewidth
0.8 0.8 0.8 setrgbcolor
stroke
651.623 590 moveto
7.79221 0 rlineto
1 setlinewidth
0.8 0.8 0.8 setrgbcolor
stroke
667.208 590 moveto
7.79221 0 rlineto
1 setlinewidth
0.8 0.8 0.8 setrgbcolor
stroke
newpath
75 90 moveto
600 0 rlineto
0 500 rlineto
-600 0 rlineto
closepath
1 setlinewidth
0 0 0 setrgbcolor
stroke
/Times findfont
16 scalefont
setfont
375 600 moveto
0 0 0 setrgbcolor
(Histogram of average autopick FOM per micrograph) dup stringwidth pop 2 div neg 0 rmoveto show
75 90 moveto
0 7.81025 rlineto
1 setlinewidth
0 0 0 setrgbcolor
stroke
141.667 90 moveto
0 7.81025 rlineto
1 setlinewidth
0 0 0 setrgbcolor
stroke
208.333 90 moveto
0 7.81025 rlineto
1 setlinewidth
0 0 0 setrgbcolor
stroke
275 90 moveto
0 7.81025 rlineto
1 setlinewidth
0 0 0 setrgbcolor
stroke
341.667 90 moveto
0 7.81025 rlineto
1 setlinewidth
0 0 0 setrgbcolor
stroke
408.333 90 moveto
0 7.81025 rlineto
1 setlinewidth
0 0 0 setrgbcolor
stroke
475 90 moveto
0 7.81025 rlineto
1 setlinewidth
0 0 0 setrgbcolor
stroke
541.667 90 moveto
0 7.81025 rlineto
1 setlinewidth
0 0 0 setrgbcolor
stroke
608.333 90 moveto
0 7.81025 rlineto
1 setlinewidth
0 0 0 setrgbcolor
stroke
675 90 moveto
0 7.81025 rlineto
1 setlinewidth
0 0 0 setrgbcolor
stroke
75 90 moveto
7.81025 0 rlineto
1 setlinewidth
0 0 0 setrgbcolor
stroke
75 173.333 moveto
7.81025 0 rlineto
1 setlinewidth
0 0 0 setrgbcolor
stroke
75 256.667 moveto
7.81025 0 rlineto
1 setlinewidth
0 0 0 setrgbcolor
stroke
75 340 moveto
7.81025 0 rlineto
1 setlinewidth
0 0 0 setrgbcolor
stroke
75 423.333 moveto
7.81025 0 rlineto
1 setlinewidth
0 0 0 setrgbcolor
stroke
75 506.667 moveto
7.81025 0 rlineto
1 setlinewidth
0 0 0 setrgbcolor
stroke
75 590 moveto
7.81025 0 rlineto
1 setlinewidth
0 0 0 setrgbcolor
stroke
/Times findfont
12 scalefont
setfont
75 75 moveto
0 0 0 setrgbcolor
(0.6) dup stringwidth pop 2 div neg 0 rmoveto show
/Times findfont
12 scalefont
setfont
141.667 75 moveto
0 0 0 setrgbcolor
(0.8) dup stringwidth pop 2 div neg 0 rmoveto show
/Times findfont
12 scalefont
setfont
208.333 75 moveto
0 0 0 setrgbcolor
(1.0) dup stringwidth pop 2 div neg 0 rmoveto show
/Times findfont
12 scalefont
setfont
275 75 moveto
0 0 0 setrgbcolor
(1.2) dup stringwidth pop 2 div neg 0 rmoveto show
/Times findfont
12 scalefont
setfont
341.667 75 moveto
0 0 0 setrgbcolor
(1.4) dup stringwidth pop 2 div neg 0 rmoveto show
/Times findfont
12 scalefont
setfont
408.333 75 moveto
0 0 0 setrgbcolor
(1.6) dup stringwidth pop 2 div neg 0 rmoveto show
/Times findfont
12 scalefont
setfont
475 75 moveto
0 0 0 setrgbcolor
(1.8) dup stringwidth pop 2 div neg 0 rmoveto show
/Times findfont
12 scalefont
setfont
541.667 75 moveto
0 0 0 setrgbcolor
(2.0) dup stringwidth pop 2 div neg 0 rmoveto show
/Times findfont
12 scalefont
setfont
608.333 75 moveto
0 0 0 setrgbcolor
(2.2) dup stringwidth pop 2 div neg 0 rmoveto show
/Times findfont
12 scalefont
setfont
675 75 moveto
0 0 0 setrgbcolor
(2.4) dup stringwidth pop 2 div neg 0 rmoveto show
/Times findfont
12 scalefont
setfont
69 87 moveto
0 0 0 setrgbcolor
(0.0) dup stringwidth pop neg 0 rmoveto show
/Times findfont
12 scalefont
setfont
69 170.333 moveto
0 0 0 setrgbcolor
(0.5) dup stringwidth pop neg 0 rmoveto show
/Times findfont
12 scalefont
setfont
69 253.667 moveto
0 0 0 setrgbcolor
(1.0) dup stringwidth pop neg 0 rmoveto show
/Times findfont
12 scalefont
setfont
69 337 moveto
0 0 0 setrgbcolor
(1.5) dup stringwidth pop neg 0 rmoveto show
/Times findfont
12 scalefont
setfont
69 420.333 moveto
0 0 0 setrgbcolor
(2.0) dup stringwidth pop neg 0 rmoveto show
/Times findfont
12 scalefont
setfont
69 503.667 moveto
0 0 0 setrgbcolor
(2.5) dup stringwidth pop neg 0 rmoveto show
/Times findfont
12 scalefont
setfont
69 587 moveto
0 0 0 setrgbcolor
(3.0) dup stringwidth pop neg 0 rmoveto show
/Times findfont
16 scalefont
setfont
375 58 moveto
0 0 0 setrgbcolor
(rlnAutopickFigureOfMerit) dup stringwidth pop 2 div neg 0 rmoveto show
/Times findfont
16 scalefont
setfont
26 340 moveto
90 rotate
0 0 0 setrgbcolor
(# entries) dup stringwidth pop 2 div neg 0 rmoveto show
-90 rotate
newpath
86.1173 90 moveto
86.1173 90 lineto
191.919 90 lineto
191.919 90 lineto
191.919 90 lineto
191.919 590 lineto
297.721 590 lineto
297.721 90 lineto
297.721 90 lineto
297.721 256.667 lineto
403.523 256.667 lineto
403.523 90 lineto
403.523 90 lineto
403.523 90 lineto
509.325 90 lineto
509.325 90 lineto
509.325 90 lineto
509.325 256.667 lineto
615.127 256.667 lineto
615.127 90 lineto
1 setlinewidth
1 0 0 setrgbcolor
stroke
