%!PS-Adobe-2.0 EPSF-1.2
%%BoundingBox: 0 0 715 630
%%Pages: 1
%%EndComments
75 90 moveto
75 90 moveto
0 7.69231 rlineto
1 setlinewidth
0.8 0.8 0.8 setrgbcolor
stroke
75 105.385 moveto
0 7.69231 rlineto
1 setlinewidth
0.8 0.8 0.8 setrgbcolor
stroke
75 120.769 moveto
0 7.69231 rlineto
1 setlinewidth
0.8 0.8 0.8 setrgbcolor
stroke
75 136.154 moveto
0 7.69231 rlineto
1 setlinewidth
0.8 0.8 0.8 setrgbcolor
stroke
75 151.538 moveto
0 7.69231 rlineto
1 setlinewidth
0.8 0.8 0.8 setrgbcolor
stroke
75 166.923 moveto
0 7.69231 rlineto
1 setlinewidth
0.8 0.8 0.8 setrgbcolor
stroke
75 182.308 moveto
0 7.69231 rlineto
1 setlinewidth
0.8 0.8 0.8 setrgbcolor
stroke
75 197.692 moveto
0 7.69231 rlineto
1 setlinewidth
0.8 0.8 0.8 setrgbcolor
stroke
75 213.077 moveto
0 7.69231 rlineto
1 setlinewidth
0.8 0.8 0.8 setrgbcolor
stroke
75 228.462 moveto
0 7.69231 rlineto
1 setlinewidth
0.8 0.8 0.8 setrgbcolor
stroke
75 243.846 moveto
0 7.69231 rlineto
1 setlinewidth
0.8 0.8 0.8 setrgbcolor
stroke
75 259.231 moveto
0 7.69231 rlineto
1 setlinewidth
0.8 0.8 0.8 setrgbcolor
stroke
75 274.615 moveto
0 7.69231 rlineto
1 setlinewidth
0.8 0.8 0.8 setrgbcolor
stroke
75 290 moveto
0 7.69231 rlineto
1 setlinewidth
0.8 0.8 0.8 setrgbcolor
stroke
75 305.385 moveto
0 7.69231 rlineto
1 setlinewidth
0.8 0.8 0.8 setrgbcolor
stroke
75 320.769 moveto
0 7.69231 rlineto
1 setlinewidth
0.8 0.8 0.8 setrgbcolor
stroke
75 336.154 moveto
0 7.69231 rlineto
1 setlinewidth
0.8 0.8 0.8 setrgbcolor
stroke
75 351.538 moveto
0 7.69231 rlineto
1 setlinewidth
0.8 0.8 0.8 setrgbcolor
stroke
75 366.923 moveto
0 7.69231 rlineto
1 setlinewidth
0.8 0.8 0.8 setrgbcolor
stroke
75 382.308 moveto
0 7.69231 rlineto
1 setlinewidth
0.8 0.8 0.8 setrgbcolor
stroke
75 397.692 moveto
0 7.69231 rlineto
1 setlinewidth
0.8 0.8 0.8 setrgbcolor
stroke
75 413.077 moveto
0 7.69231 rlineto
1 setlinewidth
0.8 0.8 0.8 setrgbcolor
stroke
75 428.462 moveto
0 7.69231 rlineto
1 setlinewidth
0.8 0.8 0.8 setrgbcolor
stroke
75 443.846 moveto
0 7.69231 rlineto
1 setlinewidth
0.8 0.8 0.8 setrgbcolor
stroke
75 459.231 moveto
0 7.69231 rlineto
1 setlinewidth
0.8 0.8 0.8 setrgbcolor
stroke
75 474.615 moveto
0 7.69231 rlineto
1 setlinewidth
0.8 0.8 0.8 setrgbcolor
stroke
75 490 moveto
0 7.69231 rlineto
1 setlinewidth
0.8 0.8 0.8 setrgbcolor
stroke
75 505.385 moveto
0 7.69231 rlineto
1 setlinewidth
0.8 0.8 0.8 setrgbcolor
stroke
75 520.769 moveto
0 7.69231 rlineto
1 setlinewidth
0.8 0.8 0.8 setrgbcolor
stroke
75 536.154 moveto
0 7.69231 rlineto
1 setlinewidth
0.8 0.8 0.8 setrgbcolor
stroke
75 551.538 moveto
0 7.69231 rlineto
1 setlinewidth
0.8 0.8 0.8 setrgbcolor
stroke
75 566.923 moveto
0 7.69231 rlineto
1 setlinewidth
0.8 0.8 0.8 setrgbcolor
stroke
75 582.308 moveto
0 7.69231 rlineto
1 setlinewidth
0.8 0.8 0.8 setrgbcolor
stroke
160.714 90 moveto
160.714 90 moveto
0 7.69231 rlineto
1 setlinewidth
0.8 0.8 0.8 setrgbcolor
stroke
160.714 105.385 moveto
0 7.69231 rlineto
1 setlinewidth
0.8 0.8 0.8 setrgbcolor
stroke
160.714 120.769 moveto
0 7.69231 rlineto
1 setlinewidth
0.8 0.8 0.8 setrgbcolor
stroke
160.714 136.154 moveto
0 7.69231 rlineto
1 setlinewidth
0.8 0.8 0.8 setrgbcolor
stroke
160.714 151.538 moveto
0 7.69231 rlineto
1 setlinewidth
0.8 0.8 0.8 setrgbcolor
stroke
160.714 166.923 moveto
0 7.69231 rlineto
1 setlinewidth
0.8 0.8 0.8 setrgbcolor
stroke
160.714 182.308 moveto
0 7.69231 rlineto
1 setlinewidth
0.8 0.8 0.8 setrgbcolor
stroke
160.714 197.692 moveto
0 7.69231 rlineto
1 setlinewidth
0.8 0.8 0.8 setrgbcolor
stroke
160.714 213.077 moveto
0 7.69231 rlineto
1 setlinewidth
0.8 0.8 0.8 setrgbcolor
stroke
160.714 228.462 moveto
0 7.69231 rlineto
1 setlinewidth
0.8 0.8 0.8 setrgbcolor
stroke
160.714 243.846 moveto
0 7.69231 rlineto
1 setlinewidth
0.8 0.8 0.8 setrgbcolor
stroke
160.714 259.231 moveto
0 7.69231 rlineto
1 setlinewidth
0.8 0.8 0.8 setrgbcolor
stroke
160.714 274.615 moveto
0 7.69231 rlineto
1 setlinewidth
0.8 0.8 0.8 setrgbcolor
stroke
160.714 290 moveto
0 7.69231 rlineto
1 setlinewidth
0.8 0.8 0.8 setrgbcolor
stroke
160.714 305.385 moveto
0 7.69231 rlineto
1 setlinewidth
0.8 0.8 0.8 setrgbcolor
stroke
160.714 320.769 moveto
0 7.69231 rlineto
1 setlinewidth
0.8 0.8 0.8 setrgbcolor
stroke
160.714 336.154 moveto
0 7.69231 rlineto
1 setlinewidth
0.8 0.8 0.8 setrgbcolor
stroke
160.714 351.538 moveto
0 7.69231 rlineto
1 setlinewidth
0.8 0.8 0.8 setrgbcolor
stroke
160.714 366.923 moveto
0 7.69231 rlineto
1 setlinewidth
0.8 0.8 0.8 setrgbcolor
stroke
160.714 382.308 moveto
0 7.69231 rlineto
1 setlinewidth
0.8 0.8 0.8 setrgbcolor
stroke
160.714 397.692 moveto
0 7.69231 rlineto
1 setlinewidth
0.8 0.8 0.8 setrgbcolor
stroke
160.714 413.077 moveto
0 7.69231 rlineto
1 setlinewidth
0.8 0.8 0.8 setrgbcolor
stroke
160.714 428.462 moveto
0 7.69231 rlineto
1 setlinewidth
0.8 0.8 0.8 setrgbcolor
stroke
160.714 443.846 moveto
0 7.69231 rlineto
1 setlinewidth
0.8 0.8 0.8 setrgbcolor
stroke
160.714 459.231 moveto
0 7.69231 rlineto
1 setlinewidth
0.8 0.8 0.8 setrgbcolor
stroke
160.714 474.615 moveto
0 7.69231 rlineto
1 setlinewidth
0.8 0.8 0.8 setrgbcolor
stroke
160.714 490 moveto
0 7.69231 rlineto
1 setlinewidth
0.8 0.8 0.8 setrgbcolor
stroke
160.714 505.385 moveto
0 7.69231 rlineto
1 setlinewidth
0.8 0.8 0.8 setrgbcolor
stroke
160.714 520.769 moveto
0 7.69231 rlineto
1 setlinewidth
0.8 0.8 0.8 setrgbcolor
stroke
160.714 536.154 moveto
0 7.69231 rlineto
1 setlinewidth
0.8 0.8 0.8 setrgbcolor
stroke
160.714 551.538 moveto
0 7.69231 rlineto
1 setlinewidth
0.8 0.8 0.8 setrgbcolor
stroke
160.714 566.923 moveto
0 7.69231 rlineto
1 setlinewidth
0.8 0.8 0.8 setrgbcolor
stroke
160.714 582.308 moveto
0 7.69231 rlineto
1 setlinewidth
0.8 0.8 0.8 setrgbcolor
stroke
246.429 90 moveto
246.429 90 moveto
0 7.69231 rlineto
1 setlinewidth
0.8 0.8 0.8 setrgbcolor
stroke
246.429 105.385 moveto
0 7.69231 rlineto
1 setlinewidth
0.8 0.8 0.8 setrgbcolor
stroke
246.429 120.769 moveto
0 7.69231 rlineto
1 setlinewidth
0.8 0.8 0.8 setrgbcolor
stroke
246.429 136.154 moveto
0 7.69231 rlineto
1 setlinewidth
0.8 0.8 0.8 setrgbcolor
stroke
246.429 151.538 moveto
0 7.69231 rlineto
1 setlinewidth
0.8 0.8 0.8 setrgbcolor
stroke
246.429 166.923 moveto
0 7.69231 rlineto
1 setlinewidth
0.8 0.8 0.8 setrgbcolor
stroke
246.429 182.308 moveto
0 7.69231 rlineto
1 setlinewidth
0.8 0.8 0.8 setrgbcolor
stroke
246.429 197.692 moveto
0 7.69231 rlineto
1 setlinewidth
0.8 0.8 0.8 setrgbcolor
stroke
246.429 213.077 moveto
0 7.69231 rlineto
1 setlinewidth
0.8 0.8 0.8 setrgbcolor
stroke
246.429 228.462 moveto
0 7.69231 rlineto
1 setlinewidth
0.8 0.8 0.8 setrgbcolor
stroke
246.429 243.846 moveto
0 7.69231 rlineto
1 setlinewidth
0.8 0.8 0.8 setrgbcolor
stroke
246.429 259.231 moveto
0 7.69231 rlineto
1 setlinewidth
0.8 0.8 0.8 setrgbcolor
stroke
246.429 274.615 moveto
0 7.69231 rlineto
1 setlinewidth
0.8 0.8 0.8 setrgbcolor
stroke
246.429 290 moveto
0 7.69231 rlineto
1 setlinewidth
0.8 0.8 0.8 setrgbcolor
stroke
246.429 305.385 moveto
0 7.69231 rlineto
1 setlinewidth
0.8 0.8 0.8 setrgbcolor
stroke
246.429 320.769 moveto
0 7.69231 rlineto
1 setlinewidth
0.8 0.8 0.8 setrgbcolor
stroke
246.429 336.154 moveto
0 7.69231 rlineto
1 setlinewidth
0.8 0.8 0.8 setrgbcolor
stroke
246.429 351.538 moveto
0 7.69231 rlineto
1 setlinewidth
0.8 0.8 0.8 setrgbcolor
stroke
246.429 366.923 moveto
0 7.69231 rlineto
1 setlinewidth
0.8 0.8 0.8 setrgbcolor
stroke
246.429 382.308 moveto
0 7.69231 rlineto
1 setlinewidth
0.8 0.8 0.8 setrgbcolor
stroke
246.429 397.692 moveto
0 7.69231 rlineto
1 setlinewidth
0.8 0.8 0.8 setrgbcolor
stroke
246.429 413.077 moveto
0 7.69231 rlineto
1 setlinewidth
0.8 0.8 0.8 setrgbcolor
stroke
246.429 428.462 moveto
0 7.69231 rlineto
1 setlinewidth
0.8 0.8 0.8 setrgbcolor
stroke
246.429 443.846 moveto
0 7.69231 rlineto
1 setlinewidth
0.8 0.8 0.8 setrgbcolor
stroke
246.429 459.231 moveto
0 7.69231 rlineto
1 setlinewidth
0.8 0.8 0.8 setrgbcolor
stroke
246.429 474.615 moveto
0 7.69231 rlineto
1 setlinewidth
0.8 0.8 0.8 setrgbcolor
stroke
246.429 490 moveto
0 7.69231 rlineto
1 setlinewidth
0.8 0.8 0.8 setrgbcolor
stroke
246.429 505.385 moveto
0 7.69231 rlineto
1 setlinewidth
0.8 0.8 0.8 setrgbcolor
stroke
246.429 520.769 moveto
0 7.69231 rlineto
1 setlinewidth
0.8 0.8 0.8 setrgbcolor
stroke
246.429 536.154 moveto
0 7.69231 rlineto
1 setlinewidth
0.8 0.8 0.8 setrgbcolor
stroke
246.429 551.538 moveto
0 7.69231 rlineto
1 setlinewidth
0.8 0.8 0.8 setrgbcolor
stroke
246.429 566.923 moveto
0 7.69231 rlineto
1 setlinewidth
0.8 0.8 0.8 setrgbcolor
stroke
246.429 582.308 moveto
0 7.69231 rlineto
1 setlinewidth
0.8 0.8 0.8 setrgbcolor
stroke
332.143 90 moveto
332.143 90 moveto
0 7.69231 rlineto
1 setlinewidth
0.8 0.8 0.8 setrgbcolor
stroke
332.143 105.385 moveto
0 7.69231 rlineto
1 setlinewidth
0.8 0.8 0.8 setrgbcolor
stroke
332.143 120.769 moveto
0 7.69231 rlineto
1 setlinewidth
0.8 0.8 0.8 setrgbcolor
stroke
332.143 136.154 moveto
0 7.69231 rlineto
1 setlinewidth
0.8 0.8 0.8 setrgbcolor
stroke
332.143 151.538 moveto
0 7.69231 rlineto
1 setlinewidth
0.8 0.8 0.8 setrgbcolor
stroke
332.143 166.923 moveto
0 7.69231 rlineto
1 setlinewidth
0.8 0.8 0.8 setrgbcolor
stroke
332.143 182.308 moveto
0 7.69231 rlineto
1 setlinewidth
0.8 0.8 0.8 setrgbcolor
stroke
332.143 197.692 moveto
0 7.69231 rlineto
1 setlinewidth
0.8 0.8 0.8 setrgbcolor
stroke
332.143 213.077 moveto
0 7.69231 rlineto
1 setlinewidth
0.8 0.8 0.8 setrgbcolor
stroke
332.143 228.462 moveto
0 7.69231 rlineto
1 setlinewidth
0.8 0.8 0.8 setrgbcolor
stroke
332.143 243.846 moveto
0 7.69231 rlineto
1 setlinewidth
0.8 0.8 0.8 setrgbcolor
stroke
332.143 259.231 moveto
0 7.69231 rlineto
1 setlinewidth
0.8 0.8 0.8 setrgbcolor
stroke
332.143 274.615 moveto
0 7.69231 rlineto
1 setlinewidth
0.8 0.8 0.8 setrgbcolor
stroke
332.143 290 moveto
0 7.69231 rlineto
1 setlinewidth
0.8 0.8 0.8 setrgbcolor
stroke
332.143 305.385 moveto
0 7.69231 rlineto
1 setlinewidth
0.8 0.8 0.8 setrgbcolor
stroke
332.143 320.769 moveto
0 7.69231 rlineto
1 setlinewidth
0.8 0.8 0.8 setrgbcolor
stroke
332.143 336.154 moveto
0 7.69231 rlineto
1 setlinewidth
0.8 0.8 0.8 setrgbcolor
stroke
332.143 351.538 moveto
0 7.69231 rlineto
1 setlinewidth
0.8 0.8 0.8 setrgbcolor
stroke
332.143 366.923 moveto
0 7.69231 rlineto
1 setlinewidth
0.8 0.8 0.8 setrgbcolor
stroke
332.143 382.308 moveto
0 7.69231 rlineto
1 setlinewidth
0.8 0.8 0.8 setrgbcolor
stroke
332.143 397.692 moveto
0 7.69231 rlineto
1 setlinewidth
0.8 0.8 0.8 setrgbcolor
stroke
332.143 413.077 moveto
0 7.69231 rlineto
1 setlinewidth
0.8 0.8 0.8 setrgbcolor
stroke
332.143 428.462 moveto
0 7.69231 rlineto
1 setlinewidth
0.8 0.8 0.8 setrgbcolor
stroke
332.143 443.846 moveto
0 7.69231 rlineto
1 setlinewidth
0.8 0.8 0.8 setrgbcolor
stroke
332.143 459.231 moveto
0 7.69231 rlineto
1 setlinewidth
0.8 0.8 0.8 setrgbcolor
stroke
332.143 474.615 moveto
0 7.69231 rlineto
1 setlinewidth
0.8 0.8 0.8 setrgbcolor
stroke
332.143 490 moveto
0 7.69231 rlineto
1 setlinewidth
0.8 0.8 0.8 setrgbcolor
stroke
332.143 505.385 moveto
0 7.69231 rlineto
1 setlinewidth
0.8 0.8 0.8 setrgbcolor
stroke
332.143 520.769 moveto
0 7.69231 rlineto
1 setlinewidth
0.8 0.8 0.8 setrgbcolor
stroke
332.143 536.154 moveto
0 7.69231 rlineto
1 setlinewidth
0.8 0.8 0.8 setrgbcolor
stroke
332.143 551.538 moveto
0 7.69231 rlineto
1 setlinewidth
0.8 0.8 0.8 setrgbcolor
stroke
332.143 566.923 moveto
0 7.69231 rlineto
1 setlinewidth
0.8 0.8 0.8 setrgbcolor
stroke
332.143 582.308 moveto
0 7.69231 rlineto
1 setlinewidth
0.8 0.8 0.8 setrgbcolor
stroke
417.857 90 moveto
417.857 90 moveto
0 7.69231 rlineto
1 setlinewidth
0.8 0.8 0.8 setrgbcolor
stroke
417.857 105.385 moveto
0 7.69231 rlineto
1 setlinewidth
0.8 0.8 0.8 setrgbcolor
stroke
417.857 120.769 moveto
0 7.69231 rlineto
1 setlinewidth
0.8 0.8 0.8 setrgbcolor
stroke
417.857 136.154 moveto
0 7.69231 rlineto
1 setlinewidth
0.8 0.8 0.8 setrgbcolor
stroke
417.857 151.538 moveto
0 7.69231 rlineto
1 setlinewidth
0.8 0.8 0.8 setrgbcolor
stroke
417.857 166.923 moveto
0 7.69231 rlineto
1 setlinewidth
0.8 0.8 0.8 setrgbcolor
stroke
417.857 182.308 moveto
0 7.69231 rlineto
1 setlinewidth
0.8 0.8 0.8 setrgbcolor
stroke
417.857 197.692 moveto
0 7.69231 rlineto
1 setlinewidth
0.8 0.8 0.8 setrgbcolor
stroke
417.857 213.077 moveto
0 7.69231 rlineto
1 setlinewidth
0.8 0.8 0.8 setrgbcolor
stroke
417.857 228.462 moveto
0 7.69231 rlineto
1 setlinewidth
0.8 0.8 0.8 setrgbcolor
stroke
417.857 243.846 moveto
0 7.69231 rlineto
1 setlinewidth
0.8 0.8 0.8 setrgbcolor
stroke
417.857 259.231 moveto
0 7.69231 rlineto
1 setlinewidth
0.8 0.8 0.8 setrgbcolor
stroke
417.857 274.615 moveto
0 7.69231 rlineto
1 setlinewidth
0.8 0.8 0.8 setrgbcolor
stroke
417.857 290 moveto
0 7.69231 rlineto
1 setlinewidth
0.8 0.8 0.8 setrgbcolor
stroke
417.857 305.385 moveto
0 7.69231 rlineto
1 setlinewidth
0.8 0.8 0.8 setrgbcolor
stroke
417.857 320.769 moveto
0 7.69231 rlineto
1 setlinewidth
0.8 0.8 0.8 setrgbcolor
stroke
417.857 336.154 moveto
0 7.69231 rlineto
1 setlinewidth
0.8 0.8 0.8 setrgbcolor
stroke
417.857 351.538 moveto
0 7.69231 rlineto
1 setlinewidth
0.8 0.8 0.8 setrgbcolor
stroke
417.857 366.923 moveto
0 7.69231 rlineto
1 setlinewidth
0.8 0.8 0.8 setrgbcolor
stroke
417.857 382.308 moveto
0 7.69231 rlineto
1 setlinewidth
0.8 0.8 0.8 setrgbcolor
stroke
417.857 397.692 moveto
0 7.69231 rlineto
1 setlinewidth
0.8 0.8 0.8 setrgbcolor
stroke
417.857 413.077 moveto
0 7.69231 rlineto
1 setlinewidth
0.8 0.8 0.8 setrgbcolor
stroke
417.857 428.462 moveto
0 7.69231 rlineto
1 setlinewidth
0.8 0.8 0.8 setrgbcolor
stroke
417.857 443.846 moveto
0 7.69231 rlineto
1 setlinewidth
0.8 0.8 0.8 setrgbcolor
stroke
417.857 459.231 moveto
0 7.69231 rlineto
1 setlinewidth
0.8 0.8 0.8 setrgbcolor
stroke
417.857 474.615 moveto
0 7.69231 rlineto
1 setlinewidth
0.8 0.8 0.8 setrgbcolor
stroke
417.857 490 moveto
0 7.69231 rlineto
1 setlinewidth
0.8 0.8 0.8 setrgbcolor
stroke
417.857 505.385 moveto
0 7.69231 rlineto
1 setlinewidth
0.8 0.8 0.8 setrgbcolor
stroke
417.857 520.769 moveto
0 7.69231 rlineto
1 setlinewidth
0.8 0.8 0.8 setrgbcolor
stroke
417.857 536.154 moveto
0 7.69231 rlineto
1 setlinewidth
0.8 0.8 0.8 setrgbcolor
stroke
417.857 551.538 moveto
0 7.69231 rlineto
1 setlinewidth
0.8 0.8 0.8 setrgbcolor
stroke
417.857 566.923 moveto
0 7.69231 rlineto
1 setlinewidth
0.8 0.8 0.8 setrgbcolor
stroke
417.857 582.308 moveto
0 7.69231 rlineto
1 setlinewidth
0.8 0.8 0.8 setrgbcolor
stroke
503.571 90 moveto
503.571 90 moveto
0 7.69231 rlineto
1 setlinewidth
0.8 0.8 0.8 setrgbcolor
stroke
503.571 105.385 moveto
0 7.69231 rlineto
1 setlinewidth
0.8 0.8 0.8 setrgbcolor
stroke
503.571 120.769 moveto
0 7.69231 rlineto
1 setlinewidth
0.8 0.8 0.8 setrgbcolor
stroke
503.571 136.154 moveto
0 7.69231 rlineto
1 setlinewidth
0.8 0.8 0.8 setrgbcolor
stroke
503.571 151.538 moveto
0 7.69231 rlineto
1 setlinewidth
0.8 0.8 0.8 setrgbcolor
stroke
503.571 166.923 moveto
0 7.69231 rlineto
1 setlinewidth
0.8 0.8 0.8 setrgbcolor
stroke
503.571 182.308 moveto
0 7.69231 rlineto
1 setlinewidth
0.8 0.8 0.8 setrgbcolor
stroke
503.571 197.692 moveto
0 7.69231 rlineto
1 setlinewidth
0.8 0.8 0.8 setrgbcolor
stroke
503.571 213.077 moveto
0 7.69231 rlineto
1 setlinewidth
0.8 0.8 0.8 setrgbcolor
stroke
503.571 228.462 moveto
0 7.69231 rlineto
1 setlinewidth
0.8 0.8 0.8 setrgbcolor
stroke
503.571 243.846 moveto
0 7.69231 rlineto
1 setlinewidth
0.8 0.8 0.8 setrgbcolor
stroke
503.571 259.231 moveto
0 7.69231 rlineto
1 setlinewidth
0.8 0.8 0.8 setrgbcolor
stroke
503.571 274.615 moveto
0 7.69231 rlineto
1 setlinewidth
0.8 0.8 0.8 setrgbcolor
stroke
503.571 290 moveto
0 7.69231 rlineto
1 setlinewidth
0.8 0.8 0.8 setrgbcolor
stroke
503.571 305.385 moveto
0 7.69231 rlineto
1 setlinewidth
0.8 0.8 0.8 setrgbcolor
stroke
503.571 320.769 moveto
0 7.69231 rlineto
1 setlinewidth
0.8 0.8 0.8 setrgbcolor
stroke
503.571 336.154 moveto
0 7.69231 rlineto
1 setlinewidth
0.8 0.8 0.8 setrgbcolor
stroke
503.571 351.538 moveto
0 7.69231 rlineto
1 setlinewidth
0.8 0.8 0.8 setrgbcolor
stroke
503.571 366.923 moveto
0 7.69231 rlineto
1 setlinewidth
0.8 0.8 0.8 setrgbcolor
stroke
503.571 382.308 moveto
0 7.69231 rlineto
1 setlinewidth
0.8 0.8 0.8 setrgbcolor
stroke
503.571 397.692 moveto
0 7.69231 rlineto
1 setlinewidth
0.8 0.8 0.8 setrgbcolor
stroke
503.571 413.077 moveto
0 7.69231 rlineto
1 setlinewidth
0.8 0.8 0.8 setrgbcolor
stroke
503.571 428.462 moveto
0 7.69231 rlineto
1 setlinewidth
0.8 0.8 0.8 setrgbcolor
stroke
503.571 443.846 moveto
0 7.69231 rlineto
1 setlinewidth
0.8 0.8 0.8 setrgbcolor
stroke
503.571 459.231 moveto
0 7.69231 rlineto
1 setlinewidth
0.8 0.8 0.8 setrgbcolor
stroke
503.571 474.615 moveto
0 7.69231 rlineto
1 setlinewidth
0.8 0.8 0.8 setrgbcolor
stroke
503.571 490 moveto
0 7.69231 rlineto
1 setlinewidth
0.8 0.8 0.8 setrgbcolor
stroke
503.571 505.385 moveto
0 7.69231 rlineto
1 setlinewidth
0.8 0.8 0.8 setrgbcolor
stroke
503.571 520.769 moveto
0 7.69231 rlineto
1 setlinewidth
0.8 0.8 0.8 setrgbcolor
stroke
503.571 536.154 moveto
0 7.69231 rlineto
1 setlinewidth
0.8 0.8 0.8 setrgbcolor
stroke
503.571 551.538 moveto
0 7.69231 rlineto
1 setlinewidth
0.8 0.8 0.8 setrgbcolor
stroke
503.571 566.923 moveto
0 7.69231 rlineto
1 setlinewidth
0.8 0.8 0.8 setrgbcolor
stroke
503.571 582.308 moveto
0 7.69231 rlineto
1 setlinewidth
0.8 0.8 0.8 setrgbcolor
stroke
589.286 90 moveto
589.286 90 moveto
0 7.69231 rlineto
1 setlinewidth
0.8 0.8 0.8 setrgbcolor
stroke
589.286 105.385 moveto
0 7.69231 rlineto
1 setlinewidth
0.8 0.8 0.8 setrgbcolor
stroke
589.286 120.769 moveto
0 7.69231 rlineto
1 setlinewidth
0.8 0.8 0.8 setrgbcolor
stroke
589.286 136.154 moveto
0 7.69231 rlineto
1 setlinewidth
0.8 0.8 0.8 setrgbcolor
stroke
589.286 151.538 moveto
0 7.69231 rlineto
1 setlinewidth
0.8 0.8 0.8 setrgbcolor
stroke
589.286 166.923 moveto
0 7.69231 rlineto
1 setlinewidth
0.8 0.8 0.8 setrgbcolor
stroke
589.286 182.308 moveto
0 7.69231 rlineto
1 setlinewidth
0.8 0.8 0.8 setrgbcolor
stroke
589.286 197.692 moveto
0 7.69231 rlineto
1 setlinewidth
0.8 0.8 0.8 setrgbcolor
stroke
589.286 213.077 moveto
0 7.69231 rlineto
1 setlinewidth
0.8 0.8 0.8 setrgbcolor
stroke
589.286 228.462 moveto
0 7.69231 rlineto
1 setlinewidth
0.8 0.8 0.8 setrgbcolor
stroke
589.286 243.846 moveto
0 7.69231 rlineto
1 setlinewidth
0.8 0.8 0.8 setrgbcolor
stroke
589.286 259.231 moveto
0 7.69231 rlineto
1 setlinewidth
0.8 0.8 0.8 setrgbcolor
stroke
589.286 274.615 moveto
0 7.69231 rlineto
1 setlinewidth
0.8 0.8 0.8 setrgbcolor
stroke
589.286 290 moveto
0 7.69231 rlineto
1 setlinewidth
0.8 0.8 0.8 setrgbcolor
stroke
589.286 305.385 moveto
0 7.69231 rlineto
1 setlinewidth
0.8 0.8 0.8 setrgbcolor
stroke
589.286 320.769 moveto
0 7.69231 rlineto
1 setlinewidth
0.8 0.8 0.8 setrgbcolor
stroke
589.286 336.154 moveto
0 7.69231 rlineto
1 setlinewidth
0.8 0.8 0.8 setrgbcolor
stroke
589.286 351.538 moveto
0 7.69231 rlineto
1 setlinewidth
0.8 0.8 0.8 setrgbcolor
stroke
589.286 366.923 moveto
0 7.69231 rlineto
1 setlinewidth
0.8 0.8 0.8 setrgbcolor
stroke
589.286 382.308 moveto
0 7.69231 rlineto
1 setlinewidth
0.8 0.8 0.8 setrgbcolor
stroke
589.286 397.692 moveto
0 7.69231 rlineto
1 setlinewidth
0.8 0.8 0.8 setrgbcolor
stroke
589.286 413.077 moveto
0 7.69231 rlineto
1 setlinewidth
0.8 0.8 0.8 setrgbcolor
stroke
589.286 428.462 moveto
0 7.69231 rlineto
1 setlinewidth
0.8 0.8 0.8 setrgbcolor
stroke
589.286 443.846 moveto
0 7.69231 rlineto
1 setlinewidth
0.8 0.8 0.8 setrgbcolor
stroke
589.286 459.231 moveto
0 7.69231 rlineto
1 setlinewidth
0.8 0.8 0.8 setrgbcolor
stroke
589.286 474.615 moveto
0 7.69231 rlineto
1 setlinewidth
0.8 0.8 0.8 setrgbcolor
stroke
589.286 490 moveto
0 7.69231 rlineto
1 setlinewidth
0.8 0.8 0.8 setrgbcolor
stroke
589.286 505.385 moveto
0 7.69231 rlineto
1 setlinewidth
0.8 0.8 0.8 setrgbcolor
stroke
589.286 520.769 moveto
0 7.69231 rlineto
1 setlinewidth
0.8 0.8 0.8 setrgbcolor
stroke
589.286 536.154 moveto
0 7.69231 rlineto
1 setlinewidth
0.8 0.8 0.8 setrgbcolor
stroke
589.286 551.538 moveto
0 7.69231 rlineto
1 setlinewidth
0.8 0.8 0.8 setrgbcolor
stroke
589.286 566.923 moveto
0 7.69231 rlineto
1 setlinewidth
0.8 0.8 0.8 setrgbcolor
stroke
589.286 582.308 moveto
0 7.69231 rlineto
1 setlinewidth
0.8 0.8 0.8 setrgbcolor
stroke
675 90 moveto
675 90 moveto
0 7.69231 rlineto
1 setlinewidth
0.8 0.8 0.8 setrgbcolor
stroke
675 105.385 moveto
0 7.69231 rlineto
1 setlinewidth
0.8 0.8 0.8 setrgbcolor
stroke
675 120.769 moveto
0 7.69231 rlineto
1 setlinewidth
0.8 0.8 0.8 setrgbcolor
stroke
675 136.154 moveto
0 7.69231 rlineto
1 setlinewidth
0.8 0.8 0.8 setrgbcolor
stroke
675 151.538 moveto
0 7.69231 rlineto
1 setlinewidth
0.8 0.8 0.8 setrgbcolor
stroke
675 166.923 moveto
0 7.69231 rlineto
1 setlinewidth
0.8 0.8 0.8 setrgbcolor
stroke
675 182.308 moveto
0 7.69231 rlineto
1 setlinewidth
0.8 0.8 0.8 setrgbcolor
stroke
675 197.692 moveto
0 7.69231 rlineto
1 setlinewidth
0.8 0.8 0.8 setrgbcolor
stroke
675 213.077 moveto
0 7.69231 rlineto
1 setlinewidth
0.8 0.8 0.8 setrgbcolor
stroke
675 228.462 moveto
0 7.69231 rlineto
1 setlinewidth
0.8 0.8 0.8 setrgbcolor
stroke
675 243.846 moveto
0 7.69231 rlineto
1 setlinewidth
0.8 0.8 0.8 setrgbcolor
stroke
675 259.231 moveto
0 7.69231 rlineto
1 setlinewidth
0.8 0.8 0.8 setrgbcolor
stroke
675 274.615 moveto
0 7.69231 rlineto
1 setlinewidth
0.8 0.8 0.8 setrgbcolor
stroke
675 290 moveto
0 7.69231 rlineto
1 setlinewidth
0.8 0.8 0.8 setrgbcolor
stroke
675 305.385 moveto
0 7.69231 rlineto
1 setlinewidth
0.8 0.8 0.8 setrgbcolor
stroke
675 320.769 moveto
0 7.69231 rlineto
1 setlinewidth
0.8 0.8 0.8 setrgbcolor
stroke
675 336.154 moveto
0 7.69231 rlineto
1 setlinewidth
0.8 0.8 0.8 setrgbcolor
stroke
675 351.538 moveto
0 7.69231 rlineto
1 setlinewidth
0.8 0.8 0.8 setrgbcolor
stroke
675 366.923 moveto
0 7.69231 rlineto
1 setlinewidth
0.8 0.8 0.8 setrgbcolor
stroke
675 382.308 moveto
0 7.69231 rlineto
1 setlinewidth
0.8 0.8 0.8 setrgbcolor
stroke
675 397.692 moveto
0 7.69231 rlineto
1 setlinewidth
0.8 0.8 0.8 setrgbcolor
stroke
675 413.077 moveto
0 7.69231 rlineto
1 setlinewidth
0.8 0.8 0.8 setrgbcolor
stroke
675 428.462 moveto
0 7.69231 rlineto
1 setlinewidth
0.8 0.8 0.8 setrgbcolor
stroke
675 443.846 moveto
0 7.69231 rlineto
1 setlinewidth
0.8 0.8 0.8 setrgbcolor
stroke
675 459.231 moveto
0 7.69231 rlineto
1 setlinewidth
0.8 0.8 0.8 setrgbcolor
stroke
675 474.615 moveto
0 7.69231 rlineto
1 setlinewidth
0.8 0.8 0.8 setrgbcolor
stroke
675 490 moveto
0 7.69231 rlineto
1 setlinewidth
0.8 0.8 0.8 setrgbcolor
stroke
675 505.385 moveto
0 7.69231 rlineto
1 setlinewidth
0.8 0.8 0.8 setrgbcolor
stroke
675 520.769 moveto
0 7.69231 rlineto
1 setlinewidth
0.8 0.8 0.8 setrgbcolor
stroke
675 536.154 moveto
0 7.69231 rlineto
1 setlinewidth
0.8 0.8 0.8 setrgbcolor
stroke
675 551.538 moveto
0 7.69231 rlineto
1 setlinewidth
0.8 0.8 0.8 setrgbcolor
stroke
675 566.923 moveto
0 7.69231 rlineto
1 setlinewidth
0.8 0.8 0.8 setrgbcolor
stroke
675 582.308 moveto
0 7.69231 rlineto
1 setlinewidth
0.8 0.8 0.8 setrgbcolor
stroke
75 90 moveto
75 90 moveto
7.79221 0 rlineto
1 setlinewidth
0.8 0.8 0.8 setrgbcolor
stroke
90.5844 90 moveto
7.79221 0 rlineto
1 setlinewidth
0.8 0.8 0.8 setrgbcolor
stroke
106.169 90 moveto
7.79221 0 rlineto
1 setlinewidth
0.8 0.8 0.8 setrgbcolor
stroke
121.753 90 moveto
7.79221 0 rlineto
1 setlinewidth
0.8 0.8 0.8 setrgbcolor
stroke
137.338 90 moveto
7.79221 0 rlineto
1 setlinewidth
0.8 0.8 0.8 setrgbcolor
stroke
152.922 90 moveto
7.79221 0 rlineto
1 setlinewidth
0.8 0.8 0.8 setrgbcolor
stroke
168.506 90 moveto
7.79221 0 rlineto
1 setlinewidth
0.8 0.8 0.8 setrgbcolor
stroke
184.091 90 moveto
7.79221 0 rlineto
1 setlinewidth
0.8 0.8 0.8 setrgbcolor
stroke
199.675 90 moveto
7.79221 0 rlineto
1 setlinewidth
0.8 0.8 0.8 setrgbcolor
stroke
215.26 90 moveto
7.79221 0 rlineto
1 setlinewidth
0.8 0.8 0.8 setrgbcolor
stroke
230.844 90 moveto
7.79221 0 rlineto
1 setlinewidth
0.8 0.8 0.8 setrgbcolor
stroke
246.429 90 moveto
7.79221 0 rlineto
1 setlinewidth
0.8 0.8 0.8 setrgbcolor
stroke
262.013 90 moveto
7.79221 0 rlineto
1 setlinewidth
0.8 0.8 0.8 setrgbcolor
stroke
277.597 90 moveto
7.79221 0 rlineto
1 setlinewidth
0.8 0.8 0.8 setrgbcolor
stroke
293.182 90 moveto
7.79221 0 rlineto
1 setlinewidth
0.8 0.8 0.8 setrgbcolor
stroke
308.766 90 moveto
7.79221 0 rlineto
1 setlinewidth
0.8 0.8 0.8 setrgbcolor
stroke
324.351 90 moveto
7.79221 0 rlineto
1 setlinewidth
0.8 0.8 0.8 setrgbcolor
stroke
339.935 90 moveto
7.79221 0 rlineto
1 setlinewidth
0.8 0.8 0.8 setrgbcolor
stroke
355.519 90 moveto
7.79221 0 rlineto
1 setlinewidth
0.8 0.8 0.8 setrgbcolor
stroke
371.104 90 moveto
7.79221 0 rlineto
1 setlinewidth
0.8 0.8 0.8 setrgbcolor
stroke
386.688 90 moveto
7.79221 0 rlineto
1 setlinewidth
0.8 0.8 0.8 setrgbcolor
stroke
402.273 90 moveto
7.79221 0 rlineto
1 setlinewidth
0.8 0.8 0.8 setrgbcolor
stroke
417.857 90 moveto
7.79221 0 rlineto
1 setlinewidth
0.8 0.8 0.8 setrgbcolor
stroke
433.442 90 moveto
7.79221 0 rlineto
1 setlinewidth
0.8 0.8 0.8 setrgbcolor
stroke
449.026 90 moveto
7.79221 0 rlineto
1 setlinewidth
0.8 0.8 0.8 setrgbcolor
stroke
464.61 90 moveto
7.79221 0 rlineto
1 setlinewidth
0.8 0.8 0.8 setrgbcolor
stroke
480.195 90 moveto
7.79221 0 rlineto
1 setlinewidth
0.8 0.8 0.8 setrgbcolor
stroke
495.779 90 moveto
7.79221 0 rlineto
1 setlinewidth
0.8 0.8 0.8 setrgbcolor
stroke
511.364 90 moveto
7.79221 0 rlineto
1 setlinewidth
0.8 0.8 0.8 setrgbcolor
stroke
526.948 90 moveto
7.79221 0 rlineto
1 setlinewidth
0.8 0.8 0.8 setrgbcolor
stroke
542.532 90 moveto
7.79221 0 rlineto
1 setlinewidth
0.8 0.8 0.8 setrgbcolor
stroke
558.117 90 moveto
7.79221 0 rlineto
1 setlinewidth
0.8 0.8 0.8 setrgbcolor
stroke
573.701 90 moveto
7.79221 0 rlineto
1 setlinewidth
0.8 0.8 0.8 setrgbcolor
stroke
589.286 90 moveto
7.79221 0 rlineto
1 setlinewidth
0.8 0.8 0.8 setrgbcolor
stroke
604.87 90 moveto
7.79221 0 rlineto
1 setlinewidth
0.8 0.8 0.8 setrgbcolor
stroke
620.455 90 moveto
7.79221 0 rlineto
1 setlinewidth
0.8 0.8 0.8 setrgbcolor
stroke
636.039 90 moveto
7.79221 0 rlineto
1 setlinewidth
0.8 0.8 0.8 setrgbcolor
stroke
651.623 90 moveto
7.79221 0 rlineto
1 setlinewidth
0.8 0.8 0.8 setrgbcolor
stroke
667.208 90 moveto
7.79221 0 rlineto
1 setlinewidth
0.8 0.8 0.8 setrgbcolor
stroke
75 161.429 moveto
75 161.429 moveto
7.79221 0 rlineto
1 setlinewidth
0.8 0.8 0.8 setrgbcolor
stroke
90.5844 161.429 moveto
7.79221 0 rlineto
1 setlinewidth
0.8 0.8 0.8 setrgbcolor
stroke
106.169 161.429 moveto
7.79221 0 rlineto
1 setlinewidth
0.8 0.8 0.8 setrgbcolor
stroke
121.753 161.429 moveto
7.79221 0 rlineto
1 setlinewidth
0.8 0.8 0.8 setrgbcolor
stroke
137.338 161.429 moveto
7.79221 0 rlineto
1 setlinewidth
0.8 0.8 0.8 setrgbcolor
stroke
152.922 161.429 moveto
7.79221 0 rlineto
1 setlinewidth
0.8 0.8 0.8 setrgbcolor
stroke
168.506 161.429 moveto
7.79221 0 rlineto
1 setlinewidth
0.8 0.8 0.8 setrgbcolor
stroke
184.091 161.429 moveto
7.79221 0 rlineto
1 setlinewidth
0.8 0.8 0.8 setrgbcolor
stroke
199.675 161.429 moveto
7.79221 0 rlineto
1 setlinewidth
0.8 0.8 0.8 setrgbcolor
stroke
215.26 161.429 moveto
7.79221 0 rlineto
1 setlinewidth
0.8 0.8 0.8 setrgbcolor
stroke
230.844 161.429 moveto
7.79221 0 rlineto
1 setlinewidth
0.8 0.8 0.8 setrgbcolor
stroke
246.429 161.429 moveto
7.79221 0 rlineto
1 setlinewidth
0.8 0.8 0.8 setrgbcolor
stroke
262.013 161.429 moveto
7.79221 0 rlineto
1 setlinewidth
0.8 0.8 0.8 setrgbcolor
stroke
277.597 161.429 moveto
7.79221 0 rlineto
1 setlinewidth
0.8 0.8 0.8 setrgbcolor
stroke
293.182 161.429 moveto
7.79221 0 rlineto
1 setlinewidth
0.8 0.8 0.8 setrgbcolor
stroke
308.766 161.429 moveto
7.79221 0 rlineto
1 setlinewidth
0.8 0.8 0.8 setrgbcolor
stroke
324.351 161.429 moveto
7.79221 0 rlineto
1 setlinewidth
0.8 0.8 0.8 setrgbcolor
stroke
339.935 161.429 moveto
7.79221 0 rlineto
1 setlinewidth
0.8 0.8 0.8 setrgbcolor
stroke
355.519 161.429 moveto
7.79221 0 rlineto
1 setlinewidth
0.8 0.8 0.8 setrgbcolor
stroke
371.104 161.429 moveto
7.79221 0 rlineto
1 setlinewidth
0.8 0.8 0.8 setrgbcolor
stroke
386.688 161.429 moveto
7.79221 0 rlineto
1 setlinewidth
0.8 0.8 0.8 setrgbcolor
stroke
402.273 161.429 moveto
7.79221 0 rlineto
1 setlinewidth
0.8 0.8 0.8 setrgbcolor
stroke
417.857 161.429 moveto
7.79221 0 rlineto
1 setlinewidth
0.8 0.8 0.8 setrgbcolor
stroke
433.442 161.429 moveto
7.79221 0 rlineto
1 setlinewidth
0.8 0.8 0.8 setrgbcolor
stroke
449.026 161.429 moveto
7.79221 0 rlineto
1 setlinewidth
0.8 0.8 0.8 setrgbcolor
stroke
464.61 161.429 moveto
7.79221 0 rlineto
1 setlinewidth
0.8 0.8 0.8 setrgbcolor
stroke
480.195 161.429 moveto
7.79221 0 rlineto
1 setlinewidth
0.8 0.8 0.8 setrgbcolor
stroke
495.779 161.429 moveto
7.79221 0 rlineto
1 setlinewidth
0.8 0.8 0.8 setrgbcolor
stroke
511.364 161.429 moveto
7.79221 0 rlineto
1 setlinewidth
0.8 0.8 0.8 setrgbcolor
stroke
526.948 161.429 moveto
7.79221 0 rlineto
1 setlinewidth
0.8 0.8 0.8 setrgbcolor
stroke
542.532 161.429 moveto
7.79221 0 rlineto
1 setlinewidth
0.8 0.8 0.8 setrgbcolor
stroke
558.117 161.429 moveto
7.79221 0 rlineto
1 setlinewidth
0.8 0.8 0.8 setrgbcolor
stroke
573.701 161.429 moveto
7.79221 0 rlineto
1 setlinewidth
0.8 0.8 0.8 setrgbcolor
stroke
589.286 161.429 moveto
7.79221 0 rlineto
1 setlinewidth
0.8 0.8 0.8 setrgbcolor
stroke
604.87 161.429 moveto
7.79221 0 rlineto
1 setlinewidth
0.8 0.8 0.8 setrgbcolor
stroke
620.455 161.429 moveto
7.79221 0 rlineto
1 setlinewidth
0.8 0.8 0.8 setrgbcolor
stroke
636.039 161.429 moveto
7.79221 0 rlineto
1 setlinewidth
0.8 0.8 0.8 setrgbcolor
stroke
651.623 161.429 moveto
7.79221 0 rlineto
1 setlinewidth
0.8 0.8 0.8 setrgbcolor
stroke
667.208 161.429 moveto
7.79221 0 rlineto
1 setlinewidth
0.8 0.8 0.8 setrgbcolor
stroke
75 232.857 moveto
75 232.857 moveto
7.79221 0 rlineto
1 setlinewidth
0.8 0.8 0.8 setrgbcolor
stroke
90.5844 232.857 moveto
7.79221 0 rlineto
1 setlinewidth
0.8 0.8 0.8 setrgbcolor
stroke
106.169 232.857 moveto
7.79221 0 rlineto
1 setlinewidth
0.8 0.8 0.8 setrgbcolor
stroke
121.753 232.857 moveto
7.79221 0 rlineto
1 setlinewidth
0.8 0.8 0.8 setrgbcolor
stroke
137.338 232.857 moveto
7.79221 0 rlineto
1 setlinewidth
0.8 0.8 0.8 setrgbcolor
stroke
152.922 232.857 moveto
7.79221 0 rlineto
1 setlinewidth
0.8 0.8 0.8 setrgbcolor
stroke
168.506 232.857 moveto
7.79221 0 rlineto
1 setlinewidth
0.8 0.8 0.8 setrgbcolor
stroke
184.091 232.857 moveto
7.79221 0 rlineto
1 setlinewidth
0.8 0.8 0.8 setrgbcolor
stroke
199.675 232.857 moveto
7.79221 0 rlineto
1 setlinewidth
0.8 0.8 0.8 setrgbcolor
stroke
215.26 232.857 moveto
7.79221 0 rlineto
1 setlinewidth
0.8 0.8 0.8 setrgbcolor
stroke
230.844 232.857 moveto
7.79221 0 rlineto
1 setlinewidth
0.8 0.8 0.8 setrgbcolor
stroke
246.429 232.857 moveto
7.79221 0 rlineto
1 setlinewidth
0.8 0.8 0.8 setrgbcolor
stroke
262.013 232.857 moveto
7.79221 0 rlineto
1 setlinewidth
0.8 0.8 0.8 setrgbcolor
stroke
277.597 232.857 moveto
7.79221 0 rlineto
1 setlinewidth
0.8 0.8 0.8 setrgbcolor
stroke
293.182 232.857 moveto
7.79221 0 rlineto
1 setlinewidth
0.8 0.8 0.8 setrgbcolor
stroke
308.766 232.857 moveto
7.79221 0 rlineto
1 setlinewidth
0.8 0.8 0.8 setrgbcolor
stroke
324.351 232.857 moveto
7.79221 0 rlineto
1 setlinewidth
0.8 0.8 0.8 setrgbcolor
stroke
339.935 232.857 moveto
7.79221 0 rlineto
1 setlinewidth
0.8 0.8 0.8 setrgbcolor
stroke
355.519 232.857 moveto
7.79221 0 rlineto
1 setlinewidth
0.8 0.8 0.8 setrgbcolor
stroke
371.104 232.857 moveto
7.79221 0 rlineto
1 setlinewidth
0.8 0.8 0.8 setrgbcolor
stroke
386.688 232.857 moveto
7.79221 0 rlineto
1 setlinewidth
0.8 0.8 0.8 setrgbcolor
stroke
402.273 232.857 moveto
7.79221 0 rlineto
1 setlinewidth
0.8 0.8 0.8 setrgbcolor
stroke
417.857 232.857 moveto
7.79221 0 rlineto
1 setlinewidth
0.8 0.8 0.8 setrgbcolor
stroke
433.442 232.857 moveto
7.79221 0 rlineto
1 setlinewidth
0.8 0.8 0.8 setrgbcolor
stroke
449.026 232.857 moveto
7.79221 0 rlineto
1 setlinewidth
0.8 0.8 0.8 setrgbcolor
stroke
464.61 232.857 moveto
7.79221 0 rlineto
1 setlinewidth
0.8 0.8 0.8 setrgbcolor
stroke
480.195 232.857 moveto
7.79221 0 rlineto
1 setlinewidth
0.8 0.8 0.8 setrgbcolor
stroke
495.779 232.857 moveto
7.79221 0 rlineto
1 setlinewidth
0.8 0.8 0.8 setrgbcolor
stroke
511.364 232.857 moveto
7.79221 0 rlineto
1 setlinewidth
0.8 0.8 0.8 setrgbcolor
stroke
526.948 232.857 moveto
7.79221 0 rlineto
1 setlinewidth
0.8 0.8 0.8 setrgbcolor
stroke
542.532 232.857 moveto
7.79221 0 rlineto
1 setlinewidth
0.8 0.8 0.8 setrgbcolor
stroke
558.117 232.857 moveto
7.79221 0 rlineto
1 setlinewidth
0.8 0.8 0.8 setrgbcolor
stroke
573.701 232.857 moveto
7.79221 0 rlineto
1 setlinewidth
0.8 0.8 0.8 setrgbcolor
stroke
589.286 232.857 moveto
7.79221 0 rlineto
1 setlinewidth
0.8 0.8 0.8 setrgbcolor
stroke
604.87 232.857 moveto
7.79221 0 rlineto
1 setlinewidth
0.8 0.8 0.8 setrgbcolor
stroke
620.455 232.857 moveto
7.79221 0 rlineto
1 setlinewidth
0.8 0.8 0.8 setrgbcolor
stroke
636.039 232.857 moveto
7.79221 0 rlineto
1 setlinewidth
0.8 0.8 0.8 setrgbcolor
stroke
651.623 232.857 moveto
7.79221 0 rlineto
1 setlinewidth
0.8 0.8 0.8 setrgbcolor
stroke
667.208 232.857 moveto
7.79221 0 rlineto
1 setlinewidth
0.8 0.8 0.8 setrgbcolor
stroke
75 304.286 moveto
75 304.286 moveto
7.79221 0 rlineto
1 setlinewidth
0.8 0.8 0.8 setrgbcolor
stroke
90.5844 304.286 moveto
7.79221 0 rlineto
1 setlinewidth
0.8 0.8 0.8 setrgbcolor
stroke
106.169 304.286 moveto
7.79221 0 rlineto
1 setlinewidth
0.8 0.8 0.8 setrgbcolor
stroke
121.753 304.286 moveto
7.79221 0 rlineto
1 setlinewidth
0.8 0.8 0.8 setrgbcolor
stroke
137.338 304.286 moveto
7.79221 0 rlineto
1 setlinewidth
0.8 0.8 0.8 setrgbcolor
stroke
152.922 304.286 moveto
7.79221 0 rlineto
1 setlinewidth
0.8 0.8 0.8 setrgbcolor
stroke
168.506 304.286 moveto
7.79221 0 rlineto
1 setlinewidth
0.8 0.8 0.8 setrgbcolor
stroke
184.091 304.286 moveto
7.79221 0 rlineto
1 setlinewidth
0.8 0.8 0.8 setrgbcolor
stroke
199.675 304.286 moveto
7.79221 0 rlineto
1 setlinewidth
0.8 0.8 0.8 setrgbcolor
stroke
215.26 304.286 moveto
7.79221 0 rlineto
1 setlinewidth
0.8 0.8 0.8 setrgbcolor
stroke
230.844 304.286 moveto
7.79221 0 rlineto
1 setlinewidth
0.8 0.8 0.8 setrgbcolor
stroke
246.429 304.286 moveto
7.79221 0 rlineto
1 setlinewidth
0.8 0.8 0.8 setrgbcolor
stroke
262.013 304.286 moveto
7.79221 0 rlineto
1 setlinewidth
0.8 0.8 0.8 setrgbcolor
stroke
277.597 304.286 moveto
7.79221 0 rlineto
1 setlinewidth
0.8 0.8 0.8 setrgbcolor
stroke
293.182 304.286 moveto
7.79221 0 rlineto
1 setlinewidth
0.8 0.8 0.8 setrgbcolor
stroke
308.766 304.286 moveto
7.79221 0 rlineto
1 setlinewidth
0.8 0.8 0.8 setrgbcolor
stroke
324.351 304.286 moveto
7.79221 0 rlineto
1 setlinewidth
0.8 0.8 0.8 setrgbcolor
stroke
339.935 304.286 moveto
7.79221 0 rlineto
1 setlinewidth
0.8 0.8 0.8 setrgbcolor
stroke
355.519 304.286 moveto
7.79221 0 rlineto
1 setlinewidth
0.8 0.8 0.8 setrgbcolor
stroke
371.104 304.286 moveto
7.79221 0 rlineto
1 setlinewidth
0.8 0.8 0.8 setrgbcolor
stroke
386.688 304.286 moveto
7.79221 0 rlineto
1 setlinewidth
0.8 0.8 0.8 setrgbcolor
stroke
402.273 304.286 moveto
7.79221 0 rlineto
1 setlinewidth
0.8 0.8 0.8 setrgbcolor
stroke
417.857 304.286 moveto
7.79221 0 rlineto
1 setlinewidth
0.8 0.8 0.8 setrgbcolor
stroke
433.442 304.286 moveto
7.79221 0 rlineto
1 setlinewidth
0.8 0.8 0.8 setrgbcolor
stroke
449.026 304.286 moveto
7.79221 0 rlineto
1 setlinewidth
0.8 0.8 0.8 setrgbcolor
stroke
464.61 304.286 moveto
7.79221 0 rlineto
1 setlinewidth
0.8 0.8 0.8 setrgbcolor
stroke
480.195 304.286 moveto
7.79221 0 rlineto
1 setlinewidth
0.8 0.8 0.8 setrgbcolor
stroke
495.779 304.286 moveto
7.79221 0 rlineto
1 setlinewidth
0.8 0.8 0.8 setrgbcolor
stroke
511.364 304.286 moveto
7.79221 0 rlineto
1 setlinewidth
0.8 0.8 0.8 setrgbcolor
stroke
526.948 304.286 moveto
7.79221 0 rlineto
1 setlinewidth
0.8 0.8 0.8 setrgbcolor
stroke
542.532 304.286 moveto
7.79221 0 rlineto
1 setlinewidth
0.8 0.8 0.8 setrgbcolor
stroke
558.117 304.286 moveto
7.79221 0 rlineto
1 setlinewidth
0.8 0.8 0.8 setrgbcolor
stroke
573.701 304.286 moveto
7.79221 0 rlineto
1 setlinewidth
0.8 0.8 0.8 setrgbcolor
stroke
589.286 304.286 moveto
7.79221 0 rlineto
1 setlinewidth
0.8 0.8 0.8 setrgbcolor
stroke
604.87 304.286 moveto
7.79221 0 rlineto
1 setlinewidth
0.8 0.8 0.8 setrgbcolor
stroke
620.455 304.286 moveto
7.79221 0 rlineto
1 setlinewidth
0.8 0.8 0.8 setrgbcolor
stroke
636.039 304.286 moveto
7.79221 0 rlineto
1 setlinewidth
0.8 0.8 0.8 setrgbcolor
stroke
651.623 304.286 moveto
7.79221 0 rlineto
1 setlinewidth
0.8 0.8 0.8 setrgbcolor
stroke
667.208 304.286 moveto
7.79221 0 rlineto
1 setlinewidth
0.8 0.8 0.8 setrgbcolor
stroke
75 375.714 moveto
75 375.714 moveto
7.79221 0 rlineto
1 setlinewidth
0.8 0.8 0.8 setrgbcolor
stroke
90.5844 375.714 moveto
7.79221 0 rlineto
1 setlinewidth
0.8 0.8 0.8 setrgbcolor
stroke
106.169 375.714 moveto
7.79221 0 rlineto
1 setlinewidth
0.8 0.8 0.8 setrgbcolor
stroke
121.753 375.714 moveto
7.79221 0 rlineto
1 setlinewidth
0.8 0.8 0.8 setrgbcolor
stroke
137.338 375.714 moveto
7.79221 0 rlineto
1 setlinewidth
0.8 0.8 0.8 setrgbcolor
stroke
152.922 375.714 moveto
7.79221 0 rlineto
1 setlinewidth
0.8 0.8 0.8 setrgbcolor
stroke
168.506 375.714 moveto
7.79221 0 rlineto
1 setlinewidth
0.8 0.8 0.8 setrgbcolor
stroke
184.091 375.714 moveto
7.79221 0 rlineto
1 setlinewidth
0.8 0.8 0.8 setrgbcolor
stroke
199.675 375.714 moveto
7.79221 0 rlineto
1 setlinewidth
0.8 0.8 0.8 setrgbcolor
stroke
215.26 375.714 moveto
7.79221 0 rlineto
1 setlinewidth
0.8 0.8 0.8 setrgbcolor
stroke
230.844 375.714 moveto
7.79221 0 rlineto
1 setlinewidth
0.8 0.8 0.8 setrgbcolor
stroke
246.429 375.714 moveto
7.79221 0 rlineto
1 setlinewidth
0.8 0.8 0.8 setrgbcolor
stroke
262.013 375.714 moveto
7.79221 0 rlineto
1 setlinewidth
0.8 0.8 0.8 setrgbcolor
stroke
277.597 375.714 moveto
7.79221 0 rlineto
1 setlinewidth
0.8 0.8 0.8 setrgbcolor
stroke
293.182 375.714 moveto
7.79221 0 rlineto
1 setlinewidth
0.8 0.8 0.8 setrgbcolor
stroke
308.766 375.714 moveto
7.79221 0 rlineto
1 setlinewidth
0.8 0.8 0.8 setrgbcolor
stroke
324.351 375.714 moveto
7.79221 0 rlineto
1 setlinewidth
0.8 0.8 0.8 setrgbcolor
stroke
339.935 375.714 moveto
7.79221 0 rlineto
1 setlinewidth
0.8 0.8 0.8 setrgbcolor
stroke
355.519 375.714 moveto
7.79221 0 rlineto
1 setlinewidth
0.8 0.8 0.8 setrgbcolor
stroke
371.104 375.714 moveto
7.79221 0 rlineto
1 setlinewidth
0.8 0.8 0.8 setrgbcolor
stroke
386.688 375.714 moveto
7.79221 0 rlineto
1 setlinewidth
0.8 0.8 0.8 setrgbcolor
stroke
402.273 375.714 moveto
7.79221 0 rlineto
1 setlinewidth
0.8 0.8 0.8 setrgbcolor
stroke
417.857 375.714 moveto
7.79221 0 rlineto
1 setlinewidth
0.8 0.8 0.8 setrgbcolor
stroke
433.442 375.714 moveto
7.79221 0 rlineto
1 setlinewidth
0.8 0.8 0.8 setrgbcolor
stroke
449.026 375.714 moveto
7.79221 0 rlineto
1 setlinewidth
0.8 0.8 0.8 setrgbcolor
stroke
464.61 375.714 moveto
7.79221 0 rlineto
1 setlinewidth
0.8 0.8 0.8 setrgbcolor
stroke
480.195 375.714 moveto
7.79221 0 rlineto
1 setlinewidth
0.8 0.8 0.8 setrgbcolor
stroke
495.779 375.714 moveto
7.79221 0 rlineto
1 setlinewidth
0.8 0.8 0.8 setrgbcolor
stroke
511.364 375.714 moveto
7.79221 0 rlineto
1 setlinewidth
0.8 0.8 0.8 setrgbcolor
stroke
526.948 375.714 moveto
7.79221 0 rlineto
1 setlinewidth
0.8 0.8 0.8 setrgbcolor
stroke
542.532 375.714 moveto
7.79221 0 rlineto
1 setlinewidth
0.8 0.8 0.8 setrgbcolor
stroke
558.117 375.714 moveto
7.79221 0 rlineto
1 setlinewidth
0.8 0.8 0.8 setrgbcolor
stroke
573.701 375.714 moveto
7.79221 0 rlineto
1 setlinewidth
0.8 0.8 0.8 setrgbcolor
stroke
589.286 375.714 moveto
7.79221 0 rlineto
1 setlinewidth
0.8 0.8 0.8 setrgbcolor
stroke
604.87 375.714 moveto
7.79221 0 rlineto
1 setlinewidth
0.8 0.8 0.8 setrgbcolor
stroke
620.455 375.714 moveto
7.79221 0 rlineto
1 setlinewidth
0.8 0.8 0.8 setrgbcolor
stroke
636.039 375.714 moveto
7.79221 0 rlineto
1 setlinewidth
0.8 0.8 0.8 setrgbcolor
stroke
651.623 375.714 moveto
7.79221 0 rlineto
1 setlinewidth
0.8 0.8 0.8 setrgbcolor
stroke
667.208 375.714 moveto
7.79221 0 rlineto
1 setlinewidth
0.8 0.8 0.8 setrgbcolor
stroke
75 447.143 moveto
75 447.143 moveto
7.79221 0 rlineto
1 setlinewidth
0.8 0.8 0.8 setrgbcolor
stroke
90.5844 447.143 moveto
7.79221 0 rlineto
1 setlinewidth
0.8 0.8 0.8 setrgbcolor
stroke
106.169 447.143 moveto
7.79221 0 rlineto
1 setlinewidth
0.8 0.8 0.8 setrgbcolor
stroke
121.753 447.143 moveto
7.79221 0 rlineto
1 setlinewidth
0.8 0.8 0.8 setrgbcolor
stroke
137.338 447.143 moveto
7.79221 0 rlineto
1 setlinewidth
0.8 0.8 0.8 setrgbcolor
stroke
152.922 447.143 moveto
7.79221 0 rlineto
1 setlinewidth
0.8 0.8 0.8 setrgbcolor
stroke
168.506 447.143 moveto
7.79221 0 rlineto
1 setlinewidth
0.8 0.8 0.8 setrgbcolor
stroke
184.091 447.143 moveto
7.79221 0 rlineto
1 setlinewidth
0.8 0.8 0.8 setrgbcolor
stroke
199.675 447.143 moveto
7.79221 0 rlineto
1 setlinewidth
0.8 0.8 0.8 setrgbcolor
stroke
215.26 447.143 moveto
7.79221 0 rlineto
1 setlinewidth
0.8 0.8 0.8 setrgbcolor
stroke
230.844 447.143 moveto
7.79221 0 rlineto
1 setlinewidth
0.8 0.8 0.8 setrgbcolor
stroke
246.429 447.143 moveto
7.79221 0 rlineto
1 setlinewidth
0.8 0.8 0.8 setrgbcolor
stroke
262.013 447.143 moveto
7.79221 0 rlineto
1 setlinewidth
0.8 0.8 0.8 setrgbcolor
stroke
277.597 447.143 moveto
7.79221 0 rlineto
1 setlinewidth
0.8 0.8 0.8 setrgbcolor
stroke
293.182 447.143 moveto
7.79221 0 rlineto
1 setlinewidth
0.8 0.8 0.8 setrgbcolor
stroke
308.766 447.143 moveto
7.79221 0 rlineto
1 setlinewidth
0.8 0.8 0.8 setrgbcolor
stroke
324.351 447.143 moveto
7.79221 0 rlineto
1 setlinewidth
0.8 0.8 0.8 setrgbcolor
stroke
339.935 447.143 moveto
7.79221 0 rlineto
1 setlinewidth
0.8 0.8 0.8 setrgbcolor
stroke
355.519 447.143 moveto
7.79221 0 rlineto
1 setlinewidth
0.8 0.8 0.8 setrgbcolor
stroke
371.104 447.143 moveto
7.79221 0 rlineto
1 setlinewidth
0.8 0.8 0.8 setrgbcolor
stroke
386.688 447.143 moveto
7.79221 0 rlineto
1 setlinewidth
0.8 0.8 0.8 setrgbcolor
stroke
402.273 447.143 moveto
7.79221 0 rlineto
1 setlinewidth
0.8 0.8 0.8 setrgbcolor
stroke
417.857 447.143 moveto
7.79221 0 rlineto
1 setlinewidth
0.8 0.8 0.8 setrgbcolor
stroke
433.442 447.143 moveto
7.79221 0 rlineto
1 setlinewidth
0.8 0.8 0.8 setrgbcolor
stroke
449.026 447.143 moveto
7.79221 0 rlineto
1 setlinewidth
0.8 0.8 0.8 setrgbcolor
stroke
464.61 447.143 moveto
7.79221 0 rlineto
1 setlinewidth
0.8 0.8 0.8 setrgbcolor
stroke
480.195 447.143 moveto
7.79221 0 rlineto
1 setlinewidth
0.8 0.8 0.8 setrgbcolor
stroke
495.779 447.143 moveto
7.79221 0 rlineto
1 setlinewidth
0.8 0.8 0.8 setrgbcolor
stroke
511.364 447.143 moveto
7.79221 0 rlineto
1 setlinewidth
0.8 0.8 0.8 setrgbcolor
stroke
526.948 447.143 moveto
7.79221 0 rlineto
1 setlinewidth
0.8 0.8 0.8 setrgbcolor
stroke
542.532 447.143 moveto
7.79221 0 rlineto
1 setlinewidth
0.8 0.8 0.8 setrgbcolor
stroke
558.117 447.143 moveto
7.79221 0 rlineto
1 setlinewidth
0.8 0.8 0.8 setrgbcolor
stroke
573.701 447.143 moveto
7.79221 0 rlineto
1 setlinewidth
0.8 0.8 0.8 setrgbcolor
stroke
589.286 447.143 moveto
7.79221 0 rlineto
1 setlinewidth
0.8 0.8 0.8 setrgbcolor
stroke
604.87 447.143 moveto
7.79221 0 rlineto
1 setlinewidth
0.8 0.8 0.8 setrgbcolor
stroke
620.455 447.143 moveto
7.79221 0 rlineto
1 setlinewidth
0.8 0.8 0.8 setrgbcolor
stroke
636.039 447.143 moveto
7.79221 0 rlineto
1 setlinewidth
0.8 0.8 0.8 setrgbcolor
stroke
651.623 447.143 moveto
7.79221 0 rlineto
1 setlinewidth
0.8 0.8 0.8 setrgbcolor
stroke
667.208 447.143 moveto
7.79221 0 rlineto
1 setlinewidth
0.8 0.8 0.8 setrgbcolor
stroke
75 518.571 moveto
75 518.571 moveto
7.79221 0 rlineto
1 setlinewidth
0.8 0.8 0.8 setrgbcolor
stroke
90.5844 518.571 moveto
7.79221 0 rlineto
1 setlinewidth
0.8 0.8 0.8 setrgbcolor
stroke
106.169 518.571 moveto
7.79221 0 rlineto
1 setlinewidth
0.8 0.8 0.8 setrgbcolor
stroke
121.753 518.571 moveto
7.79221 0 rlineto
1 setlinewidth
0.8 0.8 0.8 setrgbcolor
stroke
137.338 518.571 moveto
7.79221 0 rlineto
1 setlinewidth
0.8 0.8 0.8 setrgbcolor
stroke
152.922 518.571 moveto
7.79221 0 rlineto
1 setlinewidth
0.8 0.8 0.8 setrgbcolor
stroke
168.506 518.571 moveto
7.79221 0 rlineto
1 setlinewidth
0.8 0.8 0.8 setrgbcolor
stroke
184.091 518.571 moveto
7.79221 0 rlineto
1 setlinewidth
0.8 0.8 0.8 setrgbcolor
stroke
199.675 518.571 moveto
7.79221 0 rlineto
1 setlinewidth
0.8 0.8 0.8 setrgbcolor
stroke
215.26 518.571 moveto
7.79221 0 rlineto
1 setlinewidth
0.8 0.8 0.8 setrgbcolor
stroke
230.844 518.571 moveto
7.79221 0 rlineto
1 setlinewidth
0.8 0.8 0.8 setrgbcolor
stroke
246.429 518.571 moveto
7.79221 0 rlineto
1 setlinewidth
0.8 0.8 0.8 setrgbcolor
stroke
262.013 518.571 moveto
7.79221 0 rlineto
1 setlinewidth
0.8 0.8 0.8 setrgbcolor
stroke
277.597 518.571 moveto
7.79221 0 rlineto
1 setlinewidth
0.8 0.8 0.8 setrgbcolor
stroke
293.182 518.571 moveto
7.79221 0 rlineto
1 setlinewidth
0.8 0.8 0.8 setrgbcolor
stroke
308.766 518.571 moveto
7.79221 0 rlineto
1 setlinewidth
0.8 0.8 0.8 setrgbcolor
stroke
324.351 518.571 moveto
7.79221 0 rlineto
1 setlinewidth
0.8 0.8 0.8 setrgbcolor
stroke
339.935 518.571 moveto
7.79221 0 rlineto
1 setlinewidth
0.8 0.8 0.8 setrgbcolor
stroke
355.519 518.571 moveto
7.79221 0 rlineto
1 setlinewidth
0.8 0.8 0.8 setrgbcolor
stroke
371.104 518.571 moveto
7.79221 0 rlineto
1 setlinewidth
0.8 0.8 0.8 setrgbcolor
stroke
386.688 518.571 moveto
7.79221 0 rlineto
1 setlinewidth
0.8 0.8 0.8 setrgbcolor
stroke
402.273 518.571 moveto
7.79221 0 rlineto
1 setlinewidth
0.8 0.8 0.8 setrgbcolor
stroke
417.857 518.571 moveto
7.79221 0 rlineto
1 setlinewidth
0.8 0.8 0.8 setrgbcolor
stroke
433.442 518.571 moveto
7.79221 0 rlineto
1 setlinewidth
0.8 0.8 0.8 setrgbcolor
stroke
449.026 518.571 moveto
7.79221 0 rlineto
1 setlinewidth
0.8 0.8 0.8 setrgbcolor
stroke
464.61 518.571 moveto
7.79221 0 rlineto
1 setlinewidth
0.8 0.8 0.8 setrgbcolor
stroke
480.195 518.571 moveto
7.79221 0 rlineto
1 setlinewidth
0.8 0.8 0.8 setrgbcolor
stroke
495.779 518.571 moveto
7.79221 0 rlineto
1 setlinewidth
0.8 0.8 0.8 setrgbcolor
stroke
511.364 518.571 moveto
7.79221 0 rlineto
1 setlinewidth
0.8 0.8 0.8 setrgbcolor
stroke
526.948 518.571 moveto
7.79221 0 rlineto
1 setlinewidth
0.8 0.8 0.8 setrgbcolor
stroke
542.532 518.571 moveto
7.79221 0 rlineto
1 setlinewidth
0.8 0.8 0.8 setrgbcolor
stroke
558.117 518.571 moveto
7.79221 0 rlineto
1 setlinewidth
0.8 0.8 0.8 setrgbcolor
stroke
573.701 518.571 moveto
7.79221 0 rlineto
1 setlinewidth
0.8 0.8 0.8 setrgbcolor
stroke
589.286 518.571 moveto
7.79221 0 rlineto
1 setlinewidth
0.8 0.8 0.8 setrgbcolor
stroke
604.87 518.571 moveto
7.79221 0 rlineto
1 setlinewidth
0.8 0.8 0.8 setrgbcolor
stroke
620.455 518.571 moveto
7.79221 0 rlineto
1 setlinewidth
0.8 0.8 0.8 setrgbcolor
stroke
636.039 518.571 moveto
7.79221 0 rlineto
1 setlinewidth
0.8 0.8 0.8 setrgbcolor
stroke
651.623 518.571 moveto
7.79221 0 rlineto
1 setlinewidth
0.8 0.8 0.8 setrgbcolor
stroke
667.208 518.571 moveto
7.79221 0 rlineto
1 setlinewidth
0.8 0.8 0.8 setrgbcolor
stroke
75 590 moveto
75 590 moveto
7.79221 0 rlineto
1 setlinewidth
0.8 0.8 0.8 setrgbcolor
stroke
90.5844 590 moveto
7.79221 0 rlineto
1 setlinewidth
0.8 0.8 0.8 setrgbcolor
stroke
106.169 590 moveto
7.79221 0 rlineto
1 setlinewidth
0.8 0.8 0.8 setrgbcolor
stroke
121.753 590 moveto
7.79221 0 rlineto
1 setlinewidth
0.8 0.8 0.8 setrgbcolor
stroke
137.338 590 moveto
7.79221 0 rlineto
1 setlinewidth
0.8 0.8 0.8 setrgbcolor
stroke
152.922 590 moveto
7.79221 0 rlineto
1 setlinewidth
0.8 0.8 0.8 setrgbcolor
stroke
168.506 590 moveto
7.79221 0 rlineto
1 setlinewidth
0.8 0.8 0.8 setrgbcolor
stroke
184.091 590 moveto
7.79221 0 rlineto
1 setlinewidth
0.8 0.8 0.8 setrgbcolor
stroke
199.675 590 moveto
7.79221 0 rlineto
1 setlinewidth
0.8 0.8 0.8 setrgbcolor
stroke
215.26 590 moveto
7.79221 0 rlineto
1 setlinewidth
0.8 0.8 0.8 setrgbcolor
stroke
230.844 590 moveto
7.79221 0 rlineto
1 setlinewidth
0.8 0.8 0.8 setrgbcolor
stroke
246.429 590 moveto
7.79221 0 rlineto
1 setlinewidth
0.8 0.8 0.8 setrgbcolor
stroke
262.013 590 moveto
7.79221 0 rlineto
1 setlinewidth
0.8 0.8 0.8 setrgbcolor
stroke
277.597 590 moveto
7.79221 0 rlineto
1 setlinewidth
0.8 0.8 0.8 setrgbcolor
stroke
293.182 590 moveto
7.79221 0 rlineto
1 setlinewidth
0.8 0.8 0.8 setrgbcolor
stroke
308.766 590 moveto
7.79221 0 rlineto
1 setlinewidth
0.8 0.8 0.8 setrgbcolor
stroke
324.351 590 moveto
7.79221 0 rlineto
1 setlinewidth
0.8 0.8 0.8 setrgbcolor
stroke
339.935 590 moveto
7.79221 0 rlineto
1 setlinewidth
0.8 0.8 0.8 setrgbcolor
stroke
355.519 590 moveto
7.79221 0 rlineto
1 setlinewidth
0.8 0.8 0.8 setrgbcolor
stroke
371.104 590 moveto
7.79221 0 rlineto
1 setlinewidth
0.8 0.8 0.8 setrgbcolor
stroke
386.688 590 moveto
7.79221 0 rlineto
1 setlinewidth
0.8 0.8 0.8 setrgbcolor
stroke
402.273 590 moveto
7.79221 0 rlineto
1 setlinewidth
0.8 0.8 0.8 setrgbcolor
stroke
417.857 590 moveto
7.79221 0 rlineto
1 setlinewidth
0.8 0.8 0.8 setrgbcolor
stroke
433.442 590 moveto
7.79221 0 rlineto
1 setlinewidth
0.8 0.8 0.8 setrgbcolor
stroke
449.026 590 moveto
7.79221 0 rlineto
1 setlinewidth
0.8 0.8 0.8 setrgbcolor
stroke
464.61 590 moveto
7.79221 0 rlineto
1 setlinewidth
0.8 0.8 0.8 setrgbcolor
stroke
480.195 590 moveto
7.79221 0 rlineto
1 setlinewidth
0.8 0.8 0.8 setrgbcolor
stroke
495.779 590 moveto
7.79221 0 rlineto
1 setlinewidth
0.8 0.8 0.8 setrgbcolor
stroke
511.364 590 moveto
7.79221 0 rlineto
1 setlinewidth
0.8 0.8 0.8 setrgbcolor
stroke
526.948 590 moveto
7.79221 0 rlineto
1 setlinewidth
0.8 0.8 0.8 setrgbcolor
stroke
542.532 590 moveto
7.79221 0 rlineto
1 setlinewidth
0.8 0.8 0.8 setrgbcolor
stroke
558.117 590 moveto
7.79221 0 rlineto
1 setlinewidth
0.8 0.8 0.8 setrgbcolor
stroke
573.701 590 moveto
7.79221 0 rlineto
1 setlinewidth
0.8 0.8 0.8 setrgbcolor
stroke
589.286 590 moveto
7.79221 0 rlineto
1 setlinewidth
0.8 0.8 0.8 setrgbcolor
stroke
604.87 590 moveto
7.79221 0 rlineto
1 setlinewidth
0.8 0.8 0.8 setrgbcolor
stroke
620.455 590 moveto
7.79221 0 rlineto
1 setlinewidth
0.8 0.8 0.8 setrgbcolor
stroke
636.039 590 moveto
7.79221 0 rlineto
1 setlinewidth
0.8 0.8 0.8 setrgbcolor
stroke
651.623 590 moveto
7.79221 0 rlineto
1 setlinewidth
0.8 0.8 0.8 setrgbcolor
stroke
667.208 590 moveto
7.79221 0 rlineto
1 setlinewidth
0.8 0.8 0.8 setrgbcolor
stroke
newpath
75 90 moveto
600 0 rlineto
0 500 rlineto
-600 0 rlineto
closepath
1 setlinewidth
0 0 0 setrgbcolor
stroke
/Times findfont
16 scalefont
setfont
375 600 moveto
0 0 0 setrgbcolor
( Histogram of rlnAccumMotionEarly) dup stringwidth pop 2 div neg 0 rmoveto show
75 90 moveto
0 7.81025 rlineto
1 setlinewidth
0 0 0 setrgbcolor
stroke
160.714 90 moveto
0 7.81025 rlineto
1 setlinewidth
0 0 0 setrgbcolor
stroke
246.429 90 moveto
0 7.81025 rlineto
1 setlinewidth
0 0 0 setrgbcolor
stroke
332.143 90 moveto
0 7.81025 rlineto
1 setlinewidth
0 0 0 setrgbcolor
stroke
417.857 90 moveto
0 7.81025 rlineto
1 setlinewidth
0 0 0 setrgbcolor
stroke
503.571 90 moveto
0 7.81025 rlineto
1 setlinewidth
0 0 0 setrgbcolor
stroke
589.286 90 moveto
0 7.81025 rlineto
1 setlinewidth
0 0 0 setrgbcolor
stroke
675 90 moveto
0 7.81025 rlineto
1 setlinewidth
0 0 0 setrgbcolor
stroke
75 90 moveto
7.81025 0 rlineto
1 setlinewidth
0 0 0 setrgbcolor
stroke
75 161.429 moveto
7.81025 0 rlineto
1 setlinewidth
0 0 0 setrgbcolor
stroke
75 232.857 moveto
7.81025 0 rlineto
1 setlinewidth
0 0 0 setrgbcolor
stroke
75 304.286 moveto
7.81025 0 rlineto
1 setlinewidth
0 0 0 setrgbcolor
stroke
75 375.714 moveto
7.81025 0 rlineto
1 setlinewidth
0 0 0 setrgbcolor
stroke
75 447.143 moveto
7.81025 0 rlineto
1 setlinewidth
0 0 0 setrgbcolor
stroke
75 518.571 moveto
7.81025 0 rlineto
1 setlinewidth
0 0 0 setrgbcolor
stroke
75 590 moveto
7.81025 0 rlineto
1 setlinewidth
0 0 0 setrgbcolor
stroke
/Times findfont
12 scalefont
setfont
75 75 moveto
0 0 0 setrgbcolor
(0.5) dup stringwidth pop 2 div neg 0 rmoveto show
/Times findfont
12 scalefont
setfont
160.714 75 moveto
0 0 0 setrgbcolor
(1.0) dup stringwidth pop 2 div neg 0 rmoveto show
/Times findfont
12 scalefont
setfont
246.429 75 moveto
0 0 0 setrgbcolor
(1.5) dup stringwidth pop 2 div neg 0 rmoveto show
/Times findfont
12 scalefont
setfont
332.143 75 moveto
0 0 0 setrgbcolor
(2.0) dup stringwidth pop 2 div neg 0 rmoveto show
/Times findfont
12 scalefont
setfont
417.857 75 moveto
0 0 0 setrgbcolor
(2.5) dup stringwidth pop 2 div neg 0 rmoveto show
/Times findfont
12 scalefont
setfont
503.571 75 moveto
0 0 0 setrgbcolor
(3.0) dup stringwidth pop 2 div neg 0 rmoveto show
/Times findfont
12 scalefont
setfont
589.286 75 moveto
0 0 0 setrgbcolor
(3.5) dup stringwidth pop 2 div neg 0 rmoveto show
/Times findfont
12 scalefont
setfont
675 75 moveto
0 0 0 setrgbcolor
(4.0) dup stringwidth pop 2 div neg 0 rmoveto show
/Times findfont
12 scalefont
setfont
69 87 moveto
0 0 0 setrgbcolor
(0) dup stringwidth pop neg 0 rmoveto show
/Times findfont
12 scalefont
setfont
69 158.429 moveto
0 0 0 setrgbcolor
(1) dup stringwidth pop neg 0 rmoveto show
/Times findfont
12 scalefont
setfont
69 229.857 moveto
0 0 0 setrgbcolor
(2) dup stringwidth pop neg 0 rmoveto show
/Times findfont
12 scalefont
setfont
69 301.286 moveto
0 0 0 setrgbcolor
(3) dup stringwidth pop neg 0 rmoveto show
/Times findfont
12 scalefont
setfont
69 372.714 moveto
0 0 0 setrgbcolor
(4) dup stringwidth pop neg 0 rmoveto show
/Times findfont
12 scalefont
setfont
69 444.143 moveto
0 0 0 setrgbcolor
(5) dup stringwidth pop neg 0 rmoveto show
/Times findfont
12 scalefont
setfont
69 515.571 moveto
0 0 0 setrgbcolor
(6) dup stringwidth pop neg 0 rmoveto show
/Times findfont
12 scalefont
setfont
69 587 moveto
0 0 0 setrgbcolor
(7) dup stringwidth pop neg 0 rmoveto show
/Times findfont
16 scalefont
setfont
375 58 moveto
0 0 0 setrgbcolor
(rlnAccumMotionEarly) dup stringwidth pop 2 div neg 0 rmoveto show
/Times findfont
16 scalefont
setfont
26 340 moveto
90 rotate
0 0 0 setrgbcolor
(# entries) dup stringwidth pop 2 div neg 0 rmoveto show
-90 rotate
newpath
79.6629 90 moveto
79.6629 90 lineto
123.117 90 lineto
123.117 90 lineto
123.117 90 lineto
123.117 304.286 lineto
166.572 304.286 lineto
166.572 90 lineto
166.572 90 lineto
166.572 375.714 lineto
210.026 375.714 lineto
210.026 90 lineto
210.026 90 lineto
210.026 590 lineto
253.48 590 lineto
253.48 90 lineto
253.48 90 lineto
253.48 304.286 lineto
296.935 304.286 lineto
296.935 90 lineto
296.935 90 lineto
296.935 304.286 lineto
340.389 304.286 lineto
340.389 90 lineto
340.389 90 lineto
340.389 90 lineto
383.843 90 lineto
383.843 90 lineto
383.843 90 lineto
383.843 232.857 lineto
427.298 232.857 lineto
427.298 90 lineto
427.298 90 lineto
427.298 90 lineto
470.752 90 lineto
470.752 90 lineto
470.752 90 lineto
470.752 90 lineto
514.206 90 lineto
514.206 90 lineto
514.206 90 lineto
514.206 90 lineto
557.661 90 lineto
557.661 90 lineto
557.661 90 lineto
557.661 90 lineto
601.115 90 lineto
601.115 90 lineto
601.115 90 lineto
601.115 161.429 lineto
644.569 161.429 lineto
644.569 90 lineto
1 setlinewidth
1 0 0 setrgbcolor
stroke
