%!PS-Adobe-2.0 EPSF-1.2
%%BoundingBox: 0 0 715 630
%%Pages: 1
%%EndComments
75 90 moveto
75 90 moveto
0 7.69231 rlineto
1 setlinewidth
0.8 0.8 0.8 setrgbcolor
stroke
75 105.385 moveto
0 7.69231 rlineto
1 setlinewidth
0.8 0.8 0.8 setrgbcolor
stroke
75 120.769 moveto
0 7.69231 rlineto
1 setlinewidth
0.8 0.8 0.8 setrgbcolor
stroke
75 136.154 moveto
0 7.69231 rlineto
1 setlinewidth
0.8 0.8 0.8 setrgbcolor
stroke
75 151.538 moveto
0 7.69231 rlineto
1 setlinewidth
0.8 0.8 0.8 setrgbcolor
stroke
75 166.923 moveto
0 7.69231 rlineto
1 setlinewidth
0.8 0.8 0.8 setrgbcolor
stroke
75 182.308 moveto
0 7.69231 rlineto
1 setlinewidth
0.8 0.8 0.8 setrgbcolor
stroke
75 197.692 moveto
0 7.69231 rlineto
1 setlinewidth
0.8 0.8 0.8 setrgbcolor
stroke
75 213.077 moveto
0 7.69231 rlineto
1 setlinewidth
0.8 0.8 0.8 setrgbcolor
stroke
75 228.462 moveto
0 7.69231 rlineto
1 setlinewidth
0.8 0.8 0.8 setrgbcolor
stroke
75 243.846 moveto
0 7.69231 rlineto
1 setlinewidth
0.8 0.8 0.8 setrgbcolor
stroke
75 259.231 moveto
0 7.69231 rlineto
1 setlinewidth
0.8 0.8 0.8 setrgbcolor
stroke
75 274.615 moveto
0 7.69231 rlineto
1 setlinewidth
0.8 0.8 0.8 setrgbcolor
stroke
75 290 moveto
0 7.69231 rlineto
1 setlinewidth
0.8 0.8 0.8 setrgbcolor
stroke
75 305.385 moveto
0 7.69231 rlineto
1 setlinewidth
0.8 0.8 0.8 setrgbcolor
stroke
75 320.769 moveto
0 7.69231 rlineto
1 setlinewidth
0.8 0.8 0.8 setrgbcolor
stroke
75 336.154 moveto
0 7.69231 rlineto
1 setlinewidth
0.8 0.8 0.8 setrgbcolor
stroke
75 351.538 moveto
0 7.69231 rlineto
1 setlinewidth
0.8 0.8 0.8 setrgbcolor
stroke
75 366.923 moveto
0 7.69231 rlineto
1 setlinewidth
0.8 0.8 0.8 setrgbcolor
stroke
75 382.308 moveto
0 7.69231 rlineto
1 setlinewidth
0.8 0.8 0.8 setrgbcolor
stroke
75 397.692 moveto
0 7.69231 rlineto
1 setlinewidth
0.8 0.8 0.8 setrgbcolor
stroke
75 413.077 moveto
0 7.69231 rlineto
1 setlinewidth
0.8 0.8 0.8 setrgbcolor
stroke
75 428.462 moveto
0 7.69231 rlineto
1 setlinewidth
0.8 0.8 0.8 setrgbcolor
stroke
75 443.846 moveto
0 7.69231 rlineto
1 setlinewidth
0.8 0.8 0.8 setrgbcolor
stroke
75 459.231 moveto
0 7.69231 rlineto
1 setlinewidth
0.8 0.8 0.8 setrgbcolor
stroke
75 474.615 moveto
0 7.69231 rlineto
1 setlinewidth
0.8 0.8 0.8 setrgbcolor
stroke
75 490 moveto
0 7.69231 rlineto
1 setlinewidth
0.8 0.8 0.8 setrgbcolor
stroke
75 505.385 moveto
0 7.69231 rlineto
1 setlinewidth
0.8 0.8 0.8 setrgbcolor
stroke
75 520.769 moveto
0 7.69231 rlineto
1 setlinewidth
0.8 0.8 0.8 setrgbcolor
stroke
75 536.154 moveto
0 7.69231 rlineto
1 setlinewidth
0.8 0.8 0.8 setrgbcolor
stroke
75 551.538 moveto
0 7.69231 rlineto
1 setlinewidth
0.8 0.8 0.8 setrgbcolor
stroke
75 566.923 moveto
0 7.69231 rlineto
1 setlinewidth
0.8 0.8 0.8 setrgbcolor
stroke
75 582.308 moveto
0 7.69231 rlineto
1 setlinewidth
0.8 0.8 0.8 setrgbcolor
stroke
160.714 90 moveto
160.714 90 moveto
0 7.69231 rlineto
1 setlinewidth
0.8 0.8 0.8 setrgbcolor
stroke
160.714 105.385 moveto
0 7.69231 rlineto
1 setlinewidth
0.8 0.8 0.8 setrgbcolor
stroke
160.714 120.769 moveto
0 7.69231 rlineto
1 setlinewidth
0.8 0.8 0.8 setrgbcolor
stroke
160.714 136.154 moveto
0 7.69231 rlineto
1 setlinewidth
0.8 0.8 0.8 setrgbcolor
stroke
160.714 151.538 moveto
0 7.69231 rlineto
1 setlinewidth
0.8 0.8 0.8 setrgbcolor
stroke
160.714 166.923 moveto
0 7.69231 rlineto
1 setlinewidth
0.8 0.8 0.8 setrgbcolor
stroke
160.714 182.308 moveto
0 7.69231 rlineto
1 setlinewidth
0.8 0.8 0.8 setrgbcolor
stroke
160.714 197.692 moveto
0 7.69231 rlineto
1 setlinewidth
0.8 0.8 0.8 setrgbcolor
stroke
160.714 213.077 moveto
0 7.69231 rlineto
1 setlinewidth
0.8 0.8 0.8 setrgbcolor
stroke
160.714 228.462 moveto
0 7.69231 rlineto
1 setlinewidth
0.8 0.8 0.8 setrgbcolor
stroke
160.714 243.846 moveto
0 7.69231 rlineto
1 setlinewidth
0.8 0.8 0.8 setrgbcolor
stroke
160.714 259.231 moveto
0 7.69231 rlineto
1 setlinewidth
0.8 0.8 0.8 setrgbcolor
stroke
160.714 274.615 moveto
0 7.69231 rlineto
1 setlinewidth
0.8 0.8 0.8 setrgbcolor
stroke
160.714 290 moveto
0 7.69231 rlineto
1 setlinewidth
0.8 0.8 0.8 setrgbcolor
stroke
160.714 305.385 moveto
0 7.69231 rlineto
1 setlinewidth
0.8 0.8 0.8 setrgbcolor
stroke
160.714 320.769 moveto
0 7.69231 rlineto
1 setlinewidth
0.8 0.8 0.8 setrgbcolor
stroke
160.714 336.154 moveto
0 7.69231 rlineto
1 setlinewidth
0.8 0.8 0.8 setrgbcolor
stroke
160.714 351.538 moveto
0 7.69231 rlineto
1 setlinewidth
0.8 0.8 0.8 setrgbcolor
stroke
160.714 366.923 moveto
0 7.69231 rlineto
1 setlinewidth
0.8 0.8 0.8 setrgbcolor
stroke
160.714 382.308 moveto
0 7.69231 rlineto
1 setlinewidth
0.8 0.8 0.8 setrgbcolor
stroke
160.714 397.692 moveto
0 7.69231 rlineto
1 setlinewidth
0.8 0.8 0.8 setrgbcolor
stroke
160.714 413.077 moveto
0 7.69231 rlineto
1 setlinewidth
0.8 0.8 0.8 setrgbcolor
stroke
160.714 428.462 moveto
0 7.69231 rlineto
1 setlinewidth
0.8 0.8 0.8 setrgbcolor
stroke
160.714 443.846 moveto
0 7.69231 rlineto
1 setlinewidth
0.8 0.8 0.8 setrgbcolor
stroke
160.714 459.231 moveto
0 7.69231 rlineto
1 setlinewidth
0.8 0.8 0.8 setrgbcolor
stroke
160.714 474.615 moveto
0 7.69231 rlineto
1 setlinewidth
0.8 0.8 0.8 setrgbcolor
stroke
160.714 490 moveto
0 7.69231 rlineto
1 setlinewidth
0.8 0.8 0.8 setrgbcolor
stroke
160.714 505.385 moveto
0 7.69231 rlineto
1 setlinewidth
0.8 0.8 0.8 setrgbcolor
stroke
160.714 520.769 moveto
0 7.69231 rlineto
1 setlinewidth
0.8 0.8 0.8 setrgbcolor
stroke
160.714 536.154 moveto
0 7.69231 rlineto
1 setlinewidth
0.8 0.8 0.8 setrgbcolor
stroke
160.714 551.538 moveto
0 7.69231 rlineto
1 setlinewidth
0.8 0.8 0.8 setrgbcolor
stroke
160.714 566.923 moveto
0 7.69231 rlineto
1 setlinewidth
0.8 0.8 0.8 setrgbcolor
stroke
160.714 582.308 moveto
0 7.69231 rlineto
1 setlinewidth
0.8 0.8 0.8 setrgbcolor
stroke
246.429 90 moveto
246.429 90 moveto
0 7.69231 rlineto
1 setlinewidth
0.8 0.8 0.8 setrgbcolor
stroke
246.429 105.385 moveto
0 7.69231 rlineto
1 setlinewidth
0.8 0.8 0.8 setrgbcolor
stroke
246.429 120.769 moveto
0 7.69231 rlineto
1 setlinewidth
0.8 0.8 0.8 setrgbcolor
stroke
246.429 136.154 moveto
0 7.69231 rlineto
1 setlinewidth
0.8 0.8 0.8 setrgbcolor
stroke
246.429 151.538 moveto
0 7.69231 rlineto
1 setlinewidth
0.8 0.8 0.8 setrgbcolor
stroke
246.429 166.923 moveto
0 7.69231 rlineto
1 setlinewidth
0.8 0.8 0.8 setrgbcolor
stroke
246.429 182.308 moveto
0 7.69231 rlineto
1 setlinewidth
0.8 0.8 0.8 setrgbcolor
stroke
246.429 197.692 moveto
0 7.69231 rlineto
1 setlinewidth
0.8 0.8 0.8 setrgbcolor
stroke
246.429 213.077 moveto
0 7.69231 rlineto
1 setlinewidth
0.8 0.8 0.8 setrgbcolor
stroke
246.429 228.462 moveto
0 7.69231 rlineto
1 setlinewidth
0.8 0.8 0.8 setrgbcolor
stroke
246.429 243.846 moveto
0 7.69231 rlineto
1 setlinewidth
0.8 0.8 0.8 setrgbcolor
stroke
246.429 259.231 moveto
0 7.69231 rlineto
1 setlinewidth
0.8 0.8 0.8 setrgbcolor
stroke
246.429 274.615 moveto
0 7.69231 rlineto
1 setlinewidth
0.8 0.8 0.8 setrgbcolor
stroke
246.429 290 moveto
0 7.69231 rlineto
1 setlinewidth
0.8 0.8 0.8 setrgbcolor
stroke
246.429 305.385 moveto
0 7.69231 rlineto
1 setlinewidth
0.8 0.8 0.8 setrgbcolor
stroke
246.429 320.769 moveto
0 7.69231 rlineto
1 setlinewidth
0.8 0.8 0.8 setrgbcolor
stroke
246.429 336.154 moveto
0 7.69231 rlineto
1 setlinewidth
0.8 0.8 0.8 setrgbcolor
stroke
246.429 351.538 moveto
0 7.69231 rlineto
1 setlinewidth
0.8 0.8 0.8 setrgbcolor
stroke
246.429 366.923 moveto
0 7.69231 rlineto
1 setlinewidth
0.8 0.8 0.8 setrgbcolor
stroke
246.429 382.308 moveto
0 7.69231 rlineto
1 setlinewidth
0.8 0.8 0.8 setrgbcolor
stroke
246.429 397.692 moveto
0 7.69231 rlineto
1 setlinewidth
0.8 0.8 0.8 setrgbcolor
stroke
246.429 413.077 moveto
0 7.69231 rlineto
1 setlinewidth
0.8 0.8 0.8 setrgbcolor
stroke
246.429 428.462 moveto
0 7.69231 rlineto
1 setlinewidth
0.8 0.8 0.8 setrgbcolor
stroke
246.429 443.846 moveto
0 7.69231 rlineto
1 setlinewidth
0.8 0.8 0.8 setrgbcolor
stroke
246.429 459.231 moveto
0 7.69231 rlineto
1 setlinewidth
0.8 0.8 0.8 setrgbcolor
stroke
246.429 474.615 moveto
0 7.69231 rlineto
1 setlinewidth
0.8 0.8 0.8 setrgbcolor
stroke
246.429 490 moveto
0 7.69231 rlineto
1 setlinewidth
0.8 0.8 0.8 setrgbcolor
stroke
246.429 505.385 moveto
0 7.69231 rlineto
1 setlinewidth
0.8 0.8 0.8 setrgbcolor
stroke
246.429 520.769 moveto
0 7.69231 rlineto
1 setlinewidth
0.8 0.8 0.8 setrgbcolor
stroke
246.429 536.154 moveto
0 7.69231 rlineto
1 setlinewidth
0.8 0.8 0.8 setrgbcolor
stroke
246.429 551.538 moveto
0 7.69231 rlineto
1 setlinewidth
0.8 0.8 0.8 setrgbcolor
stroke
246.429 566.923 moveto
0 7.69231 rlineto
1 setlinewidth
0.8 0.8 0.8 setrgbcolor
stroke
246.429 582.308 moveto
0 7.69231 rlineto
1 setlinewidth
0.8 0.8 0.8 setrgbcolor
stroke
332.143 90 moveto
332.143 90 moveto
0 7.69231 rlineto
1 setlinewidth
0.8 0.8 0.8 setrgbcolor
stroke
332.143 105.385 moveto
0 7.69231 rlineto
1 setlinewidth
0.8 0.8 0.8 setrgbcolor
stroke
332.143 120.769 moveto
0 7.69231 rlineto
1 setlinewidth
0.8 0.8 0.8 setrgbcolor
stroke
332.143 136.154 moveto
0 7.69231 rlineto
1 setlinewidth
0.8 0.8 0.8 setrgbcolor
stroke
332.143 151.538 moveto
0 7.69231 rlineto
1 setlinewidth
0.8 0.8 0.8 setrgbcolor
stroke
332.143 166.923 moveto
0 7.69231 rlineto
1 setlinewidth
0.8 0.8 0.8 setrgbcolor
stroke
332.143 182.308 moveto
0 7.69231 rlineto
1 setlinewidth
0.8 0.8 0.8 setrgbcolor
stroke
332.143 197.692 moveto
0 7.69231 rlineto
1 setlinewidth
0.8 0.8 0.8 setrgbcolor
stroke
332.143 213.077 moveto
0 7.69231 rlineto
1 setlinewidth
0.8 0.8 0.8 setrgbcolor
stroke
332.143 228.462 moveto
0 7.69231 rlineto
1 setlinewidth
0.8 0.8 0.8 setrgbcolor
stroke
332.143 243.846 moveto
0 7.69231 rlineto
1 setlinewidth
0.8 0.8 0.8 setrgbcolor
stroke
332.143 259.231 moveto
0 7.69231 rlineto
1 setlinewidth
0.8 0.8 0.8 setrgbcolor
stroke
332.143 274.615 moveto
0 7.69231 rlineto
1 setlinewidth
0.8 0.8 0.8 setrgbcolor
stroke
332.143 290 moveto
0 7.69231 rlineto
1 setlinewidth
0.8 0.8 0.8 setrgbcolor
stroke
332.143 305.385 moveto
0 7.69231 rlineto
1 setlinewidth
0.8 0.8 0.8 setrgbcolor
stroke
332.143 320.769 moveto
0 7.69231 rlineto
1 setlinewidth
0.8 0.8 0.8 setrgbcolor
stroke
332.143 336.154 moveto
0 7.69231 rlineto
1 setlinewidth
0.8 0.8 0.8 setrgbcolor
stroke
332.143 351.538 moveto
0 7.69231 rlineto
1 setlinewidth
0.8 0.8 0.8 setrgbcolor
stroke
332.143 366.923 moveto
0 7.69231 rlineto
1 setlinewidth
0.8 0.8 0.8 setrgbcolor
stroke
332.143 382.308 moveto
0 7.69231 rlineto
1 setlinewidth
0.8 0.8 0.8 setrgbcolor
stroke
332.143 397.692 moveto
0 7.69231 rlineto
1 setlinewidth
0.8 0.8 0.8 setrgbcolor
stroke
332.143 413.077 moveto
0 7.69231 rlineto
1 setlinewidth
0.8 0.8 0.8 setrgbcolor
stroke
332.143 428.462 moveto
0 7.69231 rlineto
1 setlinewidth
0.8 0.8 0.8 setrgbcolor
stroke
332.143 443.846 moveto
0 7.69231 rlineto
1 setlinewidth
0.8 0.8 0.8 setrgbcolor
stroke
332.143 459.231 moveto
0 7.69231 rlineto
1 setlinewidth
0.8 0.8 0.8 setrgbcolor
stroke
332.143 474.615 moveto
0 7.69231 rlineto
1 setlinewidth
0.8 0.8 0.8 setrgbcolor
stroke
332.143 490 moveto
0 7.69231 rlineto
1 setlinewidth
0.8 0.8 0.8 setrgbcolor
stroke
332.143 505.385 moveto
0 7.69231 rlineto
1 setlinewidth
0.8 0.8 0.8 setrgbcolor
stroke
332.143 520.769 moveto
0 7.69231 rlineto
1 setlinewidth
0.8 0.8 0.8 setrgbcolor
stroke
332.143 536.154 moveto
0 7.69231 rlineto
1 setlinewidth
0.8 0.8 0.8 setrgbcolor
stroke
332.143 551.538 moveto
0 7.69231 rlineto
1 setlinewidth
0.8 0.8 0.8 setrgbcolor
stroke
332.143 566.923 moveto
0 7.69231 rlineto
1 setlinewidth
0.8 0.8 0.8 setrgbcolor
stroke
332.143 582.308 moveto
0 7.69231 rlineto
1 setlinewidth
0.8 0.8 0.8 setrgbcolor
stroke
417.857 90 moveto
417.857 90 moveto
0 7.69231 rlineto
1 setlinewidth
0.8 0.8 0.8 setrgbcolor
stroke
417.857 105.385 moveto
0 7.69231 rlineto
1 setlinewidth
0.8 0.8 0.8 setrgbcolor
stroke
417.857 120.769 moveto
0 7.69231 rlineto
1 setlinewidth
0.8 0.8 0.8 setrgbcolor
stroke
417.857 136.154 moveto
0 7.69231 rlineto
1 setlinewidth
0.8 0.8 0.8 setrgbcolor
stroke
417.857 151.538 moveto
0 7.69231 rlineto
1 setlinewidth
0.8 0.8 0.8 setrgbcolor
stroke
417.857 166.923 moveto
0 7.69231 rlineto
1 setlinewidth
0.8 0.8 0.8 setrgbcolor
stroke
417.857 182.308 moveto
0 7.69231 rlineto
1 setlinewidth
0.8 0.8 0.8 setrgbcolor
stroke
417.857 197.692 moveto
0 7.69231 rlineto
1 setlinewidth
0.8 0.8 0.8 setrgbcolor
stroke
417.857 213.077 moveto
0 7.69231 rlineto
1 setlinewidth
0.8 0.8 0.8 setrgbcolor
stroke
417.857 228.462 moveto
0 7.69231 rlineto
1 setlinewidth
0.8 0.8 0.8 setrgbcolor
stroke
417.857 243.846 moveto
0 7.69231 rlineto
1 setlinewidth
0.8 0.8 0.8 setrgbcolor
stroke
417.857 259.231 moveto
0 7.69231 rlineto
1 setlinewidth
0.8 0.8 0.8 setrgbcolor
stroke
417.857 274.615 moveto
0 7.69231 rlineto
1 setlinewidth
0.8 0.8 0.8 setrgbcolor
stroke
417.857 290 moveto
0 7.69231 rlineto
1 setlinewidth
0.8 0.8 0.8 setrgbcolor
stroke
417.857 305.385 moveto
0 7.69231 rlineto
1 setlinewidth
0.8 0.8 0.8 setrgbcolor
stroke
417.857 320.769 moveto
0 7.69231 rlineto
1 setlinewidth
0.8 0.8 0.8 setrgbcolor
stroke
417.857 336.154 moveto
0 7.69231 rlineto
1 setlinewidth
0.8 0.8 0.8 setrgbcolor
stroke
417.857 351.538 moveto
0 7.69231 rlineto
1 setlinewidth
0.8 0.8 0.8 setrgbcolor
stroke
417.857 366.923 moveto
0 7.69231 rlineto
1 setlinewidth
0.8 0.8 0.8 setrgbcolor
stroke
417.857 382.308 moveto
0 7.69231 rlineto
1 setlinewidth
0.8 0.8 0.8 setrgbcolor
stroke
417.857 397.692 moveto
0 7.69231 rlineto
1 setlinewidth
0.8 0.8 0.8 setrgbcolor
stroke
417.857 413.077 moveto
0 7.69231 rlineto
1 setlinewidth
0.8 0.8 0.8 setrgbcolor
stroke
417.857 428.462 moveto
0 7.69231 rlineto
1 setlinewidth
0.8 0.8 0.8 setrgbcolor
stroke
417.857 443.846 moveto
0 7.69231 rlineto
1 setlinewidth
0.8 0.8 0.8 setrgbcolor
stroke
417.857 459.231 moveto
0 7.69231 rlineto
1 setlinewidth
0.8 0.8 0.8 setrgbcolor
stroke
417.857 474.615 moveto
0 7.69231 rlineto
1 setlinewidth
0.8 0.8 0.8 setrgbcolor
stroke
417.857 490 moveto
0 7.69231 rlineto
1 setlinewidth
0.8 0.8 0.8 setrgbcolor
stroke
417.857 505.385 moveto
0 7.69231 rlineto
1 setlinewidth
0.8 0.8 0.8 setrgbcolor
stroke
417.857 520.769 moveto
0 7.69231 rlineto
1 setlinewidth
0.8 0.8 0.8 setrgbcolor
stroke
417.857 536.154 moveto
0 7.69231 rlineto
1 setlinewidth
0.8 0.8 0.8 setrgbcolor
stroke
417.857 551.538 moveto
0 7.69231 rlineto
1 setlinewidth
0.8 0.8 0.8 setrgbcolor
stroke
417.857 566.923 moveto
0 7.69231 rlineto
1 setlinewidth
0.8 0.8 0.8 setrgbcolor
stroke
417.857 582.308 moveto
0 7.69231 rlineto
1 setlinewidth
0.8 0.8 0.8 setrgbcolor
stroke
503.571 90 moveto
503.571 90 moveto
0 7.69231 rlineto
1 setlinewidth
0.8 0.8 0.8 setrgbcolor
stroke
503.571 105.385 moveto
0 7.69231 rlineto
1 setlinewidth
0.8 0.8 0.8 setrgbcolor
stroke
503.571 120.769 moveto
0 7.69231 rlineto
1 setlinewidth
0.8 0.8 0.8 setrgbcolor
stroke
503.571 136.154 moveto
0 7.69231 rlineto
1 setlinewidth
0.8 0.8 0.8 setrgbcolor
stroke
503.571 151.538 moveto
0 7.69231 rlineto
1 setlinewidth
0.8 0.8 0.8 setrgbcolor
stroke
503.571 166.923 moveto
0 7.69231 rlineto
1 setlinewidth
0.8 0.8 0.8 setrgbcolor
stroke
503.571 182.308 moveto
0 7.69231 rlineto
1 setlinewidth
0.8 0.8 0.8 setrgbcolor
stroke
503.571 197.692 moveto
0 7.69231 rlineto
1 setlinewidth
0.8 0.8 0.8 setrgbcolor
stroke
503.571 213.077 moveto
0 7.69231 rlineto
1 setlinewidth
0.8 0.8 0.8 setrgbcolor
stroke
503.571 228.462 moveto
0 7.69231 rlineto
1 setlinewidth
0.8 0.8 0.8 setrgbcolor
stroke
503.571 243.846 moveto
0 7.69231 rlineto
1 setlinewidth
0.8 0.8 0.8 setrgbcolor
stroke
503.571 259.231 moveto
0 7.69231 rlineto
1 setlinewidth
0.8 0.8 0.8 setrgbcolor
stroke
503.571 274.615 moveto
0 7.69231 rlineto
1 setlinewidth
0.8 0.8 0.8 setrgbcolor
stroke
503.571 290 moveto
0 7.69231 rlineto
1 setlinewidth
0.8 0.8 0.8 setrgbcolor
stroke
503.571 305.385 moveto
0 7.69231 rlineto
1 setlinewidth
0.8 0.8 0.8 setrgbcolor
stroke
503.571 320.769 moveto
0 7.69231 rlineto
1 setlinewidth
0.8 0.8 0.8 setrgbcolor
stroke
503.571 336.154 moveto
0 7.69231 rlineto
1 setlinewidth
0.8 0.8 0.8 setrgbcolor
stroke
503.571 351.538 moveto
0 7.69231 rlineto
1 setlinewidth
0.8 0.8 0.8 setrgbcolor
stroke
503.571 366.923 moveto
0 7.69231 rlineto
1 setlinewidth
0.8 0.8 0.8 setrgbcolor
stroke
503.571 382.308 moveto
0 7.69231 rlineto
1 setlinewidth
0.8 0.8 0.8 setrgbcolor
stroke
503.571 397.692 moveto
0 7.69231 rlineto
1 setlinewidth
0.8 0.8 0.8 setrgbcolor
stroke
503.571 413.077 moveto
0 7.69231 rlineto
1 setlinewidth
0.8 0.8 0.8 setrgbcolor
stroke
503.571 428.462 moveto
0 7.69231 rlineto
1 setlinewidth
0.8 0.8 0.8 setrgbcolor
stroke
503.571 443.846 moveto
0 7.69231 rlineto
1 setlinewidth
0.8 0.8 0.8 setrgbcolor
stroke
503.571 459.231 moveto
0 7.69231 rlineto
1 setlinewidth
0.8 0.8 0.8 setrgbcolor
stroke
503.571 474.615 moveto
0 7.69231 rlineto
1 setlinewidth
0.8 0.8 0.8 setrgbcolor
stroke
503.571 490 moveto
0 7.69231 rlineto
1 setlinewidth
0.8 0.8 0.8 setrgbcolor
stroke
503.571 505.385 moveto
0 7.69231 rlineto
1 setlinewidth
0.8 0.8 0.8 setrgbcolor
stroke
503.571 520.769 moveto
0 7.69231 rlineto
1 setlinewidth
0.8 0.8 0.8 setrgbcolor
stroke
503.571 536.154 moveto
0 7.69231 rlineto
1 setlinewidth
0.8 0.8 0.8 setrgbcolor
stroke
503.571 551.538 moveto
0 7.69231 rlineto
1 setlinewidth
0.8 0.8 0.8 setrgbcolor
stroke
503.571 566.923 moveto
0 7.69231 rlineto
1 setlinewidth
0.8 0.8 0.8 setrgbcolor
stroke
503.571 582.308 moveto
0 7.69231 rlineto
1 setlinewidth
0.8 0.8 0.8 setrgbcolor
stroke
589.286 90 moveto
589.286 90 moveto
0 7.69231 rlineto
1 setlinewidth
0.8 0.8 0.8 setrgbcolor
stroke
589.286 105.385 moveto
0 7.69231 rlineto
1 setlinewidth
0.8 0.8 0.8 setrgbcolor
stroke
589.286 120.769 moveto
0 7.69231 rlineto
1 setlinewidth
0.8 0.8 0.8 setrgbcolor
stroke
589.286 136.154 moveto
0 7.69231 rlineto
1 setlinewidth
0.8 0.8 0.8 setrgbcolor
stroke
589.286 151.538 moveto
0 7.69231 rlineto
1 setlinewidth
0.8 0.8 0.8 setrgbcolor
stroke
589.286 166.923 moveto
0 7.69231 rlineto
1 setlinewidth
0.8 0.8 0.8 setrgbcolor
stroke
589.286 182.308 moveto
0 7.69231 rlineto
1 setlinewidth
0.8 0.8 0.8 setrgbcolor
stroke
589.286 197.692 moveto
0 7.69231 rlineto
1 setlinewidth
0.8 0.8 0.8 setrgbcolor
stroke
589.286 213.077 moveto
0 7.69231 rlineto
1 setlinewidth
0.8 0.8 0.8 setrgbcolor
stroke
589.286 228.462 moveto
0 7.69231 rlineto
1 setlinewidth
0.8 0.8 0.8 setrgbcolor
stroke
589.286 243.846 moveto
0 7.69231 rlineto
1 setlinewidth
0.8 0.8 0.8 setrgbcolor
stroke
589.286 259.231 moveto
0 7.69231 rlineto
1 setlinewidth
0.8 0.8 0.8 setrgbcolor
stroke
589.286 274.615 moveto
0 7.69231 rlineto
1 setlinewidth
0.8 0.8 0.8 setrgbcolor
stroke
589.286 290 moveto
0 7.69231 rlineto
1 setlinewidth
0.8 0.8 0.8 setrgbcolor
stroke
589.286 305.385 moveto
0 7.69231 rlineto
1 setlinewidth
0.8 0.8 0.8 setrgbcolor
stroke
589.286 320.769 moveto
0 7.69231 rlineto
1 setlinewidth
0.8 0.8 0.8 setrgbcolor
stroke
589.286 336.154 moveto
0 7.69231 rlineto
1 setlinewidth
0.8 0.8 0.8 setrgbcolor
stroke
589.286 351.538 moveto
0 7.69231 rlineto
1 setlinewidth
0.8 0.8 0.8 setrgbcolor
stroke
589.286 366.923 moveto
0 7.69231 rlineto
1 setlinewidth
0.8 0.8 0.8 setrgbcolor
stroke
589.286 382.308 moveto
0 7.69231 rlineto
1 setlinewidth
0.8 0.8 0.8 setrgbcolor
stroke
589.286 397.692 moveto
0 7.69231 rlineto
1 setlinewidth
0.8 0.8 0.8 setrgbcolor
stroke
589.286 413.077 moveto
0 7.69231 rlineto
1 setlinewidth
0.8 0.8 0.8 setrgbcolor
stroke
589.286 428.462 moveto
0 7.69231 rlineto
1 setlinewidth
0.8 0.8 0.8 setrgbcolor
stroke
589.286 443.846 moveto
0 7.69231 rlineto
1 setlinewidth
0.8 0.8 0.8 setrgbcolor
stroke
589.286 459.231 moveto
0 7.69231 rlineto
1 setlinewidth
0.8 0.8 0.8 setrgbcolor
stroke
589.286 474.615 moveto
0 7.69231 rlineto
1 setlinewidth
0.8 0.8 0.8 setrgbcolor
stroke
589.286 490 moveto
0 7.69231 rlineto
1 setlinewidth
0.8 0.8 0.8 setrgbcolor
stroke
589.286 505.385 moveto
0 7.69231 rlineto
1 setlinewidth
0.8 0.8 0.8 setrgbcolor
stroke
589.286 520.769 moveto
0 7.69231 rlineto
1 setlinewidth
0.8 0.8 0.8 setrgbcolor
stroke
589.286 536.154 moveto
0 7.69231 rlineto
1 setlinewidth
0.8 0.8 0.8 setrgbcolor
stroke
589.286 551.538 moveto
0 7.69231 rlineto
1 setlinewidth
0.8 0.8 0.8 setrgbcolor
stroke
589.286 566.923 moveto
0 7.69231 rlineto
1 setlinewidth
0.8 0.8 0.8 setrgbcolor
stroke
589.286 582.308 moveto
0 7.69231 rlineto
1 setlinewidth
0.8 0.8 0.8 setrgbcolor
stroke
675 90 moveto
675 90 moveto
0 7.69231 rlineto
1 setlinewidth
0.8 0.8 0.8 setrgbcolor
stroke
675 105.385 moveto
0 7.69231 rlineto
1 setlinewidth
0.8 0.8 0.8 setrgbcolor
stroke
675 120.769 moveto
0 7.69231 rlineto
1 setlinewidth
0.8 0.8 0.8 setrgbcolor
stroke
675 136.154 moveto
0 7.69231 rlineto
1 setlinewidth
0.8 0.8 0.8 setrgbcolor
stroke
675 151.538 moveto
0 7.69231 rlineto
1 setlinewidth
0.8 0.8 0.8 setrgbcolor
stroke
675 166.923 moveto
0 7.69231 rlineto
1 setlinewidth
0.8 0.8 0.8 setrgbcolor
stroke
675 182.308 moveto
0 7.69231 rlineto
1 setlinewidth
0.8 0.8 0.8 setrgbcolor
stroke
675 197.692 moveto
0 7.69231 rlineto
1 setlinewidth
0.8 0.8 0.8 setrgbcolor
stroke
675 213.077 moveto
0 7.69231 rlineto
1 setlinewidth
0.8 0.8 0.8 setrgbcolor
stroke
675 228.462 moveto
0 7.69231 rlineto
1 setlinewidth
0.8 0.8 0.8 setrgbcolor
stroke
675 243.846 moveto
0 7.69231 rlineto
1 setlinewidth
0.8 0.8 0.8 setrgbcolor
stroke
675 259.231 moveto
0 7.69231 rlineto
1 setlinewidth
0.8 0.8 0.8 setrgbcolor
stroke
675 274.615 moveto
0 7.69231 rlineto
1 setlinewidth
0.8 0.8 0.8 setrgbcolor
stroke
675 290 moveto
0 7.69231 rlineto
1 setlinewidth
0.8 0.8 0.8 setrgbcolor
stroke
675 305.385 moveto
0 7.69231 rlineto
1 setlinewidth
0.8 0.8 0.8 setrgbcolor
stroke
675 320.769 moveto
0 7.69231 rlineto
1 setlinewidth
0.8 0.8 0.8 setrgbcolor
stroke
675 336.154 moveto
0 7.69231 rlineto
1 setlinewidth
0.8 0.8 0.8 setrgbcolor
stroke
675 351.538 moveto
0 7.69231 rlineto
1 setlinewidth
0.8 0.8 0.8 setrgbcolor
stroke
675 366.923 moveto
0 7.69231 rlineto
1 setlinewidth
0.8 0.8 0.8 setrgbcolor
stroke
675 382.308 moveto
0 7.69231 rlineto
1 setlinewidth
0.8 0.8 0.8 setrgbcolor
stroke
675 397.692 moveto
0 7.69231 rlineto
1 setlinewidth
0.8 0.8 0.8 setrgbcolor
stroke
675 413.077 moveto
0 7.69231 rlineto
1 setlinewidth
0.8 0.8 0.8 setrgbcolor
stroke
675 428.462 moveto
0 7.69231 rlineto
1 setlinewidth
0.8 0.8 0.8 setrgbcolor
stroke
675 443.846 moveto
0 7.69231 rlineto
1 setlinewidth
0.8 0.8 0.8 setrgbcolor
stroke
675 459.231 moveto
0 7.69231 rlineto
1 setlinewidth
0.8 0.8 0.8 setrgbcolor
stroke
675 474.615 moveto
0 7.69231 rlineto
1 setlinewidth
0.8 0.8 0.8 setrgbcolor
stroke
675 490 moveto
0 7.69231 rlineto
1 setlinewidth
0.8 0.8 0.8 setrgbcolor
stroke
675 505.385 moveto
0 7.69231 rlineto
1 setlinewidth
0.8 0.8 0.8 setrgbcolor
stroke
675 520.769 moveto
0 7.69231 rlineto
1 setlinewidth
0.8 0.8 0.8 setrgbcolor
stroke
675 536.154 moveto
0 7.69231 rlineto
1 setlinewidth
0.8 0.8 0.8 setrgbcolor
stroke
675 551.538 moveto
0 7.69231 rlineto
1 setlinewidth
0.8 0.8 0.8 setrgbcolor
stroke
675 566.923 moveto
0 7.69231 rlineto
1 setlinewidth
0.8 0.8 0.8 setrgbcolor
stroke
675 582.308 moveto
0 7.69231 rlineto
1 setlinewidth
0.8 0.8 0.8 setrgbcolor
stroke
75 90 moveto
75 90 moveto
7.79221 0 rlineto
1 setlinewidth
0.8 0.8 0.8 setrgbcolor
stroke
90.5844 90 moveto
7.79221 0 rlineto
1 setlinewidth
0.8 0.8 0.8 setrgbcolor
stroke
106.169 90 moveto
7.79221 0 rlineto
1 setlinewidth
0.8 0.8 0.8 setrgbcolor
stroke
121.753 90 moveto
7.79221 0 rlineto
1 setlinewidth
0.8 0.8 0.8 setrgbcolor
stroke
137.338 90 moveto
7.79221 0 rlineto
1 setlinewidth
0.8 0.8 0.8 setrgbcolor
stroke
152.922 90 moveto
7.79221 0 rlineto
1 setlinewidth
0.8 0.8 0.8 setrgbcolor
stroke
168.506 90 moveto
7.79221 0 rlineto
1 setlinewidth
0.8 0.8 0.8 setrgbcolor
stroke
184.091 90 moveto
7.79221 0 rlineto
1 setlinewidth
0.8 0.8 0.8 setrgbcolor
stroke
199.675 90 moveto
7.79221 0 rlineto
1 setlinewidth
0.8 0.8 0.8 setrgbcolor
stroke
215.26 90 moveto
7.79221 0 rlineto
1 setlinewidth
0.8 0.8 0.8 setrgbcolor
stroke
230.844 90 moveto
7.79221 0 rlineto
1 setlinewidth
0.8 0.8 0.8 setrgbcolor
stroke
246.429 90 moveto
7.79221 0 rlineto
1 setlinewidth
0.8 0.8 0.8 setrgbcolor
stroke
262.013 90 moveto
7.79221 0 rlineto
1 setlinewidth
0.8 0.8 0.8 setrgbcolor
stroke
277.597 90 moveto
7.79221 0 rlineto
1 setlinewidth
0.8 0.8 0.8 setrgbcolor
stroke
293.182 90 moveto
7.79221 0 rlineto
1 setlinewidth
0.8 0.8 0.8 setrgbcolor
stroke
308.766 90 moveto
7.79221 0 rlineto
1 setlinewidth
0.8 0.8 0.8 setrgbcolor
stroke
324.351 90 moveto
7.79221 0 rlineto
1 setlinewidth
0.8 0.8 0.8 setrgbcolor
stroke
339.935 90 moveto
7.79221 0 rlineto
1 setlinewidth
0.8 0.8 0.8 setrgbcolor
stroke
355.519 90 moveto
7.79221 0 rlineto
1 setlinewidth
0.8 0.8 0.8 setrgbcolor
stroke
371.104 90 moveto
7.79221 0 rlineto
1 setlinewidth
0.8 0.8 0.8 setrgbcolor
stroke
386.688 90 moveto
7.79221 0 rlineto
1 setlinewidth
0.8 0.8 0.8 setrgbcolor
stroke
402.273 90 moveto
7.79221 0 rlineto
1 setlinewidth
0.8 0.8 0.8 setrgbcolor
stroke
417.857 90 moveto
7.79221 0 rlineto
1 setlinewidth
0.8 0.8 0.8 setrgbcolor
stroke
433.442 90 moveto
7.79221 0 rlineto
1 setlinewidth
0.8 0.8 0.8 setrgbcolor
stroke
449.026 90 moveto
7.79221 0 rlineto
1 setlinewidth
0.8 0.8 0.8 setrgbcolor
stroke
464.61 90 moveto
7.79221 0 rlineto
1 setlinewidth
0.8 0.8 0.8 setrgbcolor
stroke
480.195 90 moveto
7.79221 0 rlineto
1 setlinewidth
0.8 0.8 0.8 setrgbcolor
stroke
495.779 90 moveto
7.79221 0 rlineto
1 setlinewidth
0.8 0.8 0.8 setrgbcolor
stroke
511.364 90 moveto
7.79221 0 rlineto
1 setlinewidth
0.8 0.8 0.8 setrgbcolor
stroke
526.948 90 moveto
7.79221 0 rlineto
1 setlinewidth
0.8 0.8 0.8 setrgbcolor
stroke
542.532 90 moveto
7.79221 0 rlineto
1 setlinewidth
0.8 0.8 0.8 setrgbcolor
stroke
558.117 90 moveto
7.79221 0 rlineto
1 setlinewidth
0.8 0.8 0.8 setrgbcolor
stroke
573.701 90 moveto
7.79221 0 rlineto
1 setlinewidth
0.8 0.8 0.8 setrgbcolor
stroke
589.286 90 moveto
7.79221 0 rlineto
1 setlinewidth
0.8 0.8 0.8 setrgbcolor
stroke
604.87 90 moveto
7.79221 0 rlineto
1 setlinewidth
0.8 0.8 0.8 setrgbcolor
stroke
620.455 90 moveto
7.79221 0 rlineto
1 setlinewidth
0.8 0.8 0.8 setrgbcolor
stroke
636.039 90 moveto
7.79221 0 rlineto
1 setlinewidth
0.8 0.8 0.8 setrgbcolor
stroke
651.623 90 moveto
7.79221 0 rlineto
1 setlinewidth
0.8 0.8 0.8 setrgbcolor
stroke
667.208 90 moveto
7.79221 0 rlineto
1 setlinewidth
0.8 0.8 0.8 setrgbcolor
stroke
75 152.5 moveto
75 152.5 moveto
7.79221 0 rlineto
1 setlinewidth
0.8 0.8 0.8 setrgbcolor
stroke
90.5844 152.5 moveto
7.79221 0 rlineto
1 setlinewidth
0.8 0.8 0.8 setrgbcolor
stroke
106.169 152.5 moveto
7.79221 0 rlineto
1 setlinewidth
0.8 0.8 0.8 setrgbcolor
stroke
121.753 152.5 moveto
7.79221 0 rlineto
1 setlinewidth
0.8 0.8 0.8 setrgbcolor
stroke
137.338 152.5 moveto
7.79221 0 rlineto
1 setlinewidth
0.8 0.8 0.8 setrgbcolor
stroke
152.922 152.5 moveto
7.79221 0 rlineto
1 setlinewidth
0.8 0.8 0.8 setrgbcolor
stroke
168.506 152.5 moveto
7.79221 0 rlineto
1 setlinewidth
0.8 0.8 0.8 setrgbcolor
stroke
184.091 152.5 moveto
7.79221 0 rlineto
1 setlinewidth
0.8 0.8 0.8 setrgbcolor
stroke
199.675 152.5 moveto
7.79221 0 rlineto
1 setlinewidth
0.8 0.8 0.8 setrgbcolor
stroke
215.26 152.5 moveto
7.79221 0 rlineto
1 setlinewidth
0.8 0.8 0.8 setrgbcolor
stroke
230.844 152.5 moveto
7.79221 0 rlineto
1 setlinewidth
0.8 0.8 0.8 setrgbcolor
stroke
246.429 152.5 moveto
7.79221 0 rlineto
1 setlinewidth
0.8 0.8 0.8 setrgbcolor
stroke
262.013 152.5 moveto
7.79221 0 rlineto
1 setlinewidth
0.8 0.8 0.8 setrgbcolor
stroke
277.597 152.5 moveto
7.79221 0 rlineto
1 setlinewidth
0.8 0.8 0.8 setrgbcolor
stroke
293.182 152.5 moveto
7.79221 0 rlineto
1 setlinewidth
0.8 0.8 0.8 setrgbcolor
stroke
308.766 152.5 moveto
7.79221 0 rlineto
1 setlinewidth
0.8 0.8 0.8 setrgbcolor
stroke
324.351 152.5 moveto
7.79221 0 rlineto
1 setlinewidth
0.8 0.8 0.8 setrgbcolor
stroke
339.935 152.5 moveto
7.79221 0 rlineto
1 setlinewidth
0.8 0.8 0.8 setrgbcolor
stroke
355.519 152.5 moveto
7.79221 0 rlineto
1 setlinewidth
0.8 0.8 0.8 setrgbcolor
stroke
371.104 152.5 moveto
7.79221 0 rlineto
1 setlinewidth
0.8 0.8 0.8 setrgbcolor
stroke
386.688 152.5 moveto
7.79221 0 rlineto
1 setlinewidth
0.8 0.8 0.8 setrgbcolor
stroke
402.273 152.5 moveto
7.79221 0 rlineto
1 setlinewidth
0.8 0.8 0.8 setrgbcolor
stroke
417.857 152.5 moveto
7.79221 0 rlineto
1 setlinewidth
0.8 0.8 0.8 setrgbcolor
stroke
433.442 152.5 moveto
7.79221 0 rlineto
1 setlinewidth
0.8 0.8 0.8 setrgbcolor
stroke
449.026 152.5 moveto
7.79221 0 rlineto
1 setlinewidth
0.8 0.8 0.8 setrgbcolor
stroke
464.61 152.5 moveto
7.79221 0 rlineto
1 setlinewidth
0.8 0.8 0.8 setrgbcolor
stroke
480.195 152.5 moveto
7.79221 0 rlineto
1 setlinewidth
0.8 0.8 0.8 setrgbcolor
stroke
495.779 152.5 moveto
7.79221 0 rlineto
1 setlinewidth
0.8 0.8 0.8 setrgbcolor
stroke
511.364 152.5 moveto
7.79221 0 rlineto
1 setlinewidth
0.8 0.8 0.8 setrgbcolor
stroke
526.948 152.5 moveto
7.79221 0 rlineto
1 setlinewidth
0.8 0.8 0.8 setrgbcolor
stroke
542.532 152.5 moveto
7.79221 0 rlineto
1 setlinewidth
0.8 0.8 0.8 setrgbcolor
stroke
558.117 152.5 moveto
7.79221 0 rlineto
1 setlinewidth
0.8 0.8 0.8 setrgbcolor
stroke
573.701 152.5 moveto
7.79221 0 rlineto
1 setlinewidth
0.8 0.8 0.8 setrgbcolor
stroke
589.286 152.5 moveto
7.79221 0 rlineto
1 setlinewidth
0.8 0.8 0.8 setrgbcolor
stroke
604.87 152.5 moveto
7.79221 0 rlineto
1 setlinewidth
0.8 0.8 0.8 setrgbcolor
stroke
620.455 152.5 moveto
7.79221 0 rlineto
1 setlinewidth
0.8 0.8 0.8 setrgbcolor
stroke
636.039 152.5 moveto
7.79221 0 rlineto
1 setlinewidth
0.8 0.8 0.8 setrgbcolor
stroke
651.623 152.5 moveto
7.79221 0 rlineto
1 setlinewidth
0.8 0.8 0.8 setrgbcolor
stroke
667.208 152.5 moveto
7.79221 0 rlineto
1 setlinewidth
0.8 0.8 0.8 setrgbcolor
stroke
75 215 moveto
75 215 moveto
7.79221 0 rlineto
1 setlinewidth
0.8 0.8 0.8 setrgbcolor
stroke
90.5844 215 moveto
7.79221 0 rlineto
1 setlinewidth
0.8 0.8 0.8 setrgbcolor
stroke
106.169 215 moveto
7.79221 0 rlineto
1 setlinewidth
0.8 0.8 0.8 setrgbcolor
stroke
121.753 215 moveto
7.79221 0 rlineto
1 setlinewidth
0.8 0.8 0.8 setrgbcolor
stroke
137.338 215 moveto
7.79221 0 rlineto
1 setlinewidth
0.8 0.8 0.8 setrgbcolor
stroke
152.922 215 moveto
7.79221 0 rlineto
1 setlinewidth
0.8 0.8 0.8 setrgbcolor
stroke
168.506 215 moveto
7.79221 0 rlineto
1 setlinewidth
0.8 0.8 0.8 setrgbcolor
stroke
184.091 215 moveto
7.79221 0 rlineto
1 setlinewidth
0.8 0.8 0.8 setrgbcolor
stroke
199.675 215 moveto
7.79221 0 rlineto
1 setlinewidth
0.8 0.8 0.8 setrgbcolor
stroke
215.26 215 moveto
7.79221 0 rlineto
1 setlinewidth
0.8 0.8 0.8 setrgbcolor
stroke
230.844 215 moveto
7.79221 0 rlineto
1 setlinewidth
0.8 0.8 0.8 setrgbcolor
stroke
246.429 215 moveto
7.79221 0 rlineto
1 setlinewidth
0.8 0.8 0.8 setrgbcolor
stroke
262.013 215 moveto
7.79221 0 rlineto
1 setlinewidth
0.8 0.8 0.8 setrgbcolor
stroke
277.597 215 moveto
7.79221 0 rlineto
1 setlinewidth
0.8 0.8 0.8 setrgbcolor
stroke
293.182 215 moveto
7.79221 0 rlineto
1 setlinewidth
0.8 0.8 0.8 setrgbcolor
stroke
308.766 215 moveto
7.79221 0 rlineto
1 setlinewidth
0.8 0.8 0.8 setrgbcolor
stroke
324.351 215 moveto
7.79221 0 rlineto
1 setlinewidth
0.8 0.8 0.8 setrgbcolor
stroke
339.935 215 moveto
7.79221 0 rlineto
1 setlinewidth
0.8 0.8 0.8 setrgbcolor
stroke
355.519 215 moveto
7.79221 0 rlineto
1 setlinewidth
0.8 0.8 0.8 setrgbcolor
stroke
371.104 215 moveto
7.79221 0 rlineto
1 setlinewidth
0.8 0.8 0.8 setrgbcolor
stroke
386.688 215 moveto
7.79221 0 rlineto
1 setlinewidth
0.8 0.8 0.8 setrgbcolor
stroke
402.273 215 moveto
7.79221 0 rlineto
1 setlinewidth
0.8 0.8 0.8 setrgbcolor
stroke
417.857 215 moveto
7.79221 0 rlineto
1 setlinewidth
0.8 0.8 0.8 setrgbcolor
stroke
433.442 215 moveto
7.79221 0 rlineto
1 setlinewidth
0.8 0.8 0.8 setrgbcolor
stroke
449.026 215 moveto
7.79221 0 rlineto
1 setlinewidth
0.8 0.8 0.8 setrgbcolor
stroke
464.61 215 moveto
7.79221 0 rlineto
1 setlinewidth
0.8 0.8 0.8 setrgbcolor
stroke
480.195 215 moveto
7.79221 0 rlineto
1 setlinewidth
0.8 0.8 0.8 setrgbcolor
stroke
495.779 215 moveto
7.79221 0 rlineto
1 setlinewidth
0.8 0.8 0.8 setrgbcolor
stroke
511.364 215 moveto
7.79221 0 rlineto
1 setlinewidth
0.8 0.8 0.8 setrgbcolor
stroke
526.948 215 moveto
7.79221 0 rlineto
1 setlinewidth
0.8 0.8 0.8 setrgbcolor
stroke
542.532 215 moveto
7.79221 0 rlineto
1 setlinewidth
0.8 0.8 0.8 setrgbcolor
stroke
558.117 215 moveto
7.79221 0 rlineto
1 setlinewidth
0.8 0.8 0.8 setrgbcolor
stroke
573.701 215 moveto
7.79221 0 rlineto
1 setlinewidth
0.8 0.8 0.8 setrgbcolor
stroke
589.286 215 moveto
7.79221 0 rlineto
1 setlinewidth
0.8 0.8 0.8 setrgbcolor
stroke
604.87 215 moveto
7.79221 0 rlineto
1 setlinewidth
0.8 0.8 0.8 setrgbcolor
stroke
620.455 215 moveto
7.79221 0 rlineto
1 setlinewidth
0.8 0.8 0.8 setrgbcolor
stroke
636.039 215 moveto
7.79221 0 rlineto
1 setlinewidth
0.8 0.8 0.8 setrgbcolor
stroke
651.623 215 moveto
7.79221 0 rlineto
1 setlinewidth
0.8 0.8 0.8 setrgbcolor
stroke
667.208 215 moveto
7.79221 0 rlineto
1 setlinewidth
0.8 0.8 0.8 setrgbcolor
stroke
75 277.5 moveto
75 277.5 moveto
7.79221 0 rlineto
1 setlinewidth
0.8 0.8 0.8 setrgbcolor
stroke
90.5844 277.5 moveto
7.79221 0 rlineto
1 setlinewidth
0.8 0.8 0.8 setrgbcolor
stroke
106.169 277.5 moveto
7.79221 0 rlineto
1 setlinewidth
0.8 0.8 0.8 setrgbcolor
stroke
121.753 277.5 moveto
7.79221 0 rlineto
1 setlinewidth
0.8 0.8 0.8 setrgbcolor
stroke
137.338 277.5 moveto
7.79221 0 rlineto
1 setlinewidth
0.8 0.8 0.8 setrgbcolor
stroke
152.922 277.5 moveto
7.79221 0 rlineto
1 setlinewidth
0.8 0.8 0.8 setrgbcolor
stroke
168.506 277.5 moveto
7.79221 0 rlineto
1 setlinewidth
0.8 0.8 0.8 setrgbcolor
stroke
184.091 277.5 moveto
7.79221 0 rlineto
1 setlinewidth
0.8 0.8 0.8 setrgbcolor
stroke
199.675 277.5 moveto
7.79221 0 rlineto
1 setlinewidth
0.8 0.8 0.8 setrgbcolor
stroke
215.26 277.5 moveto
7.79221 0 rlineto
1 setlinewidth
0.8 0.8 0.8 setrgbcolor
stroke
230.844 277.5 moveto
7.79221 0 rlineto
1 setlinewidth
0.8 0.8 0.8 setrgbcolor
stroke
246.429 277.5 moveto
7.79221 0 rlineto
1 setlinewidth
0.8 0.8 0.8 setrgbcolor
stroke
262.013 277.5 moveto
7.79221 0 rlineto
1 setlinewidth
0.8 0.8 0.8 setrgbcolor
stroke
277.597 277.5 moveto
7.79221 0 rlineto
1 setlinewidth
0.8 0.8 0.8 setrgbcolor
stroke
293.182 277.5 moveto
7.79221 0 rlineto
1 setlinewidth
0.8 0.8 0.8 setrgbcolor
stroke
308.766 277.5 moveto
7.79221 0 rlineto
1 setlinewidth
0.8 0.8 0.8 setrgbcolor
stroke
324.351 277.5 moveto
7.79221 0 rlineto
1 setlinewidth
0.8 0.8 0.8 setrgbcolor
stroke
339.935 277.5 moveto
7.79221 0 rlineto
1 setlinewidth
0.8 0.8 0.8 setrgbcolor
stroke
355.519 277.5 moveto
7.79221 0 rlineto
1 setlinewidth
0.8 0.8 0.8 setrgbcolor
stroke
371.104 277.5 moveto
7.79221 0 rlineto
1 setlinewidth
0.8 0.8 0.8 setrgbcolor
stroke
386.688 277.5 moveto
7.79221 0 rlineto
1 setlinewidth
0.8 0.8 0.8 setrgbcolor
stroke
402.273 277.5 moveto
7.79221 0 rlineto
1 setlinewidth
0.8 0.8 0.8 setrgbcolor
stroke
417.857 277.5 moveto
7.79221 0 rlineto
1 setlinewidth
0.8 0.8 0.8 setrgbcolor
stroke
433.442 277.5 moveto
7.79221 0 rlineto
1 setlinewidth
0.8 0.8 0.8 setrgbcolor
stroke
449.026 277.5 moveto
7.79221 0 rlineto
1 setlinewidth
0.8 0.8 0.8 setrgbcolor
stroke
464.61 277.5 moveto
7.79221 0 rlineto
1 setlinewidth
0.8 0.8 0.8 setrgbcolor
stroke
480.195 277.5 moveto
7.79221 0 rlineto
1 setlinewidth
0.8 0.8 0.8 setrgbcolor
stroke
495.779 277.5 moveto
7.79221 0 rlineto
1 setlinewidth
0.8 0.8 0.8 setrgbcolor
stroke
511.364 277.5 moveto
7.79221 0 rlineto
1 setlinewidth
0.8 0.8 0.8 setrgbcolor
stroke
526.948 277.5 moveto
7.79221 0 rlineto
1 setlinewidth
0.8 0.8 0.8 setrgbcolor
stroke
542.532 277.5 moveto
7.79221 0 rlineto
1 setlinewidth
0.8 0.8 0.8 setrgbcolor
stroke
558.117 277.5 moveto
7.79221 0 rlineto
1 setlinewidth
0.8 0.8 0.8 setrgbcolor
stroke
573.701 277.5 moveto
7.79221 0 rlineto
1 setlinewidth
0.8 0.8 0.8 setrgbcolor
stroke
589.286 277.5 moveto
7.79221 0 rlineto
1 setlinewidth
0.8 0.8 0.8 setrgbcolor
stroke
604.87 277.5 moveto
7.79221 0 rlineto
1 setlinewidth
0.8 0.8 0.8 setrgbcolor
stroke
620.455 277.5 moveto
7.79221 0 rlineto
1 setlinewidth
0.8 0.8 0.8 setrgbcolor
stroke
636.039 277.5 moveto
7.79221 0 rlineto
1 setlinewidth
0.8 0.8 0.8 setrgbcolor
stroke
651.623 277.5 moveto
7.79221 0 rlineto
1 setlinewidth
0.8 0.8 0.8 setrgbcolor
stroke
667.208 277.5 moveto
7.79221 0 rlineto
1 setlinewidth
0.8 0.8 0.8 setrgbcolor
stroke
75 340 moveto
75 340 moveto
7.79221 0 rlineto
1 setlinewidth
0.8 0.8 0.8 setrgbcolor
stroke
90.5844 340 moveto
7.79221 0 rlineto
1 setlinewidth
0.8 0.8 0.8 setrgbcolor
stroke
106.169 340 moveto
7.79221 0 rlineto
1 setlinewidth
0.8 0.8 0.8 setrgbcolor
stroke
121.753 340 moveto
7.79221 0 rlineto
1 setlinewidth
0.8 0.8 0.8 setrgbcolor
stroke
137.338 340 moveto
7.79221 0 rlineto
1 setlinewidth
0.8 0.8 0.8 setrgbcolor
stroke
152.922 340 moveto
7.79221 0 rlineto
1 setlinewidth
0.8 0.8 0.8 setrgbcolor
stroke
168.506 340 moveto
7.79221 0 rlineto
1 setlinewidth
0.8 0.8 0.8 setrgbcolor
stroke
184.091 340 moveto
7.79221 0 rlineto
1 setlinewidth
0.8 0.8 0.8 setrgbcolor
stroke
199.675 340 moveto
7.79221 0 rlineto
1 setlinewidth
0.8 0.8 0.8 setrgbcolor
stroke
215.26 340 moveto
7.79221 0 rlineto
1 setlinewidth
0.8 0.8 0.8 setrgbcolor
stroke
230.844 340 moveto
7.79221 0 rlineto
1 setlinewidth
0.8 0.8 0.8 setrgbcolor
stroke
246.429 340 moveto
7.79221 0 rlineto
1 setlinewidth
0.8 0.8 0.8 setrgbcolor
stroke
262.013 340 moveto
7.79221 0 rlineto
1 setlinewidth
0.8 0.8 0.8 setrgbcolor
stroke
277.597 340 moveto
7.79221 0 rlineto
1 setlinewidth
0.8 0.8 0.8 setrgbcolor
stroke
293.182 340 moveto
7.79221 0 rlineto
1 setlinewidth
0.8 0.8 0.8 setrgbcolor
stroke
308.766 340 moveto
7.79221 0 rlineto
1 setlinewidth
0.8 0.8 0.8 setrgbcolor
stroke
324.351 340 moveto
7.79221 0 rlineto
1 setlinewidth
0.8 0.8 0.8 setrgbcolor
stroke
339.935 340 moveto
7.79221 0 rlineto
1 setlinewidth
0.8 0.8 0.8 setrgbcolor
stroke
355.519 340 moveto
7.79221 0 rlineto
1 setlinewidth
0.8 0.8 0.8 setrgbcolor
stroke
371.104 340 moveto
7.79221 0 rlineto
1 setlinewidth
0.8 0.8 0.8 setrgbcolor
stroke
386.688 340 moveto
7.79221 0 rlineto
1 setlinewidth
0.8 0.8 0.8 setrgbcolor
stroke
402.273 340 moveto
7.79221 0 rlineto
1 setlinewidth
0.8 0.8 0.8 setrgbcolor
stroke
417.857 340 moveto
7.79221 0 rlineto
1 setlinewidth
0.8 0.8 0.8 setrgbcolor
stroke
433.442 340 moveto
7.79221 0 rlineto
1 setlinewidth
0.8 0.8 0.8 setrgbcolor
stroke
449.026 340 moveto
7.79221 0 rlineto
1 setlinewidth
0.8 0.8 0.8 setrgbcolor
stroke
464.61 340 moveto
7.79221 0 rlineto
1 setlinewidth
0.8 0.8 0.8 setrgbcolor
stroke
480.195 340 moveto
7.79221 0 rlineto
1 setlinewidth
0.8 0.8 0.8 setrgbcolor
stroke
495.779 340 moveto
7.79221 0 rlineto
1 setlinewidth
0.8 0.8 0.8 setrgbcolor
stroke
511.364 340 moveto
7.79221 0 rlineto
1 setlinewidth
0.8 0.8 0.8 setrgbcolor
stroke
526.948 340 moveto
7.79221 0 rlineto
1 setlinewidth
0.8 0.8 0.8 setrgbcolor
stroke
542.532 340 moveto
7.79221 0 rlineto
1 setlinewidth
0.8 0.8 0.8 setrgbcolor
stroke
558.117 340 moveto
7.79221 0 rlineto
1 setlinewidth
0.8 0.8 0.8 setrgbcolor
stroke
573.701 340 moveto
7.79221 0 rlineto
1 setlinewidth
0.8 0.8 0.8 setrgbcolor
stroke
589.286 340 moveto
7.79221 0 rlineto
1 setlinewidth
0.8 0.8 0.8 setrgbcolor
stroke
604.87 340 moveto
7.79221 0 rlineto
1 setlinewidth
0.8 0.8 0.8 setrgbcolor
stroke
620.455 340 moveto
7.79221 0 rlineto
1 setlinewidth
0.8 0.8 0.8 setrgbcolor
stroke
636.039 340 moveto
7.79221 0 rlineto
1 setlinewidth
0.8 0.8 0.8 setrgbcolor
stroke
651.623 340 moveto
7.79221 0 rlineto
1 setlinewidth
0.8 0.8 0.8 setrgbcolor
stroke
667.208 340 moveto
7.79221 0 rlineto
1 setlinewidth
0.8 0.8 0.8 setrgbcolor
stroke
75 402.5 moveto
75 402.5 moveto
7.79221 0 rlineto
1 setlinewidth
0.8 0.8 0.8 setrgbcolor
stroke
90.5844 402.5 moveto
7.79221 0 rlineto
1 setlinewidth
0.8 0.8 0.8 setrgbcolor
stroke
106.169 402.5 moveto
7.79221 0 rlineto
1 setlinewidth
0.8 0.8 0.8 setrgbcolor
stroke
121.753 402.5 moveto
7.79221 0 rlineto
1 setlinewidth
0.8 0.8 0.8 setrgbcolor
stroke
137.338 402.5 moveto
7.79221 0 rlineto
1 setlinewidth
0.8 0.8 0.8 setrgbcolor
stroke
152.922 402.5 moveto
7.79221 0 rlineto
1 setlinewidth
0.8 0.8 0.8 setrgbcolor
stroke
168.506 402.5 moveto
7.79221 0 rlineto
1 setlinewidth
0.8 0.8 0.8 setrgbcolor
stroke
184.091 402.5 moveto
7.79221 0 rlineto
1 setlinewidth
0.8 0.8 0.8 setrgbcolor
stroke
199.675 402.5 moveto
7.79221 0 rlineto
1 setlinewidth
0.8 0.8 0.8 setrgbcolor
stroke
215.26 402.5 moveto
7.79221 0 rlineto
1 setlinewidth
0.8 0.8 0.8 setrgbcolor
stroke
230.844 402.5 moveto
7.79221 0 rlineto
1 setlinewidth
0.8 0.8 0.8 setrgbcolor
stroke
246.429 402.5 moveto
7.79221 0 rlineto
1 setlinewidth
0.8 0.8 0.8 setrgbcolor
stroke
262.013 402.5 moveto
7.79221 0 rlineto
1 setlinewidth
0.8 0.8 0.8 setrgbcolor
stroke
277.597 402.5 moveto
7.79221 0 rlineto
1 setlinewidth
0.8 0.8 0.8 setrgbcolor
stroke
293.182 402.5 moveto
7.79221 0 rlineto
1 setlinewidth
0.8 0.8 0.8 setrgbcolor
stroke
308.766 402.5 moveto
7.79221 0 rlineto
1 setlinewidth
0.8 0.8 0.8 setrgbcolor
stroke
324.351 402.5 moveto
7.79221 0 rlineto
1 setlinewidth
0.8 0.8 0.8 setrgbcolor
stroke
339.935 402.5 moveto
7.79221 0 rlineto
1 setlinewidth
0.8 0.8 0.8 setrgbcolor
stroke
355.519 402.5 moveto
7.79221 0 rlineto
1 setlinewidth
0.8 0.8 0.8 setrgbcolor
stroke
371.104 402.5 moveto
7.79221 0 rlineto
1 setlinewidth
0.8 0.8 0.8 setrgbcolor
stroke
386.688 402.5 moveto
7.79221 0 rlineto
1 setlinewidth
0.8 0.8 0.8 setrgbcolor
stroke
402.273 402.5 moveto
7.79221 0 rlineto
1 setlinewidth
0.8 0.8 0.8 setrgbcolor
stroke
417.857 402.5 moveto
7.79221 0 rlineto
1 setlinewidth
0.8 0.8 0.8 setrgbcolor
stroke
433.442 402.5 moveto
7.79221 0 rlineto
1 setlinewidth
0.8 0.8 0.8 setrgbcolor
stroke
449.026 402.5 moveto
7.79221 0 rlineto
1 setlinewidth
0.8 0.8 0.8 setrgbcolor
stroke
464.61 402.5 moveto
7.79221 0 rlineto
1 setlinewidth
0.8 0.8 0.8 setrgbcolor
stroke
480.195 402.5 moveto
7.79221 0 rlineto
1 setlinewidth
0.8 0.8 0.8 setrgbcolor
stroke
495.779 402.5 moveto
7.79221 0 rlineto
1 setlinewidth
0.8 0.8 0.8 setrgbcolor
stroke
511.364 402.5 moveto
7.79221 0 rlineto
1 setlinewidth
0.8 0.8 0.8 setrgbcolor
stroke
526.948 402.5 moveto
7.79221 0 rlineto
1 setlinewidth
0.8 0.8 0.8 setrgbcolor
stroke
542.532 402.5 moveto
7.79221 0 rlineto
1 setlinewidth
0.8 0.8 0.8 setrgbcolor
stroke
558.117 402.5 moveto
7.79221 0 rlineto
1 setlinewidth
0.8 0.8 0.8 setrgbcolor
stroke
573.701 402.5 moveto
7.79221 0 rlineto
1 setlinewidth
0.8 0.8 0.8 setrgbcolor
stroke
589.286 402.5 moveto
7.79221 0 rlineto
1 setlinewidth
0.8 0.8 0.8 setrgbcolor
stroke
604.87 402.5 moveto
7.79221 0 rlineto
1 setlinewidth
0.8 0.8 0.8 setrgbcolor
stroke
620.455 402.5 moveto
7.79221 0 rlineto
1 setlinewidth
0.8 0.8 0.8 setrgbcolor
stroke
636.039 402.5 moveto
7.79221 0 rlineto
1 setlinewidth
0.8 0.8 0.8 setrgbcolor
stroke
651.623 402.5 moveto
7.79221 0 rlineto
1 setlinewidth
0.8 0.8 0.8 setrgbcolor
stroke
667.208 402.5 moveto
7.79221 0 rlineto
1 setlinewidth
0.8 0.8 0.8 setrgbcolor
stroke
75 465 moveto
75 465 moveto
7.79221 0 rlineto
1 setlinewidth
0.8 0.8 0.8 setrgbcolor
stroke
90.5844 465 moveto
7.79221 0 rlineto
1 setlinewidth
0.8 0.8 0.8 setrgbcolor
stroke
106.169 465 moveto
7.79221 0 rlineto
1 setlinewidth
0.8 0.8 0.8 setrgbcolor
stroke
121.753 465 moveto
7.79221 0 rlineto
1 setlinewidth
0.8 0.8 0.8 setrgbcolor
stroke
137.338 465 moveto
7.79221 0 rlineto
1 setlinewidth
0.8 0.8 0.8 setrgbcolor
stroke
152.922 465 moveto
7.79221 0 rlineto
1 setlinewidth
0.8 0.8 0.8 setrgbcolor
stroke
168.506 465 moveto
7.79221 0 rlineto
1 setlinewidth
0.8 0.8 0.8 setrgbcolor
stroke
184.091 465 moveto
7.79221 0 rlineto
1 setlinewidth
0.8 0.8 0.8 setrgbcolor
stroke
199.675 465 moveto
7.79221 0 rlineto
1 setlinewidth
0.8 0.8 0.8 setrgbcolor
stroke
215.26 465 moveto
7.79221 0 rlineto
1 setlinewidth
0.8 0.8 0.8 setrgbcolor
stroke
230.844 465 moveto
7.79221 0 rlineto
1 setlinewidth
0.8 0.8 0.8 setrgbcolor
stroke
246.429 465 moveto
7.79221 0 rlineto
1 setlinewidth
0.8 0.8 0.8 setrgbcolor
stroke
262.013 465 moveto
7.79221 0 rlineto
1 setlinewidth
0.8 0.8 0.8 setrgbcolor
stroke
277.597 465 moveto
7.79221 0 rlineto
1 setlinewidth
0.8 0.8 0.8 setrgbcolor
stroke
293.182 465 moveto
7.79221 0 rlineto
1 setlinewidth
0.8 0.8 0.8 setrgbcolor
stroke
308.766 465 moveto
7.79221 0 rlineto
1 setlinewidth
0.8 0.8 0.8 setrgbcolor
stroke
324.351 465 moveto
7.79221 0 rlineto
1 setlinewidth
0.8 0.8 0.8 setrgbcolor
stroke
339.935 465 moveto
7.79221 0 rlineto
1 setlinewidth
0.8 0.8 0.8 setrgbcolor
stroke
355.519 465 moveto
7.79221 0 rlineto
1 setlinewidth
0.8 0.8 0.8 setrgbcolor
stroke
371.104 465 moveto
7.79221 0 rlineto
1 setlinewidth
0.8 0.8 0.8 setrgbcolor
stroke
386.688 465 moveto
7.79221 0 rlineto
1 setlinewidth
0.8 0.8 0.8 setrgbcolor
stroke
402.273 465 moveto
7.79221 0 rlineto
1 setlinewidth
0.8 0.8 0.8 setrgbcolor
stroke
417.857 465 moveto
7.79221 0 rlineto
1 setlinewidth
0.8 0.8 0.8 setrgbcolor
stroke
433.442 465 moveto
7.79221 0 rlineto
1 setlinewidth
0.8 0.8 0.8 setrgbcolor
stroke
449.026 465 moveto
7.79221 0 rlineto
1 setlinewidth
0.8 0.8 0.8 setrgbcolor
stroke
464.61 465 moveto
7.79221 0 rlineto
1 setlinewidth
0.8 0.8 0.8 setrgbcolor
stroke
480.195 465 moveto
7.79221 0 rlineto
1 setlinewidth
0.8 0.8 0.8 setrgbcolor
stroke
495.779 465 moveto
7.79221 0 rlineto
1 setlinewidth
0.8 0.8 0.8 setrgbcolor
stroke
511.364 465 moveto
7.79221 0 rlineto
1 setlinewidth
0.8 0.8 0.8 setrgbcolor
stroke
526.948 465 moveto
7.79221 0 rlineto
1 setlinewidth
0.8 0.8 0.8 setrgbcolor
stroke
542.532 465 moveto
7.79221 0 rlineto
1 setlinewidth
0.8 0.8 0.8 setrgbcolor
stroke
558.117 465 moveto
7.79221 0 rlineto
1 setlinewidth
0.8 0.8 0.8 setrgbcolor
stroke
573.701 465 moveto
7.79221 0 rlineto
1 setlinewidth
0.8 0.8 0.8 setrgbcolor
stroke
589.286 465 moveto
7.79221 0 rlineto
1 setlinewidth
0.8 0.8 0.8 setrgbcolor
stroke
604.87 465 moveto
7.79221 0 rlineto
1 setlinewidth
0.8 0.8 0.8 setrgbcolor
stroke
620.455 465 moveto
7.79221 0 rlineto
1 setlinewidth
0.8 0.8 0.8 setrgbcolor
stroke
636.039 465 moveto
7.79221 0 rlineto
1 setlinewidth
0.8 0.8 0.8 setrgbcolor
stroke
651.623 465 moveto
7.79221 0 rlineto
1 setlinewidth
0.8 0.8 0.8 setrgbcolor
stroke
667.208 465 moveto
7.79221 0 rlineto
1 setlinewidth
0.8 0.8 0.8 setrgbcolor
stroke
75 527.5 moveto
75 527.5 moveto
7.79221 0 rlineto
1 setlinewidth
0.8 0.8 0.8 setrgbcolor
stroke
90.5844 527.5 moveto
7.79221 0 rlineto
1 setlinewidth
0.8 0.8 0.8 setrgbcolor
stroke
106.169 527.5 moveto
7.79221 0 rlineto
1 setlinewidth
0.8 0.8 0.8 setrgbcolor
stroke
121.753 527.5 moveto
7.79221 0 rlineto
1 setlinewidth
0.8 0.8 0.8 setrgbcolor
stroke
137.338 527.5 moveto
7.79221 0 rlineto
1 setlinewidth
0.8 0.8 0.8 setrgbcolor
stroke
152.922 527.5 moveto
7.79221 0 rlineto
1 setlinewidth
0.8 0.8 0.8 setrgbcolor
stroke
168.506 527.5 moveto
7.79221 0 rlineto
1 setlinewidth
0.8 0.8 0.8 setrgbcolor
stroke
184.091 527.5 moveto
7.79221 0 rlineto
1 setlinewidth
0.8 0.8 0.8 setrgbcolor
stroke
199.675 527.5 moveto
7.79221 0 rlineto
1 setlinewidth
0.8 0.8 0.8 setrgbcolor
stroke
215.26 527.5 moveto
7.79221 0 rlineto
1 setlinewidth
0.8 0.8 0.8 setrgbcolor
stroke
230.844 527.5 moveto
7.79221 0 rlineto
1 setlinewidth
0.8 0.8 0.8 setrgbcolor
stroke
246.429 527.5 moveto
7.79221 0 rlineto
1 setlinewidth
0.8 0.8 0.8 setrgbcolor
stroke
262.013 527.5 moveto
7.79221 0 rlineto
1 setlinewidth
0.8 0.8 0.8 setrgbcolor
stroke
277.597 527.5 moveto
7.79221 0 rlineto
1 setlinewidth
0.8 0.8 0.8 setrgbcolor
stroke
293.182 527.5 moveto
7.79221 0 rlineto
1 setlinewidth
0.8 0.8 0.8 setrgbcolor
stroke
308.766 527.5 moveto
7.79221 0 rlineto
1 setlinewidth
0.8 0.8 0.8 setrgbcolor
stroke
324.351 527.5 moveto
7.79221 0 rlineto
1 setlinewidth
0.8 0.8 0.8 setrgbcolor
stroke
339.935 527.5 moveto
7.79221 0 rlineto
1 setlinewidth
0.8 0.8 0.8 setrgbcolor
stroke
355.519 527.5 moveto
7.79221 0 rlineto
1 setlinewidth
0.8 0.8 0.8 setrgbcolor
stroke
371.104 527.5 moveto
7.79221 0 rlineto
1 setlinewidth
0.8 0.8 0.8 setrgbcolor
stroke
386.688 527.5 moveto
7.79221 0 rlineto
1 setlinewidth
0.8 0.8 0.8 setrgbcolor
stroke
402.273 527.5 moveto
7.79221 0 rlineto
1 setlinewidth
0.8 0.8 0.8 setrgbcolor
stroke
417.857 527.5 moveto
7.79221 0 rlineto
1 setlinewidth
0.8 0.8 0.8 setrgbcolor
stroke
433.442 527.5 moveto
7.79221 0 rlineto
1 setlinewidth
0.8 0.8 0.8 setrgbcolor
stroke
449.026 527.5 moveto
7.79221 0 rlineto
1 setlinewidth
0.8 0.8 0.8 setrgbcolor
stroke
464.61 527.5 moveto
7.79221 0 rlineto
1 setlinewidth
0.8 0.8 0.8 setrgbcolor
stroke
480.195 527.5 moveto
7.79221 0 rlineto
1 setlinewidth
0.8 0.8 0.8 setrgbcolor
stroke
495.779 527.5 moveto
7.79221 0 rlineto
1 setlinewidth
0.8 0.8 0.8 setrgbcolor
stroke
511.364 527.5 moveto
7.79221 0 rlineto
1 setlinewidth
0.8 0.8 0.8 setrgbcolor
stroke
526.948 527.5 moveto
7.79221 0 rlineto
1 setlinewidth
0.8 0.8 0.8 setrgbcolor
stroke
542.532 527.5 moveto
7.79221 0 rlineto
1 setlinewidth
0.8 0.8 0.8 setrgbcolor
stroke
558.117 527.5 moveto
7.79221 0 rlineto
1 setlinewidth
0.8 0.8 0.8 setrgbcolor
stroke
573.701 527.5 moveto
7.79221 0 rlineto
1 setlinewidth
0.8 0.8 0.8 setrgbcolor
stroke
589.286 527.5 moveto
7.79221 0 rlineto
1 setlinewidth
0.8 0.8 0.8 setrgbcolor
stroke
604.87 527.5 moveto
7.79221 0 rlineto
1 setlinewidth
0.8 0.8 0.8 setrgbcolor
stroke
620.455 527.5 moveto
7.79221 0 rlineto
1 setlinewidth
0.8 0.8 0.8 setrgbcolor
stroke
636.039 527.5 moveto
7.79221 0 rlineto
1 setlinewidth
0.8 0.8 0.8 setrgbcolor
stroke
651.623 527.5 moveto
7.79221 0 rlineto
1 setlinewidth
0.8 0.8 0.8 setrgbcolor
stroke
667.208 527.5 moveto
7.79221 0 rlineto
1 setlinewidth
0.8 0.8 0.8 setrgbcolor
stroke
75 590 moveto
75 590 moveto
7.79221 0 rlineto
1 setlinewidth
0.8 0.8 0.8 setrgbcolor
stroke
90.5844 590 moveto
7.79221 0 rlineto
1 setlinewidth
0.8 0.8 0.8 setrgbcolor
stroke
106.169 590 moveto
7.79221 0 rlineto
1 setlinewidth
0.8 0.8 0.8 setrgbcolor
stroke
121.753 590 moveto
7.79221 0 rlineto
1 setlinewidth
0.8 0.8 0.8 setrgbcolor
stroke
137.338 590 moveto
7.79221 0 rlineto
1 setlinewidth
0.8 0.8 0.8 setrgbcolor
stroke
152.922 590 moveto
7.79221 0 rlineto
1 setlinewidth
0.8 0.8 0.8 setrgbcolor
stroke
168.506 590 moveto
7.79221 0 rlineto
1 setlinewidth
0.8 0.8 0.8 setrgbcolor
stroke
184.091 590 moveto
7.79221 0 rlineto
1 setlinewidth
0.8 0.8 0.8 setrgbcolor
stroke
199.675 590 moveto
7.79221 0 rlineto
1 setlinewidth
0.8 0.8 0.8 setrgbcolor
stroke
215.26 590 moveto
7.79221 0 rlineto
1 setlinewidth
0.8 0.8 0.8 setrgbcolor
stroke
230.844 590 moveto
7.79221 0 rlineto
1 setlinewidth
0.8 0.8 0.8 setrgbcolor
stroke
246.429 590 moveto
7.79221 0 rlineto
1 setlinewidth
0.8 0.8 0.8 setrgbcolor
stroke
262.013 590 moveto
7.79221 0 rlineto
1 setlinewidth
0.8 0.8 0.8 setrgbcolor
stroke
277.597 590 moveto
7.79221 0 rlineto
1 setlinewidth
0.8 0.8 0.8 setrgbcolor
stroke
293.182 590 moveto
7.79221 0 rlineto
1 setlinewidth
0.8 0.8 0.8 setrgbcolor
stroke
308.766 590 moveto
7.79221 0 rlineto
1 setlinewidth
0.8 0.8 0.8 setrgbcolor
stroke
324.351 590 moveto
7.79221 0 rlineto
1 setlinewidth
0.8 0.8 0.8 setrgbcolor
stroke
339.935 590 moveto
7.79221 0 rlineto
1 setlinewidth
0.8 0.8 0.8 setrgbcolor
stroke
355.519 590 moveto
7.79221 0 rlineto
1 setlinewidth
0.8 0.8 0.8 setrgbcolor
stroke
371.104 590 moveto
7.79221 0 rlineto
1 setlinewidth
0.8 0.8 0.8 setrgbcolor
stroke
386.688 590 moveto
7.79221 0 rlineto
1 setlinewidth
0.8 0.8 0.8 setrgbcolor
stroke
402.273 590 moveto
7.79221 0 rlineto
1 setlinewidth
0.8 0.8 0.8 setrgbcolor
stroke
417.857 590 moveto
7.79221 0 rlineto
1 setlinewidth
0.8 0.8 0.8 setrgbcolor
stroke
433.442 590 moveto
7.79221 0 rlineto
1 setlinewidth
0.8 0.8 0.8 setrgbcolor
stroke
449.026 590 moveto
7.79221 0 rlineto
1 setlinewidth
0.8 0.8 0.8 setrgbcolor
stroke
464.61 590 moveto
7.79221 0 rlineto
1 setlinewidth
0.8 0.8 0.8 setrgbcolor
stroke
480.195 590 moveto
7.79221 0 rlineto
1 setlinewidth
0.8 0.8 0.8 setrgbcolor
stroke
495.779 590 moveto
7.79221 0 rlineto
1 setlinewidth
0.8 0.8 0.8 setrgbcolor
stroke
511.364 590 moveto
7.79221 0 rlineto
1 setlinewidth
0.8 0.8 0.8 setrgbcolor
stroke
526.948 590 moveto
7.79221 0 rlineto
1 setlinewidth
0.8 0.8 0.8 setrgbcolor
stroke
542.532 590 moveto
7.79221 0 rlineto
1 setlinewidth
0.8 0.8 0.8 setrgbcolor
stroke
558.117 590 moveto
7.79221 0 rlineto
1 setlinewidth
0.8 0.8 0.8 setrgbcolor
stroke
573.701 590 moveto
7.79221 0 rlineto
1 setlinewidth
0.8 0.8 0.8 setrgbcolor
stroke
589.286 590 moveto
7.79221 0 rlineto
1 setlinewidth
0.8 0.8 0.8 setrgbcolor
stroke
604.87 590 moveto
7.79221 0 rlineto
1 setlinewidth
0.8 0.8 0.8 setrgbcolor
stroke
620.455 590 moveto
7.79221 0 rlineto
1 setlinewidth
0.8 0.8 0.8 setrgbcolor
stroke
636.039 590 moveto
7.79221 0 rlineto
1 setlinewidth
0.8 0.8 0.8 setrgbcolor
stroke
651.623 590 moveto
7.79221 0 rlineto
1 setlinewidth
0.8 0.8 0.8 setrgbcolor
stroke
667.208 590 moveto
7.79221 0 rlineto
1 setlinewidth
0.8 0.8 0.8 setrgbcolor
stroke
newpath
75 90 moveto
600 0 rlineto
0 500 rlineto
-600 0 rlineto
closepath
1 setlinewidth
0 0 0 setrgbcolor
stroke
/Times findfont
16 scalefont
setfont
375 600 moveto
0 0 0 setrgbcolor
( Histogram of rlnAccumMotionLate) dup stringwidth pop 2 div neg 0 rmoveto show
75 90 moveto
0 7.81025 rlineto
1 setlinewidth
0 0 0 setrgbcolor
stroke
160.714 90 moveto
0 7.81025 rlineto
1 setlinewidth
0 0 0 setrgbcolor
stroke
246.429 90 moveto
0 7.81025 rlineto
1 setlinewidth
0 0 0 setrgbcolor
stroke
332.143 90 moveto
0 7.81025 rlineto
1 setlinewidth
0 0 0 setrgbcolor
stroke
417.857 90 moveto
0 7.81025 rlineto
1 setlinewidth
0 0 0 setrgbcolor
stroke
503.571 90 moveto
0 7.81025 rlineto
1 setlinewidth
0 0 0 setrgbcolor
stroke
589.286 90 moveto
0 7.81025 rlineto
1 setlinewidth
0 0 0 setrgbcolor
stroke
675 90 moveto
0 7.81025 rlineto
1 setlinewidth
0 0 0 setrgbcolor
stroke
75 90 moveto
7.81025 0 rlineto
1 setlinewidth
0 0 0 setrgbcolor
stroke
75 152.5 moveto
7.81025 0 rlineto
1 setlinewidth
0 0 0 setrgbcolor
stroke
75 215 moveto
7.81025 0 rlineto
1 setlinewidth
0 0 0 setrgbcolor
stroke
75 277.5 moveto
7.81025 0 rlineto
1 setlinewidth
0 0 0 setrgbcolor
stroke
75 340 moveto
7.81025 0 rlineto
1 setlinewidth
0 0 0 setrgbcolor
stroke
75 402.5 moveto
7.81025 0 rlineto
1 setlinewidth
0 0 0 setrgbcolor
stroke
75 465 moveto
7.81025 0 rlineto
1 setlinewidth
0 0 0 setrgbcolor
stroke
75 527.5 moveto
7.81025 0 rlineto
1 setlinewidth
0 0 0 setrgbcolor
stroke
75 590 moveto
7.81025 0 rlineto
1 setlinewidth
0 0 0 setrgbcolor
stroke
/Times findfont
12 scalefont
setfont
75 75 moveto
0 0 0 setrgbcolor
(8) dup stringwidth pop 2 div neg 0 rmoveto show
/Times findfont
12 scalefont
setfont
160.714 75 moveto
0 0 0 setrgbcolor
(10) dup stringwidth pop 2 div neg 0 rmoveto show
/Times findfont
12 scalefont
setfont
246.429 75 moveto
0 0 0 setrgbcolor
(12) dup stringwidth pop 2 div neg 0 rmoveto show
/Times findfont
12 scalefont
setfont
332.143 75 moveto
0 0 0 setrgbcolor
(14) dup stringwidth pop 2 div neg 0 rmoveto show
/Times findfont
12 scalefont
setfont
417.857 75 moveto
0 0 0 setrgbcolor
(16) dup stringwidth pop 2 div neg 0 rmoveto show
/Times findfont
12 scalefont
setfont
503.571 75 moveto
0 0 0 setrgbcolor
(18) dup stringwidth pop 2 div neg 0 rmoveto show
/Times findfont
12 scalefont
setfont
589.286 75 moveto
0 0 0 setrgbcolor
(20) dup stringwidth pop 2 div neg 0 rmoveto show
/Times findfont
12 scalefont
setfont
675 75 moveto
0 0 0 setrgbcolor
(22) dup stringwidth pop 2 div neg 0 rmoveto show
/Times findfont
12 scalefont
setfont
69 87 moveto
0 0 0 setrgbcolor
(0) dup stringwidth pop neg 0 rmoveto show
/Times findfont
12 scalefont
setfont
69 149.5 moveto
0 0 0 setrgbcolor
(1) dup stringwidth pop neg 0 rmoveto show
/Times findfont
12 scalefont
setfont
69 212 moveto
0 0 0 setrgbcolor
(2) dup stringwidth pop neg 0 rmoveto show
/Times findfont
12 scalefont
setfont
69 274.5 moveto
0 0 0 setrgbcolor
(3) dup stringwidth pop neg 0 rmoveto show
/Times findfont
12 scalefont
setfont
69 337 moveto
0 0 0 setrgbcolor
(4) dup stringwidth pop neg 0 rmoveto show
/Times findfont
12 scalefont
setfont
69 399.5 moveto
0 0 0 setrgbcolor
(5) dup stringwidth pop neg 0 rmoveto show
/Times findfont
12 scalefont
setfont
69 462 moveto
0 0 0 setrgbcolor
(6) dup stringwidth pop neg 0 rmoveto show
/Times findfont
12 scalefont
setfont
69 524.5 moveto
0 0 0 setrgbcolor
(7) dup stringwidth pop neg 0 rmoveto show
/Times findfont
12 scalefont
setfont
69 587 moveto
0 0 0 setrgbcolor
(8) dup stringwidth pop neg 0 rmoveto show
/Times findfont
16 scalefont
setfont
375 58 moveto
0 0 0 setrgbcolor
(rlnAccumMotionLate) dup stringwidth pop 2 div neg 0 rmoveto show
/Times findfont
16 scalefont
setfont
26 340 moveto
90 rotate
0 0 0 setrgbcolor
(# entries) dup stringwidth pop 2 div neg 0 rmoveto show
-90 rotate
newpath
77.719 90 moveto
77.719 90 lineto
131.267 90 lineto
131.267 90 lineto
131.267 90 lineto
131.267 152.5 lineto
184.816 152.5 lineto
184.816 90 lineto
184.816 90 lineto
184.816 277.5 lineto
238.364 277.5 lineto
238.364 90 lineto
238.364 90 lineto
238.364 590 lineto
291.912 590 lineto
291.912 90 lineto
291.912 90 lineto
291.912 402.5 lineto
345.46 402.5 lineto
345.46 90 lineto
345.46 90 lineto
345.46 215 lineto
399.009 215 lineto
399.009 90 lineto
399.009 90 lineto
399.009 215 lineto
452.557 215 lineto
452.557 90 lineto
452.557 90 lineto
452.557 152.5 lineto
506.105 152.5 lineto
506.105 90 lineto
506.105 90 lineto
506.105 90 lineto
559.654 90 lineto
559.654 90 lineto
559.654 90 lineto
559.654 90 lineto
613.202 90 lineto
613.202 90 lineto
613.202 90 lineto
613.202 152.5 lineto
666.75 152.5 lineto
666.75 90 lineto
1 setlinewidth
1 0 0 setrgbcolor
stroke
