%!PS-Adobe-2.0 EPSF-1.2
%%BoundingBox: 0 0 715 630
%%Pages: 1
%%EndComments
75 90 moveto
75 90 moveto
0 7.69231 rlineto
1 setlinewidth
0.8 0.8 0.8 setrgbcolor
stroke
75 105.385 moveto
0 7.69231 rlineto
1 setlinewidth
0.8 0.8 0.8 setrgbcolor
stroke
75 120.769 moveto
0 7.69231 rlineto
1 setlinewidth
0.8 0.8 0.8 setrgbcolor
stroke
75 136.154 moveto
0 7.69231 rlineto
1 setlinewidth
0.8 0.8 0.8 setrgbcolor
stroke
75 151.538 moveto
0 7.69231 rlineto
1 setlinewidth
0.8 0.8 0.8 setrgbcolor
stroke
75 166.923 moveto
0 7.69231 rlineto
1 setlinewidth
0.8 0.8 0.8 setrgbcolor
stroke
75 182.308 moveto
0 7.69231 rlineto
1 setlinewidth
0.8 0.8 0.8 setrgbcolor
stroke
75 197.692 moveto
0 7.69231 rlineto
1 setlinewidth
0.8 0.8 0.8 setrgbcolor
stroke
75 213.077 moveto
0 7.69231 rlineto
1 setlinewidth
0.8 0.8 0.8 setrgbcolor
stroke
75 228.462 moveto
0 7.69231 rlineto
1 setlinewidth
0.8 0.8 0.8 setrgbcolor
stroke
75 243.846 moveto
0 7.69231 rlineto
1 setlinewidth
0.8 0.8 0.8 setrgbcolor
stroke
75 259.231 moveto
0 7.69231 rlineto
1 setlinewidth
0.8 0.8 0.8 setrgbcolor
stroke
75 274.615 moveto
0 7.69231 rlineto
1 setlinewidth
0.8 0.8 0.8 setrgbcolor
stroke
75 290 moveto
0 7.69231 rlineto
1 setlinewidth
0.8 0.8 0.8 setrgbcolor
stroke
75 305.385 moveto
0 7.69231 rlineto
1 setlinewidth
0.8 0.8 0.8 setrgbcolor
stroke
75 320.769 moveto
0 7.69231 rlineto
1 setlinewidth
0.8 0.8 0.8 setrgbcolor
stroke
75 336.154 moveto
0 7.69231 rlineto
1 setlinewidth
0.8 0.8 0.8 setrgbcolor
stroke
75 351.538 moveto
0 7.69231 rlineto
1 setlinewidth
0.8 0.8 0.8 setrgbcolor
stroke
75 366.923 moveto
0 7.69231 rlineto
1 setlinewidth
0.8 0.8 0.8 setrgbcolor
stroke
75 382.308 moveto
0 7.69231 rlineto
1 setlinewidth
0.8 0.8 0.8 setrgbcolor
stroke
75 397.692 moveto
0 7.69231 rlineto
1 setlinewidth
0.8 0.8 0.8 setrgbcolor
stroke
75 413.077 moveto
0 7.69231 rlineto
1 setlinewidth
0.8 0.8 0.8 setrgbcolor
stroke
75 428.462 moveto
0 7.69231 rlineto
1 setlinewidth
0.8 0.8 0.8 setrgbcolor
stroke
75 443.846 moveto
0 7.69231 rlineto
1 setlinewidth
0.8 0.8 0.8 setrgbcolor
stroke
75 459.231 moveto
0 7.69231 rlineto
1 setlinewidth
0.8 0.8 0.8 setrgbcolor
stroke
75 474.615 moveto
0 7.69231 rlineto
1 setlinewidth
0.8 0.8 0.8 setrgbcolor
stroke
75 490 moveto
0 7.69231 rlineto
1 setlinewidth
0.8 0.8 0.8 setrgbcolor
stroke
75 505.385 moveto
0 7.69231 rlineto
1 setlinewidth
0.8 0.8 0.8 setrgbcolor
stroke
75 520.769 moveto
0 7.69231 rlineto
1 setlinewidth
0.8 0.8 0.8 setrgbcolor
stroke
75 536.154 moveto
0 7.69231 rlineto
1 setlinewidth
0.8 0.8 0.8 setrgbcolor
stroke
75 551.538 moveto
0 7.69231 rlineto
1 setlinewidth
0.8 0.8 0.8 setrgbcolor
stroke
75 566.923 moveto
0 7.69231 rlineto
1 setlinewidth
0.8 0.8 0.8 setrgbcolor
stroke
75 582.308 moveto
0 7.69231 rlineto
1 setlinewidth
0.8 0.8 0.8 setrgbcolor
stroke
129.545 90 moveto
129.545 90 moveto
0 7.69231 rlineto
1 setlinewidth
0.8 0.8 0.8 setrgbcolor
stroke
129.545 105.385 moveto
0 7.69231 rlineto
1 setlinewidth
0.8 0.8 0.8 setrgbcolor
stroke
129.545 120.769 moveto
0 7.69231 rlineto
1 setlinewidth
0.8 0.8 0.8 setrgbcolor
stroke
129.545 136.154 moveto
0 7.69231 rlineto
1 setlinewidth
0.8 0.8 0.8 setrgbcolor
stroke
129.545 151.538 moveto
0 7.69231 rlineto
1 setlinewidth
0.8 0.8 0.8 setrgbcolor
stroke
129.545 166.923 moveto
0 7.69231 rlineto
1 setlinewidth
0.8 0.8 0.8 setrgbcolor
stroke
129.545 182.308 moveto
0 7.69231 rlineto
1 setlinewidth
0.8 0.8 0.8 setrgbcolor
stroke
129.545 197.692 moveto
0 7.69231 rlineto
1 setlinewidth
0.8 0.8 0.8 setrgbcolor
stroke
129.545 213.077 moveto
0 7.69231 rlineto
1 setlinewidth
0.8 0.8 0.8 setrgbcolor
stroke
129.545 228.462 moveto
0 7.69231 rlineto
1 setlinewidth
0.8 0.8 0.8 setrgbcolor
stroke
129.545 243.846 moveto
0 7.69231 rlineto
1 setlinewidth
0.8 0.8 0.8 setrgbcolor
stroke
129.545 259.231 moveto
0 7.69231 rlineto
1 setlinewidth
0.8 0.8 0.8 setrgbcolor
stroke
129.545 274.615 moveto
0 7.69231 rlineto
1 setlinewidth
0.8 0.8 0.8 setrgbcolor
stroke
129.545 290 moveto
0 7.69231 rlineto
1 setlinewidth
0.8 0.8 0.8 setrgbcolor
stroke
129.545 305.385 moveto
0 7.69231 rlineto
1 setlinewidth
0.8 0.8 0.8 setrgbcolor
stroke
129.545 320.769 moveto
0 7.69231 rlineto
1 setlinewidth
0.8 0.8 0.8 setrgbcolor
stroke
129.545 336.154 moveto
0 7.69231 rlineto
1 setlinewidth
0.8 0.8 0.8 setrgbcolor
stroke
129.545 351.538 moveto
0 7.69231 rlineto
1 setlinewidth
0.8 0.8 0.8 setrgbcolor
stroke
129.545 366.923 moveto
0 7.69231 rlineto
1 setlinewidth
0.8 0.8 0.8 setrgbcolor
stroke
129.545 382.308 moveto
0 7.69231 rlineto
1 setlinewidth
0.8 0.8 0.8 setrgbcolor
stroke
129.545 397.692 moveto
0 7.69231 rlineto
1 setlinewidth
0.8 0.8 0.8 setrgbcolor
stroke
129.545 413.077 moveto
0 7.69231 rlineto
1 setlinewidth
0.8 0.8 0.8 setrgbcolor
stroke
129.545 428.462 moveto
0 7.69231 rlineto
1 setlinewidth
0.8 0.8 0.8 setrgbcolor
stroke
129.545 443.846 moveto
0 7.69231 rlineto
1 setlinewidth
0.8 0.8 0.8 setrgbcolor
stroke
129.545 459.231 moveto
0 7.69231 rlineto
1 setlinewidth
0.8 0.8 0.8 setrgbcolor
stroke
129.545 474.615 moveto
0 7.69231 rlineto
1 setlinewidth
0.8 0.8 0.8 setrgbcolor
stroke
129.545 490 moveto
0 7.69231 rlineto
1 setlinewidth
0.8 0.8 0.8 setrgbcolor
stroke
129.545 505.385 moveto
0 7.69231 rlineto
1 setlinewidth
0.8 0.8 0.8 setrgbcolor
stroke
129.545 520.769 moveto
0 7.69231 rlineto
1 setlinewidth
0.8 0.8 0.8 setrgbcolor
stroke
129.545 536.154 moveto
0 7.69231 rlineto
1 setlinewidth
0.8 0.8 0.8 setrgbcolor
stroke
129.545 551.538 moveto
0 7.69231 rlineto
1 setlinewidth
0.8 0.8 0.8 setrgbcolor
stroke
129.545 566.923 moveto
0 7.69231 rlineto
1 setlinewidth
0.8 0.8 0.8 setrgbcolor
stroke
129.545 582.308 moveto
0 7.69231 rlineto
1 setlinewidth
0.8 0.8 0.8 setrgbcolor
stroke
184.091 90 moveto
184.091 90 moveto
0 7.69231 rlineto
1 setlinewidth
0.8 0.8 0.8 setrgbcolor
stroke
184.091 105.385 moveto
0 7.69231 rlineto
1 setlinewidth
0.8 0.8 0.8 setrgbcolor
stroke
184.091 120.769 moveto
0 7.69231 rlineto
1 setlinewidth
0.8 0.8 0.8 setrgbcolor
stroke
184.091 136.154 moveto
0 7.69231 rlineto
1 setlinewidth
0.8 0.8 0.8 setrgbcolor
stroke
184.091 151.538 moveto
0 7.69231 rlineto
1 setlinewidth
0.8 0.8 0.8 setrgbcolor
stroke
184.091 166.923 moveto
0 7.69231 rlineto
1 setlinewidth
0.8 0.8 0.8 setrgbcolor
stroke
184.091 182.308 moveto
0 7.69231 rlineto
1 setlinewidth
0.8 0.8 0.8 setrgbcolor
stroke
184.091 197.692 moveto
0 7.69231 rlineto
1 setlinewidth
0.8 0.8 0.8 setrgbcolor
stroke
184.091 213.077 moveto
0 7.69231 rlineto
1 setlinewidth
0.8 0.8 0.8 setrgbcolor
stroke
184.091 228.462 moveto
0 7.69231 rlineto
1 setlinewidth
0.8 0.8 0.8 setrgbcolor
stroke
184.091 243.846 moveto
0 7.69231 rlineto
1 setlinewidth
0.8 0.8 0.8 setrgbcolor
stroke
184.091 259.231 moveto
0 7.69231 rlineto
1 setlinewidth
0.8 0.8 0.8 setrgbcolor
stroke
184.091 274.615 moveto
0 7.69231 rlineto
1 setlinewidth
0.8 0.8 0.8 setrgbcolor
stroke
184.091 290 moveto
0 7.69231 rlineto
1 setlinewidth
0.8 0.8 0.8 setrgbcolor
stroke
184.091 305.385 moveto
0 7.69231 rlineto
1 setlinewidth
0.8 0.8 0.8 setrgbcolor
stroke
184.091 320.769 moveto
0 7.69231 rlineto
1 setlinewidth
0.8 0.8 0.8 setrgbcolor
stroke
184.091 336.154 moveto
0 7.69231 rlineto
1 setlinewidth
0.8 0.8 0.8 setrgbcolor
stroke
184.091 351.538 moveto
0 7.69231 rlineto
1 setlinewidth
0.8 0.8 0.8 setrgbcolor
stroke
184.091 366.923 moveto
0 7.69231 rlineto
1 setlinewidth
0.8 0.8 0.8 setrgbcolor
stroke
184.091 382.308 moveto
0 7.69231 rlineto
1 setlinewidth
0.8 0.8 0.8 setrgbcolor
stroke
184.091 397.692 moveto
0 7.69231 rlineto
1 setlinewidth
0.8 0.8 0.8 setrgbcolor
stroke
184.091 413.077 moveto
0 7.69231 rlineto
1 setlinewidth
0.8 0.8 0.8 setrgbcolor
stroke
184.091 428.462 moveto
0 7.69231 rlineto
1 setlinewidth
0.8 0.8 0.8 setrgbcolor
stroke
184.091 443.846 moveto
0 7.69231 rlineto
1 setlinewidth
0.8 0.8 0.8 setrgbcolor
stroke
184.091 459.231 moveto
0 7.69231 rlineto
1 setlinewidth
0.8 0.8 0.8 setrgbcolor
stroke
184.091 474.615 moveto
0 7.69231 rlineto
1 setlinewidth
0.8 0.8 0.8 setrgbcolor
stroke
184.091 490 moveto
0 7.69231 rlineto
1 setlinewidth
0.8 0.8 0.8 setrgbcolor
stroke
184.091 505.385 moveto
0 7.69231 rlineto
1 setlinewidth
0.8 0.8 0.8 setrgbcolor
stroke
184.091 520.769 moveto
0 7.69231 rlineto
1 setlinewidth
0.8 0.8 0.8 setrgbcolor
stroke
184.091 536.154 moveto
0 7.69231 rlineto
1 setlinewidth
0.8 0.8 0.8 setrgbcolor
stroke
184.091 551.538 moveto
0 7.69231 rlineto
1 setlinewidth
0.8 0.8 0.8 setrgbcolor
stroke
184.091 566.923 moveto
0 7.69231 rlineto
1 setlinewidth
0.8 0.8 0.8 setrgbcolor
stroke
184.091 582.308 moveto
0 7.69231 rlineto
1 setlinewidth
0.8 0.8 0.8 setrgbcolor
stroke
238.636 90 moveto
238.636 90 moveto
0 7.69231 rlineto
1 setlinewidth
0.8 0.8 0.8 setrgbcolor
stroke
238.636 105.385 moveto
0 7.69231 rlineto
1 setlinewidth
0.8 0.8 0.8 setrgbcolor
stroke
238.636 120.769 moveto
0 7.69231 rlineto
1 setlinewidth
0.8 0.8 0.8 setrgbcolor
stroke
238.636 136.154 moveto
0 7.69231 rlineto
1 setlinewidth
0.8 0.8 0.8 setrgbcolor
stroke
238.636 151.538 moveto
0 7.69231 rlineto
1 setlinewidth
0.8 0.8 0.8 setrgbcolor
stroke
238.636 166.923 moveto
0 7.69231 rlineto
1 setlinewidth
0.8 0.8 0.8 setrgbcolor
stroke
238.636 182.308 moveto
0 7.69231 rlineto
1 setlinewidth
0.8 0.8 0.8 setrgbcolor
stroke
238.636 197.692 moveto
0 7.69231 rlineto
1 setlinewidth
0.8 0.8 0.8 setrgbcolor
stroke
238.636 213.077 moveto
0 7.69231 rlineto
1 setlinewidth
0.8 0.8 0.8 setrgbcolor
stroke
238.636 228.462 moveto
0 7.69231 rlineto
1 setlinewidth
0.8 0.8 0.8 setrgbcolor
stroke
238.636 243.846 moveto
0 7.69231 rlineto
1 setlinewidth
0.8 0.8 0.8 setrgbcolor
stroke
238.636 259.231 moveto
0 7.69231 rlineto
1 setlinewidth
0.8 0.8 0.8 setrgbcolor
stroke
238.636 274.615 moveto
0 7.69231 rlineto
1 setlinewidth
0.8 0.8 0.8 setrgbcolor
stroke
238.636 290 moveto
0 7.69231 rlineto
1 setlinewidth
0.8 0.8 0.8 setrgbcolor
stroke
238.636 305.385 moveto
0 7.69231 rlineto
1 setlinewidth
0.8 0.8 0.8 setrgbcolor
stroke
238.636 320.769 moveto
0 7.69231 rlineto
1 setlinewidth
0.8 0.8 0.8 setrgbcolor
stroke
238.636 336.154 moveto
0 7.69231 rlineto
1 setlinewidth
0.8 0.8 0.8 setrgbcolor
stroke
238.636 351.538 moveto
0 7.69231 rlineto
1 setlinewidth
0.8 0.8 0.8 setrgbcolor
stroke
238.636 366.923 moveto
0 7.69231 rlineto
1 setlinewidth
0.8 0.8 0.8 setrgbcolor
stroke
238.636 382.308 moveto
0 7.69231 rlineto
1 setlinewidth
0.8 0.8 0.8 setrgbcolor
stroke
238.636 397.692 moveto
0 7.69231 rlineto
1 setlinewidth
0.8 0.8 0.8 setrgbcolor
stroke
238.636 413.077 moveto
0 7.69231 rlineto
1 setlinewidth
0.8 0.8 0.8 setrgbcolor
stroke
238.636 428.462 moveto
0 7.69231 rlineto
1 setlinewidth
0.8 0.8 0.8 setrgbcolor
stroke
238.636 443.846 moveto
0 7.69231 rlineto
1 setlinewidth
0.8 0.8 0.8 setrgbcolor
stroke
238.636 459.231 moveto
0 7.69231 rlineto
1 setlinewidth
0.8 0.8 0.8 setrgbcolor
stroke
238.636 474.615 moveto
0 7.69231 rlineto
1 setlinewidth
0.8 0.8 0.8 setrgbcolor
stroke
238.636 490 moveto
0 7.69231 rlineto
1 setlinewidth
0.8 0.8 0.8 setrgbcolor
stroke
238.636 505.385 moveto
0 7.69231 rlineto
1 setlinewidth
0.8 0.8 0.8 setrgbcolor
stroke
238.636 520.769 moveto
0 7.69231 rlineto
1 setlinewidth
0.8 0.8 0.8 setrgbcolor
stroke
238.636 536.154 moveto
0 7.69231 rlineto
1 setlinewidth
0.8 0.8 0.8 setrgbcolor
stroke
238.636 551.538 moveto
0 7.69231 rlineto
1 setlinewidth
0.8 0.8 0.8 setrgbcolor
stroke
238.636 566.923 moveto
0 7.69231 rlineto
1 setlinewidth
0.8 0.8 0.8 setrgbcolor
stroke
238.636 582.308 moveto
0 7.69231 rlineto
1 setlinewidth
0.8 0.8 0.8 setrgbcolor
stroke
293.182 90 moveto
293.182 90 moveto
0 7.69231 rlineto
1 setlinewidth
0.8 0.8 0.8 setrgbcolor
stroke
293.182 105.385 moveto
0 7.69231 rlineto
1 setlinewidth
0.8 0.8 0.8 setrgbcolor
stroke
293.182 120.769 moveto
0 7.69231 rlineto
1 setlinewidth
0.8 0.8 0.8 setrgbcolor
stroke
293.182 136.154 moveto
0 7.69231 rlineto
1 setlinewidth
0.8 0.8 0.8 setrgbcolor
stroke
293.182 151.538 moveto
0 7.69231 rlineto
1 setlinewidth
0.8 0.8 0.8 setrgbcolor
stroke
293.182 166.923 moveto
0 7.69231 rlineto
1 setlinewidth
0.8 0.8 0.8 setrgbcolor
stroke
293.182 182.308 moveto
0 7.69231 rlineto
1 setlinewidth
0.8 0.8 0.8 setrgbcolor
stroke
293.182 197.692 moveto
0 7.69231 rlineto
1 setlinewidth
0.8 0.8 0.8 setrgbcolor
stroke
293.182 213.077 moveto
0 7.69231 rlineto
1 setlinewidth
0.8 0.8 0.8 setrgbcolor
stroke
293.182 228.462 moveto
0 7.69231 rlineto
1 setlinewidth
0.8 0.8 0.8 setrgbcolor
stroke
293.182 243.846 moveto
0 7.69231 rlineto
1 setlinewidth
0.8 0.8 0.8 setrgbcolor
stroke
293.182 259.231 moveto
0 7.69231 rlineto
1 setlinewidth
0.8 0.8 0.8 setrgbcolor
stroke
293.182 274.615 moveto
0 7.69231 rlineto
1 setlinewidth
0.8 0.8 0.8 setrgbcolor
stroke
293.182 290 moveto
0 7.69231 rlineto
1 setlinewidth
0.8 0.8 0.8 setrgbcolor
stroke
293.182 305.385 moveto
0 7.69231 rlineto
1 setlinewidth
0.8 0.8 0.8 setrgbcolor
stroke
293.182 320.769 moveto
0 7.69231 rlineto
1 setlinewidth
0.8 0.8 0.8 setrgbcolor
stroke
293.182 336.154 moveto
0 7.69231 rlineto
1 setlinewidth
0.8 0.8 0.8 setrgbcolor
stroke
293.182 351.538 moveto
0 7.69231 rlineto
1 setlinewidth
0.8 0.8 0.8 setrgbcolor
stroke
293.182 366.923 moveto
0 7.69231 rlineto
1 setlinewidth
0.8 0.8 0.8 setrgbcolor
stroke
293.182 382.308 moveto
0 7.69231 rlineto
1 setlinewidth
0.8 0.8 0.8 setrgbcolor
stroke
293.182 397.692 moveto
0 7.69231 rlineto
1 setlinewidth
0.8 0.8 0.8 setrgbcolor
stroke
293.182 413.077 moveto
0 7.69231 rlineto
1 setlinewidth
0.8 0.8 0.8 setrgbcolor
stroke
293.182 428.462 moveto
0 7.69231 rlineto
1 setlinewidth
0.8 0.8 0.8 setrgbcolor
stroke
293.182 443.846 moveto
0 7.69231 rlineto
1 setlinewidth
0.8 0.8 0.8 setrgbcolor
stroke
293.182 459.231 moveto
0 7.69231 rlineto
1 setlinewidth
0.8 0.8 0.8 setrgbcolor
stroke
293.182 474.615 moveto
0 7.69231 rlineto
1 setlinewidth
0.8 0.8 0.8 setrgbcolor
stroke
293.182 490 moveto
0 7.69231 rlineto
1 setlinewidth
0.8 0.8 0.8 setrgbcolor
stroke
293.182 505.385 moveto
0 7.69231 rlineto
1 setlinewidth
0.8 0.8 0.8 setrgbcolor
stroke
293.182 520.769 moveto
0 7.69231 rlineto
1 setlinewidth
0.8 0.8 0.8 setrgbcolor
stroke
293.182 536.154 moveto
0 7.69231 rlineto
1 setlinewidth
0.8 0.8 0.8 setrgbcolor
stroke
293.182 551.538 moveto
0 7.69231 rlineto
1 setlinewidth
0.8 0.8 0.8 setrgbcolor
stroke
293.182 566.923 moveto
0 7.69231 rlineto
1 setlinewidth
0.8 0.8 0.8 setrgbcolor
stroke
293.182 582.308 moveto
0 7.69231 rlineto
1 setlinewidth
0.8 0.8 0.8 setrgbcolor
stroke
347.727 90 moveto
347.727 90 moveto
0 7.69231 rlineto
1 setlinewidth
0.8 0.8 0.8 setrgbcolor
stroke
347.727 105.385 moveto
0 7.69231 rlineto
1 setlinewidth
0.8 0.8 0.8 setrgbcolor
stroke
347.727 120.769 moveto
0 7.69231 rlineto
1 setlinewidth
0.8 0.8 0.8 setrgbcolor
stroke
347.727 136.154 moveto
0 7.69231 rlineto
1 setlinewidth
0.8 0.8 0.8 setrgbcolor
stroke
347.727 151.538 moveto
0 7.69231 rlineto
1 setlinewidth
0.8 0.8 0.8 setrgbcolor
stroke
347.727 166.923 moveto
0 7.69231 rlineto
1 setlinewidth
0.8 0.8 0.8 setrgbcolor
stroke
347.727 182.308 moveto
0 7.69231 rlineto
1 setlinewidth
0.8 0.8 0.8 setrgbcolor
stroke
347.727 197.692 moveto
0 7.69231 rlineto
1 setlinewidth
0.8 0.8 0.8 setrgbcolor
stroke
347.727 213.077 moveto
0 7.69231 rlineto
1 setlinewidth
0.8 0.8 0.8 setrgbcolor
stroke
347.727 228.462 moveto
0 7.69231 rlineto
1 setlinewidth
0.8 0.8 0.8 setrgbcolor
stroke
347.727 243.846 moveto
0 7.69231 rlineto
1 setlinewidth
0.8 0.8 0.8 setrgbcolor
stroke
347.727 259.231 moveto
0 7.69231 rlineto
1 setlinewidth
0.8 0.8 0.8 setrgbcolor
stroke
347.727 274.615 moveto
0 7.69231 rlineto
1 setlinewidth
0.8 0.8 0.8 setrgbcolor
stroke
347.727 290 moveto
0 7.69231 rlineto
1 setlinewidth
0.8 0.8 0.8 setrgbcolor
stroke
347.727 305.385 moveto
0 7.69231 rlineto
1 setlinewidth
0.8 0.8 0.8 setrgbcolor
stroke
347.727 320.769 moveto
0 7.69231 rlineto
1 setlinewidth
0.8 0.8 0.8 setrgbcolor
stroke
347.727 336.154 moveto
0 7.69231 rlineto
1 setlinewidth
0.8 0.8 0.8 setrgbcolor
stroke
347.727 351.538 moveto
0 7.69231 rlineto
1 setlinewidth
0.8 0.8 0.8 setrgbcolor
stroke
347.727 366.923 moveto
0 7.69231 rlineto
1 setlinewidth
0.8 0.8 0.8 setrgbcolor
stroke
347.727 382.308 moveto
0 7.69231 rlineto
1 setlinewidth
0.8 0.8 0.8 setrgbcolor
stroke
347.727 397.692 moveto
0 7.69231 rlineto
1 setlinewidth
0.8 0.8 0.8 setrgbcolor
stroke
347.727 413.077 moveto
0 7.69231 rlineto
1 setlinewidth
0.8 0.8 0.8 setrgbcolor
stroke
347.727 428.462 moveto
0 7.69231 rlineto
1 setlinewidth
0.8 0.8 0.8 setrgbcolor
stroke
347.727 443.846 moveto
0 7.69231 rlineto
1 setlinewidth
0.8 0.8 0.8 setrgbcolor
stroke
347.727 459.231 moveto
0 7.69231 rlineto
1 setlinewidth
0.8 0.8 0.8 setrgbcolor
stroke
347.727 474.615 moveto
0 7.69231 rlineto
1 setlinewidth
0.8 0.8 0.8 setrgbcolor
stroke
347.727 490 moveto
0 7.69231 rlineto
1 setlinewidth
0.8 0.8 0.8 setrgbcolor
stroke
347.727 505.385 moveto
0 7.69231 rlineto
1 setlinewidth
0.8 0.8 0.8 setrgbcolor
stroke
347.727 520.769 moveto
0 7.69231 rlineto
1 setlinewidth
0.8 0.8 0.8 setrgbcolor
stroke
347.727 536.154 moveto
0 7.69231 rlineto
1 setlinewidth
0.8 0.8 0.8 setrgbcolor
stroke
347.727 551.538 moveto
0 7.69231 rlineto
1 setlinewidth
0.8 0.8 0.8 setrgbcolor
stroke
347.727 566.923 moveto
0 7.69231 rlineto
1 setlinewidth
0.8 0.8 0.8 setrgbcolor
stroke
347.727 582.308 moveto
0 7.69231 rlineto
1 setlinewidth
0.8 0.8 0.8 setrgbcolor
stroke
402.273 90 moveto
402.273 90 moveto
0 7.69231 rlineto
1 setlinewidth
0.8 0.8 0.8 setrgbcolor
stroke
402.273 105.385 moveto
0 7.69231 rlineto
1 setlinewidth
0.8 0.8 0.8 setrgbcolor
stroke
402.273 120.769 moveto
0 7.69231 rlineto
1 setlinewidth
0.8 0.8 0.8 setrgbcolor
stroke
402.273 136.154 moveto
0 7.69231 rlineto
1 setlinewidth
0.8 0.8 0.8 setrgbcolor
stroke
402.273 151.538 moveto
0 7.69231 rlineto
1 setlinewidth
0.8 0.8 0.8 setrgbcolor
stroke
402.273 166.923 moveto
0 7.69231 rlineto
1 setlinewidth
0.8 0.8 0.8 setrgbcolor
stroke
402.273 182.308 moveto
0 7.69231 rlineto
1 setlinewidth
0.8 0.8 0.8 setrgbcolor
stroke
402.273 197.692 moveto
0 7.69231 rlineto
1 setlinewidth
0.8 0.8 0.8 setrgbcolor
stroke
402.273 213.077 moveto
0 7.69231 rlineto
1 setlinewidth
0.8 0.8 0.8 setrgbcolor
stroke
402.273 228.462 moveto
0 7.69231 rlineto
1 setlinewidth
0.8 0.8 0.8 setrgbcolor
stroke
402.273 243.846 moveto
0 7.69231 rlineto
1 setlinewidth
0.8 0.8 0.8 setrgbcolor
stroke
402.273 259.231 moveto
0 7.69231 rlineto
1 setlinewidth
0.8 0.8 0.8 setrgbcolor
stroke
402.273 274.615 moveto
0 7.69231 rlineto
1 setlinewidth
0.8 0.8 0.8 setrgbcolor
stroke
402.273 290 moveto
0 7.69231 rlineto
1 setlinewidth
0.8 0.8 0.8 setrgbcolor
stroke
402.273 305.385 moveto
0 7.69231 rlineto
1 setlinewidth
0.8 0.8 0.8 setrgbcolor
stroke
402.273 320.769 moveto
0 7.69231 rlineto
1 setlinewidth
0.8 0.8 0.8 setrgbcolor
stroke
402.273 336.154 moveto
0 7.69231 rlineto
1 setlinewidth
0.8 0.8 0.8 setrgbcolor
stroke
402.273 351.538 moveto
0 7.69231 rlineto
1 setlinewidth
0.8 0.8 0.8 setrgbcolor
stroke
402.273 366.923 moveto
0 7.69231 rlineto
1 setlinewidth
0.8 0.8 0.8 setrgbcolor
stroke
402.273 382.308 moveto
0 7.69231 rlineto
1 setlinewidth
0.8 0.8 0.8 setrgbcolor
stroke
402.273 397.692 moveto
0 7.69231 rlineto
1 setlinewidth
0.8 0.8 0.8 setrgbcolor
stroke
402.273 413.077 moveto
0 7.69231 rlineto
1 setlinewidth
0.8 0.8 0.8 setrgbcolor
stroke
402.273 428.462 moveto
0 7.69231 rlineto
1 setlinewidth
0.8 0.8 0.8 setrgbcolor
stroke
402.273 443.846 moveto
0 7.69231 rlineto
1 setlinewidth
0.8 0.8 0.8 setrgbcolor
stroke
402.273 459.231 moveto
0 7.69231 rlineto
1 setlinewidth
0.8 0.8 0.8 setrgbcolor
stroke
402.273 474.615 moveto
0 7.69231 rlineto
1 setlinewidth
0.8 0.8 0.8 setrgbcolor
stroke
402.273 490 moveto
0 7.69231 rlineto
1 setlinewidth
0.8 0.8 0.8 setrgbcolor
stroke
402.273 505.385 moveto
0 7.69231 rlineto
1 setlinewidth
0.8 0.8 0.8 setrgbcolor
stroke
402.273 520.769 moveto
0 7.69231 rlineto
1 setlinewidth
0.8 0.8 0.8 setrgbcolor
stroke
402.273 536.154 moveto
0 7.69231 rlineto
1 setlinewidth
0.8 0.8 0.8 setrgbcolor
stroke
402.273 551.538 moveto
0 7.69231 rlineto
1 setlinewidth
0.8 0.8 0.8 setrgbcolor
stroke
402.273 566.923 moveto
0 7.69231 rlineto
1 setlinewidth
0.8 0.8 0.8 setrgbcolor
stroke
402.273 582.308 moveto
0 7.69231 rlineto
1 setlinewidth
0.8 0.8 0.8 setrgbcolor
stroke
456.818 90 moveto
456.818 90 moveto
0 7.69231 rlineto
1 setlinewidth
0.8 0.8 0.8 setrgbcolor
stroke
456.818 105.385 moveto
0 7.69231 rlineto
1 setlinewidth
0.8 0.8 0.8 setrgbcolor
stroke
456.818 120.769 moveto
0 7.69231 rlineto
1 setlinewidth
0.8 0.8 0.8 setrgbcolor
stroke
456.818 136.154 moveto
0 7.69231 rlineto
1 setlinewidth
0.8 0.8 0.8 setrgbcolor
stroke
456.818 151.538 moveto
0 7.69231 rlineto
1 setlinewidth
0.8 0.8 0.8 setrgbcolor
stroke
456.818 166.923 moveto
0 7.69231 rlineto
1 setlinewidth
0.8 0.8 0.8 setrgbcolor
stroke
456.818 182.308 moveto
0 7.69231 rlineto
1 setlinewidth
0.8 0.8 0.8 setrgbcolor
stroke
456.818 197.692 moveto
0 7.69231 rlineto
1 setlinewidth
0.8 0.8 0.8 setrgbcolor
stroke
456.818 213.077 moveto
0 7.69231 rlineto
1 setlinewidth
0.8 0.8 0.8 setrgbcolor
stroke
456.818 228.462 moveto
0 7.69231 rlineto
1 setlinewidth
0.8 0.8 0.8 setrgbcolor
stroke
456.818 243.846 moveto
0 7.69231 rlineto
1 setlinewidth
0.8 0.8 0.8 setrgbcolor
stroke
456.818 259.231 moveto
0 7.69231 rlineto
1 setlinewidth
0.8 0.8 0.8 setrgbcolor
stroke
456.818 274.615 moveto
0 7.69231 rlineto
1 setlinewidth
0.8 0.8 0.8 setrgbcolor
stroke
456.818 290 moveto
0 7.69231 rlineto
1 setlinewidth
0.8 0.8 0.8 setrgbcolor
stroke
456.818 305.385 moveto
0 7.69231 rlineto
1 setlinewidth
0.8 0.8 0.8 setrgbcolor
stroke
456.818 320.769 moveto
0 7.69231 rlineto
1 setlinewidth
0.8 0.8 0.8 setrgbcolor
stroke
456.818 336.154 moveto
0 7.69231 rlineto
1 setlinewidth
0.8 0.8 0.8 setrgbcolor
stroke
456.818 351.538 moveto
0 7.69231 rlineto
1 setlinewidth
0.8 0.8 0.8 setrgbcolor
stroke
456.818 366.923 moveto
0 7.69231 rlineto
1 setlinewidth
0.8 0.8 0.8 setrgbcolor
stroke
456.818 382.308 moveto
0 7.69231 rlineto
1 setlinewidth
0.8 0.8 0.8 setrgbcolor
stroke
456.818 397.692 moveto
0 7.69231 rlineto
1 setlinewidth
0.8 0.8 0.8 setrgbcolor
stroke
456.818 413.077 moveto
0 7.69231 rlineto
1 setlinewidth
0.8 0.8 0.8 setrgbcolor
stroke
456.818 428.462 moveto
0 7.69231 rlineto
1 setlinewidth
0.8 0.8 0.8 setrgbcolor
stroke
456.818 443.846 moveto
0 7.69231 rlineto
1 setlinewidth
0.8 0.8 0.8 setrgbcolor
stroke
456.818 459.231 moveto
0 7.69231 rlineto
1 setlinewidth
0.8 0.8 0.8 setrgbcolor
stroke
456.818 474.615 moveto
0 7.69231 rlineto
1 setlinewidth
0.8 0.8 0.8 setrgbcolor
stroke
456.818 490 moveto
0 7.69231 rlineto
1 setlinewidth
0.8 0.8 0.8 setrgbcolor
stroke
456.818 505.385 moveto
0 7.69231 rlineto
1 setlinewidth
0.8 0.8 0.8 setrgbcolor
stroke
456.818 520.769 moveto
0 7.69231 rlineto
1 setlinewidth
0.8 0.8 0.8 setrgbcolor
stroke
456.818 536.154 moveto
0 7.69231 rlineto
1 setlinewidth
0.8 0.8 0.8 setrgbcolor
stroke
456.818 551.538 moveto
0 7.69231 rlineto
1 setlinewidth
0.8 0.8 0.8 setrgbcolor
stroke
456.818 566.923 moveto
0 7.69231 rlineto
1 setlinewidth
0.8 0.8 0.8 setrgbcolor
stroke
456.818 582.308 moveto
0 7.69231 rlineto
1 setlinewidth
0.8 0.8 0.8 setrgbcolor
stroke
511.364 90 moveto
511.364 90 moveto
0 7.69231 rlineto
1 setlinewidth
0.8 0.8 0.8 setrgbcolor
stroke
511.364 105.385 moveto
0 7.69231 rlineto
1 setlinewidth
0.8 0.8 0.8 setrgbcolor
stroke
511.364 120.769 moveto
0 7.69231 rlineto
1 setlinewidth
0.8 0.8 0.8 setrgbcolor
stroke
511.364 136.154 moveto
0 7.69231 rlineto
1 setlinewidth
0.8 0.8 0.8 setrgbcolor
stroke
511.364 151.538 moveto
0 7.69231 rlineto
1 setlinewidth
0.8 0.8 0.8 setrgbcolor
stroke
511.364 166.923 moveto
0 7.69231 rlineto
1 setlinewidth
0.8 0.8 0.8 setrgbcolor
stroke
511.364 182.308 moveto
0 7.69231 rlineto
1 setlinewidth
0.8 0.8 0.8 setrgbcolor
stroke
511.364 197.692 moveto
0 7.69231 rlineto
1 setlinewidth
0.8 0.8 0.8 setrgbcolor
stroke
511.364 213.077 moveto
0 7.69231 rlineto
1 setlinewidth
0.8 0.8 0.8 setrgbcolor
stroke
511.364 228.462 moveto
0 7.69231 rlineto
1 setlinewidth
0.8 0.8 0.8 setrgbcolor
stroke
511.364 243.846 moveto
0 7.69231 rlineto
1 setlinewidth
0.8 0.8 0.8 setrgbcolor
stroke
511.364 259.231 moveto
0 7.69231 rlineto
1 setlinewidth
0.8 0.8 0.8 setrgbcolor
stroke
511.364 274.615 moveto
0 7.69231 rlineto
1 setlinewidth
0.8 0.8 0.8 setrgbcolor
stroke
511.364 290 moveto
0 7.69231 rlineto
1 setlinewidth
0.8 0.8 0.8 setrgbcolor
stroke
511.364 305.385 moveto
0 7.69231 rlineto
1 setlinewidth
0.8 0.8 0.8 setrgbcolor
stroke
511.364 320.769 moveto
0 7.69231 rlineto
1 setlinewidth
0.8 0.8 0.8 setrgbcolor
stroke
511.364 336.154 moveto
0 7.69231 rlineto
1 setlinewidth
0.8 0.8 0.8 setrgbcolor
stroke
511.364 351.538 moveto
0 7.69231 rlineto
1 setlinewidth
0.8 0.8 0.8 setrgbcolor
stroke
511.364 366.923 moveto
0 7.69231 rlineto
1 setlinewidth
0.8 0.8 0.8 setrgbcolor
stroke
511.364 382.308 moveto
0 7.69231 rlineto
1 setlinewidth
0.8 0.8 0.8 setrgbcolor
stroke
511.364 397.692 moveto
0 7.69231 rlineto
1 setlinewidth
0.8 0.8 0.8 setrgbcolor
stroke
511.364 413.077 moveto
0 7.69231 rlineto
1 setlinewidth
0.8 0.8 0.8 setrgbcolor
stroke
511.364 428.462 moveto
0 7.69231 rlineto
1 setlinewidth
0.8 0.8 0.8 setrgbcolor
stroke
511.364 443.846 moveto
0 7.69231 rlineto
1 setlinewidth
0.8 0.8 0.8 setrgbcolor
stroke
511.364 459.231 moveto
0 7.69231 rlineto
1 setlinewidth
0.8 0.8 0.8 setrgbcolor
stroke
511.364 474.615 moveto
0 7.69231 rlineto
1 setlinewidth
0.8 0.8 0.8 setrgbcolor
stroke
511.364 490 moveto
0 7.69231 rlineto
1 setlinewidth
0.8 0.8 0.8 setrgbcolor
stroke
511.364 505.385 moveto
0 7.69231 rlineto
1 setlinewidth
0.8 0.8 0.8 setrgbcolor
stroke
511.364 520.769 moveto
0 7.69231 rlineto
1 setlinewidth
0.8 0.8 0.8 setrgbcolor
stroke
511.364 536.154 moveto
0 7.69231 rlineto
1 setlinewidth
0.8 0.8 0.8 setrgbcolor
stroke
511.364 551.538 moveto
0 7.69231 rlineto
1 setlinewidth
0.8 0.8 0.8 setrgbcolor
stroke
511.364 566.923 moveto
0 7.69231 rlineto
1 setlinewidth
0.8 0.8 0.8 setrgbcolor
stroke
511.364 582.308 moveto
0 7.69231 rlineto
1 setlinewidth
0.8 0.8 0.8 setrgbcolor
stroke
565.909 90 moveto
565.909 90 moveto
0 7.69231 rlineto
1 setlinewidth
0.8 0.8 0.8 setrgbcolor
stroke
565.909 105.385 moveto
0 7.69231 rlineto
1 setlinewidth
0.8 0.8 0.8 setrgbcolor
stroke
565.909 120.769 moveto
0 7.69231 rlineto
1 setlinewidth
0.8 0.8 0.8 setrgbcolor
stroke
565.909 136.154 moveto
0 7.69231 rlineto
1 setlinewidth
0.8 0.8 0.8 setrgbcolor
stroke
565.909 151.538 moveto
0 7.69231 rlineto
1 setlinewidth
0.8 0.8 0.8 setrgbcolor
stroke
565.909 166.923 moveto
0 7.69231 rlineto
1 setlinewidth
0.8 0.8 0.8 setrgbcolor
stroke
565.909 182.308 moveto
0 7.69231 rlineto
1 setlinewidth
0.8 0.8 0.8 setrgbcolor
stroke
565.909 197.692 moveto
0 7.69231 rlineto
1 setlinewidth
0.8 0.8 0.8 setrgbcolor
stroke
565.909 213.077 moveto
0 7.69231 rlineto
1 setlinewidth
0.8 0.8 0.8 setrgbcolor
stroke
565.909 228.462 moveto
0 7.69231 rlineto
1 setlinewidth
0.8 0.8 0.8 setrgbcolor
stroke
565.909 243.846 moveto
0 7.69231 rlineto
1 setlinewidth
0.8 0.8 0.8 setrgbcolor
stroke
565.909 259.231 moveto
0 7.69231 rlineto
1 setlinewidth
0.8 0.8 0.8 setrgbcolor
stroke
565.909 274.615 moveto
0 7.69231 rlineto
1 setlinewidth
0.8 0.8 0.8 setrgbcolor
stroke
565.909 290 moveto
0 7.69231 rlineto
1 setlinewidth
0.8 0.8 0.8 setrgbcolor
stroke
565.909 305.385 moveto
0 7.69231 rlineto
1 setlinewidth
0.8 0.8 0.8 setrgbcolor
stroke
565.909 320.769 moveto
0 7.69231 rlineto
1 setlinewidth
0.8 0.8 0.8 setrgbcolor
stroke
565.909 336.154 moveto
0 7.69231 rlineto
1 setlinewidth
0.8 0.8 0.8 setrgbcolor
stroke
565.909 351.538 moveto
0 7.69231 rlineto
1 setlinewidth
0.8 0.8 0.8 setrgbcolor
stroke
565.909 366.923 moveto
0 7.69231 rlineto
1 setlinewidth
0.8 0.8 0.8 setrgbcolor
stroke
565.909 382.308 moveto
0 7.69231 rlineto
1 setlinewidth
0.8 0.8 0.8 setrgbcolor
stroke
565.909 397.692 moveto
0 7.69231 rlineto
1 setlinewidth
0.8 0.8 0.8 setrgbcolor
stroke
565.909 413.077 moveto
0 7.69231 rlineto
1 setlinewidth
0.8 0.8 0.8 setrgbcolor
stroke
565.909 428.462 moveto
0 7.69231 rlineto
1 setlinewidth
0.8 0.8 0.8 setrgbcolor
stroke
565.909 443.846 moveto
0 7.69231 rlineto
1 setlinewidth
0.8 0.8 0.8 setrgbcolor
stroke
565.909 459.231 moveto
0 7.69231 rlineto
1 setlinewidth
0.8 0.8 0.8 setrgbcolor
stroke
565.909 474.615 moveto
0 7.69231 rlineto
1 setlinewidth
0.8 0.8 0.8 setrgbcolor
stroke
565.909 490 moveto
0 7.69231 rlineto
1 setlinewidth
0.8 0.8 0.8 setrgbcolor
stroke
565.909 505.385 moveto
0 7.69231 rlineto
1 setlinewidth
0.8 0.8 0.8 setrgbcolor
stroke
565.909 520.769 moveto
0 7.69231 rlineto
1 setlinewidth
0.8 0.8 0.8 setrgbcolor
stroke
565.909 536.154 moveto
0 7.69231 rlineto
1 setlinewidth
0.8 0.8 0.8 setrgbcolor
stroke
565.909 551.538 moveto
0 7.69231 rlineto
1 setlinewidth
0.8 0.8 0.8 setrgbcolor
stroke
565.909 566.923 moveto
0 7.69231 rlineto
1 setlinewidth
0.8 0.8 0.8 setrgbcolor
stroke
565.909 582.308 moveto
0 7.69231 rlineto
1 setlinewidth
0.8 0.8 0.8 setrgbcolor
stroke
620.455 90 moveto
620.455 90 moveto
0 7.69231 rlineto
1 setlinewidth
0.8 0.8 0.8 setrgbcolor
stroke
620.455 105.385 moveto
0 7.69231 rlineto
1 setlinewidth
0.8 0.8 0.8 setrgbcolor
stroke
620.455 120.769 moveto
0 7.69231 rlineto
1 setlinewidth
0.8 0.8 0.8 setrgbcolor
stroke
620.455 136.154 moveto
0 7.69231 rlineto
1 setlinewidth
0.8 0.8 0.8 setrgbcolor
stroke
620.455 151.538 moveto
0 7.69231 rlineto
1 setlinewidth
0.8 0.8 0.8 setrgbcolor
stroke
620.455 166.923 moveto
0 7.69231 rlineto
1 setlinewidth
0.8 0.8 0.8 setrgbcolor
stroke
620.455 182.308 moveto
0 7.69231 rlineto
1 setlinewidth
0.8 0.8 0.8 setrgbcolor
stroke
620.455 197.692 moveto
0 7.69231 rlineto
1 setlinewidth
0.8 0.8 0.8 setrgbcolor
stroke
620.455 213.077 moveto
0 7.69231 rlineto
1 setlinewidth
0.8 0.8 0.8 setrgbcolor
stroke
620.455 228.462 moveto
0 7.69231 rlineto
1 setlinewidth
0.8 0.8 0.8 setrgbcolor
stroke
620.455 243.846 moveto
0 7.69231 rlineto
1 setlinewidth
0.8 0.8 0.8 setrgbcolor
stroke
620.455 259.231 moveto
0 7.69231 rlineto
1 setlinewidth
0.8 0.8 0.8 setrgbcolor
stroke
620.455 274.615 moveto
0 7.69231 rlineto
1 setlinewidth
0.8 0.8 0.8 setrgbcolor
stroke
620.455 290 moveto
0 7.69231 rlineto
1 setlinewidth
0.8 0.8 0.8 setrgbcolor
stroke
620.455 305.385 moveto
0 7.69231 rlineto
1 setlinewidth
0.8 0.8 0.8 setrgbcolor
stroke
620.455 320.769 moveto
0 7.69231 rlineto
1 setlinewidth
0.8 0.8 0.8 setrgbcolor
stroke
620.455 336.154 moveto
0 7.69231 rlineto
1 setlinewidth
0.8 0.8 0.8 setrgbcolor
stroke
620.455 351.538 moveto
0 7.69231 rlineto
1 setlinewidth
0.8 0.8 0.8 setrgbcolor
stroke
620.455 366.923 moveto
0 7.69231 rlineto
1 setlinewidth
0.8 0.8 0.8 setrgbcolor
stroke
620.455 382.308 moveto
0 7.69231 rlineto
1 setlinewidth
0.8 0.8 0.8 setrgbcolor
stroke
620.455 397.692 moveto
0 7.69231 rlineto
1 setlinewidth
0.8 0.8 0.8 setrgbcolor
stroke
620.455 413.077 moveto
0 7.69231 rlineto
1 setlinewidth
0.8 0.8 0.8 setrgbcolor
stroke
620.455 428.462 moveto
0 7.69231 rlineto
1 setlinewidth
0.8 0.8 0.8 setrgbcolor
stroke
620.455 443.846 moveto
0 7.69231 rlineto
1 setlinewidth
0.8 0.8 0.8 setrgbcolor
stroke
620.455 459.231 moveto
0 7.69231 rlineto
1 setlinewidth
0.8 0.8 0.8 setrgbcolor
stroke
620.455 474.615 moveto
0 7.69231 rlineto
1 setlinewidth
0.8 0.8 0.8 setrgbcolor
stroke
620.455 490 moveto
0 7.69231 rlineto
1 setlinewidth
0.8 0.8 0.8 setrgbcolor
stroke
620.455 505.385 moveto
0 7.69231 rlineto
1 setlinewidth
0.8 0.8 0.8 setrgbcolor
stroke
620.455 520.769 moveto
0 7.69231 rlineto
1 setlinewidth
0.8 0.8 0.8 setrgbcolor
stroke
620.455 536.154 moveto
0 7.69231 rlineto
1 setlinewidth
0.8 0.8 0.8 setrgbcolor
stroke
620.455 551.538 moveto
0 7.69231 rlineto
1 setlinewidth
0.8 0.8 0.8 setrgbcolor
stroke
620.455 566.923 moveto
0 7.69231 rlineto
1 setlinewidth
0.8 0.8 0.8 setrgbcolor
stroke
620.455 582.308 moveto
0 7.69231 rlineto
1 setlinewidth
0.8 0.8 0.8 setrgbcolor
stroke
675 90 moveto
675 90 moveto
0 7.69231 rlineto
1 setlinewidth
0.8 0.8 0.8 setrgbcolor
stroke
675 105.385 moveto
0 7.69231 rlineto
1 setlinewidth
0.8 0.8 0.8 setrgbcolor
stroke
675 120.769 moveto
0 7.69231 rlineto
1 setlinewidth
0.8 0.8 0.8 setrgbcolor
stroke
675 136.154 moveto
0 7.69231 rlineto
1 setlinewidth
0.8 0.8 0.8 setrgbcolor
stroke
675 151.538 moveto
0 7.69231 rlineto
1 setlinewidth
0.8 0.8 0.8 setrgbcolor
stroke
675 166.923 moveto
0 7.69231 rlineto
1 setlinewidth
0.8 0.8 0.8 setrgbcolor
stroke
675 182.308 moveto
0 7.69231 rlineto
1 setlinewidth
0.8 0.8 0.8 setrgbcolor
stroke
675 197.692 moveto
0 7.69231 rlineto
1 setlinewidth
0.8 0.8 0.8 setrgbcolor
stroke
675 213.077 moveto
0 7.69231 rlineto
1 setlinewidth
0.8 0.8 0.8 setrgbcolor
stroke
675 228.462 moveto
0 7.69231 rlineto
1 setlinewidth
0.8 0.8 0.8 setrgbcolor
stroke
675 243.846 moveto
0 7.69231 rlineto
1 setlinewidth
0.8 0.8 0.8 setrgbcolor
stroke
675 259.231 moveto
0 7.69231 rlineto
1 setlinewidth
0.8 0.8 0.8 setrgbcolor
stroke
675 274.615 moveto
0 7.69231 rlineto
1 setlinewidth
0.8 0.8 0.8 setrgbcolor
stroke
675 290 moveto
0 7.69231 rlineto
1 setlinewidth
0.8 0.8 0.8 setrgbcolor
stroke
675 305.385 moveto
0 7.69231 rlineto
1 setlinewidth
0.8 0.8 0.8 setrgbcolor
stroke
675 320.769 moveto
0 7.69231 rlineto
1 setlinewidth
0.8 0.8 0.8 setrgbcolor
stroke
675 336.154 moveto
0 7.69231 rlineto
1 setlinewidth
0.8 0.8 0.8 setrgbcolor
stroke
675 351.538 moveto
0 7.69231 rlineto
1 setlinewidth
0.8 0.8 0.8 setrgbcolor
stroke
675 366.923 moveto
0 7.69231 rlineto
1 setlinewidth
0.8 0.8 0.8 setrgbcolor
stroke
675 382.308 moveto
0 7.69231 rlineto
1 setlinewidth
0.8 0.8 0.8 setrgbcolor
stroke
675 397.692 moveto
0 7.69231 rlineto
1 setlinewidth
0.8 0.8 0.8 setrgbcolor
stroke
675 413.077 moveto
0 7.69231 rlineto
1 setlinewidth
0.8 0.8 0.8 setrgbcolor
stroke
675 428.462 moveto
0 7.69231 rlineto
1 setlinewidth
0.8 0.8 0.8 setrgbcolor
stroke
675 443.846 moveto
0 7.69231 rlineto
1 setlinewidth
0.8 0.8 0.8 setrgbcolor
stroke
675 459.231 moveto
0 7.69231 rlineto
1 setlinewidth
0.8 0.8 0.8 setrgbcolor
stroke
675 474.615 moveto
0 7.69231 rlineto
1 setlinewidth
0.8 0.8 0.8 setrgbcolor
stroke
675 490 moveto
0 7.69231 rlineto
1 setlinewidth
0.8 0.8 0.8 setrgbcolor
stroke
675 505.385 moveto
0 7.69231 rlineto
1 setlinewidth
0.8 0.8 0.8 setrgbcolor
stroke
675 520.769 moveto
0 7.69231 rlineto
1 setlinewidth
0.8 0.8 0.8 setrgbcolor
stroke
675 536.154 moveto
0 7.69231 rlineto
1 setlinewidth
0.8 0.8 0.8 setrgbcolor
stroke
675 551.538 moveto
0 7.69231 rlineto
1 setlinewidth
0.8 0.8 0.8 setrgbcolor
stroke
675 566.923 moveto
0 7.69231 rlineto
1 setlinewidth
0.8 0.8 0.8 setrgbcolor
stroke
675 582.308 moveto
0 7.69231 rlineto
1 setlinewidth
0.8 0.8 0.8 setrgbcolor
stroke
75 90 moveto
75 90 moveto
7.79221 0 rlineto
1 setlinewidth
0.8 0.8 0.8 setrgbcolor
stroke
90.5844 90 moveto
7.79221 0 rlineto
1 setlinewidth
0.8 0.8 0.8 setrgbcolor
stroke
106.169 90 moveto
7.79221 0 rlineto
1 setlinewidth
0.8 0.8 0.8 setrgbcolor
stroke
121.753 90 moveto
7.79221 0 rlineto
1 setlinewidth
0.8 0.8 0.8 setrgbcolor
stroke
137.338 90 moveto
7.79221 0 rlineto
1 setlinewidth
0.8 0.8 0.8 setrgbcolor
stroke
152.922 90 moveto
7.79221 0 rlineto
1 setlinewidth
0.8 0.8 0.8 setrgbcolor
stroke
168.506 90 moveto
7.79221 0 rlineto
1 setlinewidth
0.8 0.8 0.8 setrgbcolor
stroke
184.091 90 moveto
7.79221 0 rlineto
1 setlinewidth
0.8 0.8 0.8 setrgbcolor
stroke
199.675 90 moveto
7.79221 0 rlineto
1 setlinewidth
0.8 0.8 0.8 setrgbcolor
stroke
215.26 90 moveto
7.79221 0 rlineto
1 setlinewidth
0.8 0.8 0.8 setrgbcolor
stroke
230.844 90 moveto
7.79221 0 rlineto
1 setlinewidth
0.8 0.8 0.8 setrgbcolor
stroke
246.429 90 moveto
7.79221 0 rlineto
1 setlinewidth
0.8 0.8 0.8 setrgbcolor
stroke
262.013 90 moveto
7.79221 0 rlineto
1 setlinewidth
0.8 0.8 0.8 setrgbcolor
stroke
277.597 90 moveto
7.79221 0 rlineto
1 setlinewidth
0.8 0.8 0.8 setrgbcolor
stroke
293.182 90 moveto
7.79221 0 rlineto
1 setlinewidth
0.8 0.8 0.8 setrgbcolor
stroke
308.766 90 moveto
7.79221 0 rlineto
1 setlinewidth
0.8 0.8 0.8 setrgbcolor
stroke
324.351 90 moveto
7.79221 0 rlineto
1 setlinewidth
0.8 0.8 0.8 setrgbcolor
stroke
339.935 90 moveto
7.79221 0 rlineto
1 setlinewidth
0.8 0.8 0.8 setrgbcolor
stroke
355.519 90 moveto
7.79221 0 rlineto
1 setlinewidth
0.8 0.8 0.8 setrgbcolor
stroke
371.104 90 moveto
7.79221 0 rlineto
1 setlinewidth
0.8 0.8 0.8 setrgbcolor
stroke
386.688 90 moveto
7.79221 0 rlineto
1 setlinewidth
0.8 0.8 0.8 setrgbcolor
stroke
402.273 90 moveto
7.79221 0 rlineto
1 setlinewidth
0.8 0.8 0.8 setrgbcolor
stroke
417.857 90 moveto
7.79221 0 rlineto
1 setlinewidth
0.8 0.8 0.8 setrgbcolor
stroke
433.442 90 moveto
7.79221 0 rlineto
1 setlinewidth
0.8 0.8 0.8 setrgbcolor
stroke
449.026 90 moveto
7.79221 0 rlineto
1 setlinewidth
0.8 0.8 0.8 setrgbcolor
stroke
464.61 90 moveto
7.79221 0 rlineto
1 setlinewidth
0.8 0.8 0.8 setrgbcolor
stroke
480.195 90 moveto
7.79221 0 rlineto
1 setlinewidth
0.8 0.8 0.8 setrgbcolor
stroke
495.779 90 moveto
7.79221 0 rlineto
1 setlinewidth
0.8 0.8 0.8 setrgbcolor
stroke
511.364 90 moveto
7.79221 0 rlineto
1 setlinewidth
0.8 0.8 0.8 setrgbcolor
stroke
526.948 90 moveto
7.79221 0 rlineto
1 setlinewidth
0.8 0.8 0.8 setrgbcolor
stroke
542.532 90 moveto
7.79221 0 rlineto
1 setlinewidth
0.8 0.8 0.8 setrgbcolor
stroke
558.117 90 moveto
7.79221 0 rlineto
1 setlinewidth
0.8 0.8 0.8 setrgbcolor
stroke
573.701 90 moveto
7.79221 0 rlineto
1 setlinewidth
0.8 0.8 0.8 setrgbcolor
stroke
589.286 90 moveto
7.79221 0 rlineto
1 setlinewidth
0.8 0.8 0.8 setrgbcolor
stroke
604.87 90 moveto
7.79221 0 rlineto
1 setlinewidth
0.8 0.8 0.8 setrgbcolor
stroke
620.455 90 moveto
7.79221 0 rlineto
1 setlinewidth
0.8 0.8 0.8 setrgbcolor
stroke
636.039 90 moveto
7.79221 0 rlineto
1 setlinewidth
0.8 0.8 0.8 setrgbcolor
stroke
651.623 90 moveto
7.79221 0 rlineto
1 setlinewidth
0.8 0.8 0.8 setrgbcolor
stroke
667.208 90 moveto
7.79221 0 rlineto
1 setlinewidth
0.8 0.8 0.8 setrgbcolor
stroke
75 161.429 moveto
75 161.429 moveto
7.79221 0 rlineto
1 setlinewidth
0.8 0.8 0.8 setrgbcolor
stroke
90.5844 161.429 moveto
7.79221 0 rlineto
1 setlinewidth
0.8 0.8 0.8 setrgbcolor
stroke
106.169 161.429 moveto
7.79221 0 rlineto
1 setlinewidth
0.8 0.8 0.8 setrgbcolor
stroke
121.753 161.429 moveto
7.79221 0 rlineto
1 setlinewidth
0.8 0.8 0.8 setrgbcolor
stroke
137.338 161.429 moveto
7.79221 0 rlineto
1 setlinewidth
0.8 0.8 0.8 setrgbcolor
stroke
152.922 161.429 moveto
7.79221 0 rlineto
1 setlinewidth
0.8 0.8 0.8 setrgbcolor
stroke
168.506 161.429 moveto
7.79221 0 rlineto
1 setlinewidth
0.8 0.8 0.8 setrgbcolor
stroke
184.091 161.429 moveto
7.79221 0 rlineto
1 setlinewidth
0.8 0.8 0.8 setrgbcolor
stroke
199.675 161.429 moveto
7.79221 0 rlineto
1 setlinewidth
0.8 0.8 0.8 setrgbcolor
stroke
215.26 161.429 moveto
7.79221 0 rlineto
1 setlinewidth
0.8 0.8 0.8 setrgbcolor
stroke
230.844 161.429 moveto
7.79221 0 rlineto
1 setlinewidth
0.8 0.8 0.8 setrgbcolor
stroke
246.429 161.429 moveto
7.79221 0 rlineto
1 setlinewidth
0.8 0.8 0.8 setrgbcolor
stroke
262.013 161.429 moveto
7.79221 0 rlineto
1 setlinewidth
0.8 0.8 0.8 setrgbcolor
stroke
277.597 161.429 moveto
7.79221 0 rlineto
1 setlinewidth
0.8 0.8 0.8 setrgbcolor
stroke
293.182 161.429 moveto
7.79221 0 rlineto
1 setlinewidth
0.8 0.8 0.8 setrgbcolor
stroke
308.766 161.429 moveto
7.79221 0 rlineto
1 setlinewidth
0.8 0.8 0.8 setrgbcolor
stroke
324.351 161.429 moveto
7.79221 0 rlineto
1 setlinewidth
0.8 0.8 0.8 setrgbcolor
stroke
339.935 161.429 moveto
7.79221 0 rlineto
1 setlinewidth
0.8 0.8 0.8 setrgbcolor
stroke
355.519 161.429 moveto
7.79221 0 rlineto
1 setlinewidth
0.8 0.8 0.8 setrgbcolor
stroke
371.104 161.429 moveto
7.79221 0 rlineto
1 setlinewidth
0.8 0.8 0.8 setrgbcolor
stroke
386.688 161.429 moveto
7.79221 0 rlineto
1 setlinewidth
0.8 0.8 0.8 setrgbcolor
stroke
402.273 161.429 moveto
7.79221 0 rlineto
1 setlinewidth
0.8 0.8 0.8 setrgbcolor
stroke
417.857 161.429 moveto
7.79221 0 rlineto
1 setlinewidth
0.8 0.8 0.8 setrgbcolor
stroke
433.442 161.429 moveto
7.79221 0 rlineto
1 setlinewidth
0.8 0.8 0.8 setrgbcolor
stroke
449.026 161.429 moveto
7.79221 0 rlineto
1 setlinewidth
0.8 0.8 0.8 setrgbcolor
stroke
464.61 161.429 moveto
7.79221 0 rlineto
1 setlinewidth
0.8 0.8 0.8 setrgbcolor
stroke
480.195 161.429 moveto
7.79221 0 rlineto
1 setlinewidth
0.8 0.8 0.8 setrgbcolor
stroke
495.779 161.429 moveto
7.79221 0 rlineto
1 setlinewidth
0.8 0.8 0.8 setrgbcolor
stroke
511.364 161.429 moveto
7.79221 0 rlineto
1 setlinewidth
0.8 0.8 0.8 setrgbcolor
stroke
526.948 161.429 moveto
7.79221 0 rlineto
1 setlinewidth
0.8 0.8 0.8 setrgbcolor
stroke
542.532 161.429 moveto
7.79221 0 rlineto
1 setlinewidth
0.8 0.8 0.8 setrgbcolor
stroke
558.117 161.429 moveto
7.79221 0 rlineto
1 setlinewidth
0.8 0.8 0.8 setrgbcolor
stroke
573.701 161.429 moveto
7.79221 0 rlineto
1 setlinewidth
0.8 0.8 0.8 setrgbcolor
stroke
589.286 161.429 moveto
7.79221 0 rlineto
1 setlinewidth
0.8 0.8 0.8 setrgbcolor
stroke
604.87 161.429 moveto
7.79221 0 rlineto
1 setlinewidth
0.8 0.8 0.8 setrgbcolor
stroke
620.455 161.429 moveto
7.79221 0 rlineto
1 setlinewidth
0.8 0.8 0.8 setrgbcolor
stroke
636.039 161.429 moveto
7.79221 0 rlineto
1 setlinewidth
0.8 0.8 0.8 setrgbcolor
stroke
651.623 161.429 moveto
7.79221 0 rlineto
1 setlinewidth
0.8 0.8 0.8 setrgbcolor
stroke
667.208 161.429 moveto
7.79221 0 rlineto
1 setlinewidth
0.8 0.8 0.8 setrgbcolor
stroke
75 232.857 moveto
75 232.857 moveto
7.79221 0 rlineto
1 setlinewidth
0.8 0.8 0.8 setrgbcolor
stroke
90.5844 232.857 moveto
7.79221 0 rlineto
1 setlinewidth
0.8 0.8 0.8 setrgbcolor
stroke
106.169 232.857 moveto
7.79221 0 rlineto
1 setlinewidth
0.8 0.8 0.8 setrgbcolor
stroke
121.753 232.857 moveto
7.79221 0 rlineto
1 setlinewidth
0.8 0.8 0.8 setrgbcolor
stroke
137.338 232.857 moveto
7.79221 0 rlineto
1 setlinewidth
0.8 0.8 0.8 setrgbcolor
stroke
152.922 232.857 moveto
7.79221 0 rlineto
1 setlinewidth
0.8 0.8 0.8 setrgbcolor
stroke
168.506 232.857 moveto
7.79221 0 rlineto
1 setlinewidth
0.8 0.8 0.8 setrgbcolor
stroke
184.091 232.857 moveto
7.79221 0 rlineto
1 setlinewidth
0.8 0.8 0.8 setrgbcolor
stroke
199.675 232.857 moveto
7.79221 0 rlineto
1 setlinewidth
0.8 0.8 0.8 setrgbcolor
stroke
215.26 232.857 moveto
7.79221 0 rlineto
1 setlinewidth
0.8 0.8 0.8 setrgbcolor
stroke
230.844 232.857 moveto
7.79221 0 rlineto
1 setlinewidth
0.8 0.8 0.8 setrgbcolor
stroke
246.429 232.857 moveto
7.79221 0 rlineto
1 setlinewidth
0.8 0.8 0.8 setrgbcolor
stroke
262.013 232.857 moveto
7.79221 0 rlineto
1 setlinewidth
0.8 0.8 0.8 setrgbcolor
stroke
277.597 232.857 moveto
7.79221 0 rlineto
1 setlinewidth
0.8 0.8 0.8 setrgbcolor
stroke
293.182 232.857 moveto
7.79221 0 rlineto
1 setlinewidth
0.8 0.8 0.8 setrgbcolor
stroke
308.766 232.857 moveto
7.79221 0 rlineto
1 setlinewidth
0.8 0.8 0.8 setrgbcolor
stroke
324.351 232.857 moveto
7.79221 0 rlineto
1 setlinewidth
0.8 0.8 0.8 setrgbcolor
stroke
339.935 232.857 moveto
7.79221 0 rlineto
1 setlinewidth
0.8 0.8 0.8 setrgbcolor
stroke
355.519 232.857 moveto
7.79221 0 rlineto
1 setlinewidth
0.8 0.8 0.8 setrgbcolor
stroke
371.104 232.857 moveto
7.79221 0 rlineto
1 setlinewidth
0.8 0.8 0.8 setrgbcolor
stroke
386.688 232.857 moveto
7.79221 0 rlineto
1 setlinewidth
0.8 0.8 0.8 setrgbcolor
stroke
402.273 232.857 moveto
7.79221 0 rlineto
1 setlinewidth
0.8 0.8 0.8 setrgbcolor
stroke
417.857 232.857 moveto
7.79221 0 rlineto
1 setlinewidth
0.8 0.8 0.8 setrgbcolor
stroke
433.442 232.857 moveto
7.79221 0 rlineto
1 setlinewidth
0.8 0.8 0.8 setrgbcolor
stroke
449.026 232.857 moveto
7.79221 0 rlineto
1 setlinewidth
0.8 0.8 0.8 setrgbcolor
stroke
464.61 232.857 moveto
7.79221 0 rlineto
1 setlinewidth
0.8 0.8 0.8 setrgbcolor
stroke
480.195 232.857 moveto
7.79221 0 rlineto
1 setlinewidth
0.8 0.8 0.8 setrgbcolor
stroke
495.779 232.857 moveto
7.79221 0 rlineto
1 setlinewidth
0.8 0.8 0.8 setrgbcolor
stroke
511.364 232.857 moveto
7.79221 0 rlineto
1 setlinewidth
0.8 0.8 0.8 setrgbcolor
stroke
526.948 232.857 moveto
7.79221 0 rlineto
1 setlinewidth
0.8 0.8 0.8 setrgbcolor
stroke
542.532 232.857 moveto
7.79221 0 rlineto
1 setlinewidth
0.8 0.8 0.8 setrgbcolor
stroke
558.117 232.857 moveto
7.79221 0 rlineto
1 setlinewidth
0.8 0.8 0.8 setrgbcolor
stroke
573.701 232.857 moveto
7.79221 0 rlineto
1 setlinewidth
0.8 0.8 0.8 setrgbcolor
stroke
589.286 232.857 moveto
7.79221 0 rlineto
1 setlinewidth
0.8 0.8 0.8 setrgbcolor
stroke
604.87 232.857 moveto
7.79221 0 rlineto
1 setlinewidth
0.8 0.8 0.8 setrgbcolor
stroke
620.455 232.857 moveto
7.79221 0 rlineto
1 setlinewidth
0.8 0.8 0.8 setrgbcolor
stroke
636.039 232.857 moveto
7.79221 0 rlineto
1 setlinewidth
0.8 0.8 0.8 setrgbcolor
stroke
651.623 232.857 moveto
7.79221 0 rlineto
1 setlinewidth
0.8 0.8 0.8 setrgbcolor
stroke
667.208 232.857 moveto
7.79221 0 rlineto
1 setlinewidth
0.8 0.8 0.8 setrgbcolor
stroke
75 304.286 moveto
75 304.286 moveto
7.79221 0 rlineto
1 setlinewidth
0.8 0.8 0.8 setrgbcolor
stroke
90.5844 304.286 moveto
7.79221 0 rlineto
1 setlinewidth
0.8 0.8 0.8 setrgbcolor
stroke
106.169 304.286 moveto
7.79221 0 rlineto
1 setlinewidth
0.8 0.8 0.8 setrgbcolor
stroke
121.753 304.286 moveto
7.79221 0 rlineto
1 setlinewidth
0.8 0.8 0.8 setrgbcolor
stroke
137.338 304.286 moveto
7.79221 0 rlineto
1 setlinewidth
0.8 0.8 0.8 setrgbcolor
stroke
152.922 304.286 moveto
7.79221 0 rlineto
1 setlinewidth
0.8 0.8 0.8 setrgbcolor
stroke
168.506 304.286 moveto
7.79221 0 rlineto
1 setlinewidth
0.8 0.8 0.8 setrgbcolor
stroke
184.091 304.286 moveto
7.79221 0 rlineto
1 setlinewidth
0.8 0.8 0.8 setrgbcolor
stroke
199.675 304.286 moveto
7.79221 0 rlineto
1 setlinewidth
0.8 0.8 0.8 setrgbcolor
stroke
215.26 304.286 moveto
7.79221 0 rlineto
1 setlinewidth
0.8 0.8 0.8 setrgbcolor
stroke
230.844 304.286 moveto
7.79221 0 rlineto
1 setlinewidth
0.8 0.8 0.8 setrgbcolor
stroke
246.429 304.286 moveto
7.79221 0 rlineto
1 setlinewidth
0.8 0.8 0.8 setrgbcolor
stroke
262.013 304.286 moveto
7.79221 0 rlineto
1 setlinewidth
0.8 0.8 0.8 setrgbcolor
stroke
277.597 304.286 moveto
7.79221 0 rlineto
1 setlinewidth
0.8 0.8 0.8 setrgbcolor
stroke
293.182 304.286 moveto
7.79221 0 rlineto
1 setlinewidth
0.8 0.8 0.8 setrgbcolor
stroke
308.766 304.286 moveto
7.79221 0 rlineto
1 setlinewidth
0.8 0.8 0.8 setrgbcolor
stroke
324.351 304.286 moveto
7.79221 0 rlineto
1 setlinewidth
0.8 0.8 0.8 setrgbcolor
stroke
339.935 304.286 moveto
7.79221 0 rlineto
1 setlinewidth
0.8 0.8 0.8 setrgbcolor
stroke
355.519 304.286 moveto
7.79221 0 rlineto
1 setlinewidth
0.8 0.8 0.8 setrgbcolor
stroke
371.104 304.286 moveto
7.79221 0 rlineto
1 setlinewidth
0.8 0.8 0.8 setrgbcolor
stroke
386.688 304.286 moveto
7.79221 0 rlineto
1 setlinewidth
0.8 0.8 0.8 setrgbcolor
stroke
402.273 304.286 moveto
7.79221 0 rlineto
1 setlinewidth
0.8 0.8 0.8 setrgbcolor
stroke
417.857 304.286 moveto
7.79221 0 rlineto
1 setlinewidth
0.8 0.8 0.8 setrgbcolor
stroke
433.442 304.286 moveto
7.79221 0 rlineto
1 setlinewidth
0.8 0.8 0.8 setrgbcolor
stroke
449.026 304.286 moveto
7.79221 0 rlineto
1 setlinewidth
0.8 0.8 0.8 setrgbcolor
stroke
464.61 304.286 moveto
7.79221 0 rlineto
1 setlinewidth
0.8 0.8 0.8 setrgbcolor
stroke
480.195 304.286 moveto
7.79221 0 rlineto
1 setlinewidth
0.8 0.8 0.8 setrgbcolor
stroke
495.779 304.286 moveto
7.79221 0 rlineto
1 setlinewidth
0.8 0.8 0.8 setrgbcolor
stroke
511.364 304.286 moveto
7.79221 0 rlineto
1 setlinewidth
0.8 0.8 0.8 setrgbcolor
stroke
526.948 304.286 moveto
7.79221 0 rlineto
1 setlinewidth
0.8 0.8 0.8 setrgbcolor
stroke
542.532 304.286 moveto
7.79221 0 rlineto
1 setlinewidth
0.8 0.8 0.8 setrgbcolor
stroke
558.117 304.286 moveto
7.79221 0 rlineto
1 setlinewidth
0.8 0.8 0.8 setrgbcolor
stroke
573.701 304.286 moveto
7.79221 0 rlineto
1 setlinewidth
0.8 0.8 0.8 setrgbcolor
stroke
589.286 304.286 moveto
7.79221 0 rlineto
1 setlinewidth
0.8 0.8 0.8 setrgbcolor
stroke
604.87 304.286 moveto
7.79221 0 rlineto
1 setlinewidth
0.8 0.8 0.8 setrgbcolor
stroke
620.455 304.286 moveto
7.79221 0 rlineto
1 setlinewidth
0.8 0.8 0.8 setrgbcolor
stroke
636.039 304.286 moveto
7.79221 0 rlineto
1 setlinewidth
0.8 0.8 0.8 setrgbcolor
stroke
651.623 304.286 moveto
7.79221 0 rlineto
1 setlinewidth
0.8 0.8 0.8 setrgbcolor
stroke
667.208 304.286 moveto
7.79221 0 rlineto
1 setlinewidth
0.8 0.8 0.8 setrgbcolor
stroke
75 375.714 moveto
75 375.714 moveto
7.79221 0 rlineto
1 setlinewidth
0.8 0.8 0.8 setrgbcolor
stroke
90.5844 375.714 moveto
7.79221 0 rlineto
1 setlinewidth
0.8 0.8 0.8 setrgbcolor
stroke
106.169 375.714 moveto
7.79221 0 rlineto
1 setlinewidth
0.8 0.8 0.8 setrgbcolor
stroke
121.753 375.714 moveto
7.79221 0 rlineto
1 setlinewidth
0.8 0.8 0.8 setrgbcolor
stroke
137.338 375.714 moveto
7.79221 0 rlineto
1 setlinewidth
0.8 0.8 0.8 setrgbcolor
stroke
152.922 375.714 moveto
7.79221 0 rlineto
1 setlinewidth
0.8 0.8 0.8 setrgbcolor
stroke
168.506 375.714 moveto
7.79221 0 rlineto
1 setlinewidth
0.8 0.8 0.8 setrgbcolor
stroke
184.091 375.714 moveto
7.79221 0 rlineto
1 setlinewidth
0.8 0.8 0.8 setrgbcolor
stroke
199.675 375.714 moveto
7.79221 0 rlineto
1 setlinewidth
0.8 0.8 0.8 setrgbcolor
stroke
215.26 375.714 moveto
7.79221 0 rlineto
1 setlinewidth
0.8 0.8 0.8 setrgbcolor
stroke
230.844 375.714 moveto
7.79221 0 rlineto
1 setlinewidth
0.8 0.8 0.8 setrgbcolor
stroke
246.429 375.714 moveto
7.79221 0 rlineto
1 setlinewidth
0.8 0.8 0.8 setrgbcolor
stroke
262.013 375.714 moveto
7.79221 0 rlineto
1 setlinewidth
0.8 0.8 0.8 setrgbcolor
stroke
277.597 375.714 moveto
7.79221 0 rlineto
1 setlinewidth
0.8 0.8 0.8 setrgbcolor
stroke
293.182 375.714 moveto
7.79221 0 rlineto
1 setlinewidth
0.8 0.8 0.8 setrgbcolor
stroke
308.766 375.714 moveto
7.79221 0 rlineto
1 setlinewidth
0.8 0.8 0.8 setrgbcolor
stroke
324.351 375.714 moveto
7.79221 0 rlineto
1 setlinewidth
0.8 0.8 0.8 setrgbcolor
stroke
339.935 375.714 moveto
7.79221 0 rlineto
1 setlinewidth
0.8 0.8 0.8 setrgbcolor
stroke
355.519 375.714 moveto
7.79221 0 rlineto
1 setlinewidth
0.8 0.8 0.8 setrgbcolor
stroke
371.104 375.714 moveto
7.79221 0 rlineto
1 setlinewidth
0.8 0.8 0.8 setrgbcolor
stroke
386.688 375.714 moveto
7.79221 0 rlineto
1 setlinewidth
0.8 0.8 0.8 setrgbcolor
stroke
402.273 375.714 moveto
7.79221 0 rlineto
1 setlinewidth
0.8 0.8 0.8 setrgbcolor
stroke
417.857 375.714 moveto
7.79221 0 rlineto
1 setlinewidth
0.8 0.8 0.8 setrgbcolor
stroke
433.442 375.714 moveto
7.79221 0 rlineto
1 setlinewidth
0.8 0.8 0.8 setrgbcolor
stroke
449.026 375.714 moveto
7.79221 0 rlineto
1 setlinewidth
0.8 0.8 0.8 setrgbcolor
stroke
464.61 375.714 moveto
7.79221 0 rlineto
1 setlinewidth
0.8 0.8 0.8 setrgbcolor
stroke
480.195 375.714 moveto
7.79221 0 rlineto
1 setlinewidth
0.8 0.8 0.8 setrgbcolor
stroke
495.779 375.714 moveto
7.79221 0 rlineto
1 setlinewidth
0.8 0.8 0.8 setrgbcolor
stroke
511.364 375.714 moveto
7.79221 0 rlineto
1 setlinewidth
0.8 0.8 0.8 setrgbcolor
stroke
526.948 375.714 moveto
7.79221 0 rlineto
1 setlinewidth
0.8 0.8 0.8 setrgbcolor
stroke
542.532 375.714 moveto
7.79221 0 rlineto
1 setlinewidth
0.8 0.8 0.8 setrgbcolor
stroke
558.117 375.714 moveto
7.79221 0 rlineto
1 setlinewidth
0.8 0.8 0.8 setrgbcolor
stroke
573.701 375.714 moveto
7.79221 0 rlineto
1 setlinewidth
0.8 0.8 0.8 setrgbcolor
stroke
589.286 375.714 moveto
7.79221 0 rlineto
1 setlinewidth
0.8 0.8 0.8 setrgbcolor
stroke
604.87 375.714 moveto
7.79221 0 rlineto
1 setlinewidth
0.8 0.8 0.8 setrgbcolor
stroke
620.455 375.714 moveto
7.79221 0 rlineto
1 setlinewidth
0.8 0.8 0.8 setrgbcolor
stroke
636.039 375.714 moveto
7.79221 0 rlineto
1 setlinewidth
0.8 0.8 0.8 setrgbcolor
stroke
651.623 375.714 moveto
7.79221 0 rlineto
1 setlinewidth
0.8 0.8 0.8 setrgbcolor
stroke
667.208 375.714 moveto
7.79221 0 rlineto
1 setlinewidth
0.8 0.8 0.8 setrgbcolor
stroke
75 447.143 moveto
75 447.143 moveto
7.79221 0 rlineto
1 setlinewidth
0.8 0.8 0.8 setrgbcolor
stroke
90.5844 447.143 moveto
7.79221 0 rlineto
1 setlinewidth
0.8 0.8 0.8 setrgbcolor
stroke
106.169 447.143 moveto
7.79221 0 rlineto
1 setlinewidth
0.8 0.8 0.8 setrgbcolor
stroke
121.753 447.143 moveto
7.79221 0 rlineto
1 setlinewidth
0.8 0.8 0.8 setrgbcolor
stroke
137.338 447.143 moveto
7.79221 0 rlineto
1 setlinewidth
0.8 0.8 0.8 setrgbcolor
stroke
152.922 447.143 moveto
7.79221 0 rlineto
1 setlinewidth
0.8 0.8 0.8 setrgbcolor
stroke
168.506 447.143 moveto
7.79221 0 rlineto
1 setlinewidth
0.8 0.8 0.8 setrgbcolor
stroke
184.091 447.143 moveto
7.79221 0 rlineto
1 setlinewidth
0.8 0.8 0.8 setrgbcolor
stroke
199.675 447.143 moveto
7.79221 0 rlineto
1 setlinewidth
0.8 0.8 0.8 setrgbcolor
stroke
215.26 447.143 moveto
7.79221 0 rlineto
1 setlinewidth
0.8 0.8 0.8 setrgbcolor
stroke
230.844 447.143 moveto
7.79221 0 rlineto
1 setlinewidth
0.8 0.8 0.8 setrgbcolor
stroke
246.429 447.143 moveto
7.79221 0 rlineto
1 setlinewidth
0.8 0.8 0.8 setrgbcolor
stroke
262.013 447.143 moveto
7.79221 0 rlineto
1 setlinewidth
0.8 0.8 0.8 setrgbcolor
stroke
277.597 447.143 moveto
7.79221 0 rlineto
1 setlinewidth
0.8 0.8 0.8 setrgbcolor
stroke
293.182 447.143 moveto
7.79221 0 rlineto
1 setlinewidth
0.8 0.8 0.8 setrgbcolor
stroke
308.766 447.143 moveto
7.79221 0 rlineto
1 setlinewidth
0.8 0.8 0.8 setrgbcolor
stroke
324.351 447.143 moveto
7.79221 0 rlineto
1 setlinewidth
0.8 0.8 0.8 setrgbcolor
stroke
339.935 447.143 moveto
7.79221 0 rlineto
1 setlinewidth
0.8 0.8 0.8 setrgbcolor
stroke
355.519 447.143 moveto
7.79221 0 rlineto
1 setlinewidth
0.8 0.8 0.8 setrgbcolor
stroke
371.104 447.143 moveto
7.79221 0 rlineto
1 setlinewidth
0.8 0.8 0.8 setrgbcolor
stroke
386.688 447.143 moveto
7.79221 0 rlineto
1 setlinewidth
0.8 0.8 0.8 setrgbcolor
stroke
402.273 447.143 moveto
7.79221 0 rlineto
1 setlinewidth
0.8 0.8 0.8 setrgbcolor
stroke
417.857 447.143 moveto
7.79221 0 rlineto
1 setlinewidth
0.8 0.8 0.8 setrgbcolor
stroke
433.442 447.143 moveto
7.79221 0 rlineto
1 setlinewidth
0.8 0.8 0.8 setrgbcolor
stroke
449.026 447.143 moveto
7.79221 0 rlineto
1 setlinewidth
0.8 0.8 0.8 setrgbcolor
stroke
464.61 447.143 moveto
7.79221 0 rlineto
1 setlinewidth
0.8 0.8 0.8 setrgbcolor
stroke
480.195 447.143 moveto
7.79221 0 rlineto
1 setlinewidth
0.8 0.8 0.8 setrgbcolor
stroke
495.779 447.143 moveto
7.79221 0 rlineto
1 setlinewidth
0.8 0.8 0.8 setrgbcolor
stroke
511.364 447.143 moveto
7.79221 0 rlineto
1 setlinewidth
0.8 0.8 0.8 setrgbcolor
stroke
526.948 447.143 moveto
7.79221 0 rlineto
1 setlinewidth
0.8 0.8 0.8 setrgbcolor
stroke
542.532 447.143 moveto
7.79221 0 rlineto
1 setlinewidth
0.8 0.8 0.8 setrgbcolor
stroke
558.117 447.143 moveto
7.79221 0 rlineto
1 setlinewidth
0.8 0.8 0.8 setrgbcolor
stroke
573.701 447.143 moveto
7.79221 0 rlineto
1 setlinewidth
0.8 0.8 0.8 setrgbcolor
stroke
589.286 447.143 moveto
7.79221 0 rlineto
1 setlinewidth
0.8 0.8 0.8 setrgbcolor
stroke
604.87 447.143 moveto
7.79221 0 rlineto
1 setlinewidth
0.8 0.8 0.8 setrgbcolor
stroke
620.455 447.143 moveto
7.79221 0 rlineto
1 setlinewidth
0.8 0.8 0.8 setrgbcolor
stroke
636.039 447.143 moveto
7.79221 0 rlineto
1 setlinewidth
0.8 0.8 0.8 setrgbcolor
stroke
651.623 447.143 moveto
7.79221 0 rlineto
1 setlinewidth
0.8 0.8 0.8 setrgbcolor
stroke
667.208 447.143 moveto
7.79221 0 rlineto
1 setlinewidth
0.8 0.8 0.8 setrgbcolor
stroke
75 518.571 moveto
75 518.571 moveto
7.79221 0 rlineto
1 setlinewidth
0.8 0.8 0.8 setrgbcolor
stroke
90.5844 518.571 moveto
7.79221 0 rlineto
1 setlinewidth
0.8 0.8 0.8 setrgbcolor
stroke
106.169 518.571 moveto
7.79221 0 rlineto
1 setlinewidth
0.8 0.8 0.8 setrgbcolor
stroke
121.753 518.571 moveto
7.79221 0 rlineto
1 setlinewidth
0.8 0.8 0.8 setrgbcolor
stroke
137.338 518.571 moveto
7.79221 0 rlineto
1 setlinewidth
0.8 0.8 0.8 setrgbcolor
stroke
152.922 518.571 moveto
7.79221 0 rlineto
1 setlinewidth
0.8 0.8 0.8 setrgbcolor
stroke
168.506 518.571 moveto
7.79221 0 rlineto
1 setlinewidth
0.8 0.8 0.8 setrgbcolor
stroke
184.091 518.571 moveto
7.79221 0 rlineto
1 setlinewidth
0.8 0.8 0.8 setrgbcolor
stroke
199.675 518.571 moveto
7.79221 0 rlineto
1 setlinewidth
0.8 0.8 0.8 setrgbcolor
stroke
215.26 518.571 moveto
7.79221 0 rlineto
1 setlinewidth
0.8 0.8 0.8 setrgbcolor
stroke
230.844 518.571 moveto
7.79221 0 rlineto
1 setlinewidth
0.8 0.8 0.8 setrgbcolor
stroke
246.429 518.571 moveto
7.79221 0 rlineto
1 setlinewidth
0.8 0.8 0.8 setrgbcolor
stroke
262.013 518.571 moveto
7.79221 0 rlineto
1 setlinewidth
0.8 0.8 0.8 setrgbcolor
stroke
277.597 518.571 moveto
7.79221 0 rlineto
1 setlinewidth
0.8 0.8 0.8 setrgbcolor
stroke
293.182 518.571 moveto
7.79221 0 rlineto
1 setlinewidth
0.8 0.8 0.8 setrgbcolor
stroke
308.766 518.571 moveto
7.79221 0 rlineto
1 setlinewidth
0.8 0.8 0.8 setrgbcolor
stroke
324.351 518.571 moveto
7.79221 0 rlineto
1 setlinewidth
0.8 0.8 0.8 setrgbcolor
stroke
339.935 518.571 moveto
7.79221 0 rlineto
1 setlinewidth
0.8 0.8 0.8 setrgbcolor
stroke
355.519 518.571 moveto
7.79221 0 rlineto
1 setlinewidth
0.8 0.8 0.8 setrgbcolor
stroke
371.104 518.571 moveto
7.79221 0 rlineto
1 setlinewidth
0.8 0.8 0.8 setrgbcolor
stroke
386.688 518.571 moveto
7.79221 0 rlineto
1 setlinewidth
0.8 0.8 0.8 setrgbcolor
stroke
402.273 518.571 moveto
7.79221 0 rlineto
1 setlinewidth
0.8 0.8 0.8 setrgbcolor
stroke
417.857 518.571 moveto
7.79221 0 rlineto
1 setlinewidth
0.8 0.8 0.8 setrgbcolor
stroke
433.442 518.571 moveto
7.79221 0 rlineto
1 setlinewidth
0.8 0.8 0.8 setrgbcolor
stroke
449.026 518.571 moveto
7.79221 0 rlineto
1 setlinewidth
0.8 0.8 0.8 setrgbcolor
stroke
464.61 518.571 moveto
7.79221 0 rlineto
1 setlinewidth
0.8 0.8 0.8 setrgbcolor
stroke
480.195 518.571 moveto
7.79221 0 rlineto
1 setlinewidth
0.8 0.8 0.8 setrgbcolor
stroke
495.779 518.571 moveto
7.79221 0 rlineto
1 setlinewidth
0.8 0.8 0.8 setrgbcolor
stroke
511.364 518.571 moveto
7.79221 0 rlineto
1 setlinewidth
0.8 0.8 0.8 setrgbcolor
stroke
526.948 518.571 moveto
7.79221 0 rlineto
1 setlinewidth
0.8 0.8 0.8 setrgbcolor
stroke
542.532 518.571 moveto
7.79221 0 rlineto
1 setlinewidth
0.8 0.8 0.8 setrgbcolor
stroke
558.117 518.571 moveto
7.79221 0 rlineto
1 setlinewidth
0.8 0.8 0.8 setrgbcolor
stroke
573.701 518.571 moveto
7.79221 0 rlineto
1 setlinewidth
0.8 0.8 0.8 setrgbcolor
stroke
589.286 518.571 moveto
7.79221 0 rlineto
1 setlinewidth
0.8 0.8 0.8 setrgbcolor
stroke
604.87 518.571 moveto
7.79221 0 rlineto
1 setlinewidth
0.8 0.8 0.8 setrgbcolor
stroke
620.455 518.571 moveto
7.79221 0 rlineto
1 setlinewidth
0.8 0.8 0.8 setrgbcolor
stroke
636.039 518.571 moveto
7.79221 0 rlineto
1 setlinewidth
0.8 0.8 0.8 setrgbcolor
stroke
651.623 518.571 moveto
7.79221 0 rlineto
1 setlinewidth
0.8 0.8 0.8 setrgbcolor
stroke
667.208 518.571 moveto
7.79221 0 rlineto
1 setlinewidth
0.8 0.8 0.8 setrgbcolor
stroke
75 590 moveto
75 590 moveto
7.79221 0 rlineto
1 setlinewidth
0.8 0.8 0.8 setrgbcolor
stroke
90.5844 590 moveto
7.79221 0 rlineto
1 setlinewidth
0.8 0.8 0.8 setrgbcolor
stroke
106.169 590 moveto
7.79221 0 rlineto
1 setlinewidth
0.8 0.8 0.8 setrgbcolor
stroke
121.753 590 moveto
7.79221 0 rlineto
1 setlinewidth
0.8 0.8 0.8 setrgbcolor
stroke
137.338 590 moveto
7.79221 0 rlineto
1 setlinewidth
0.8 0.8 0.8 setrgbcolor
stroke
152.922 590 moveto
7.79221 0 rlineto
1 setlinewidth
0.8 0.8 0.8 setrgbcolor
stroke
168.506 590 moveto
7.79221 0 rlineto
1 setlinewidth
0.8 0.8 0.8 setrgbcolor
stroke
184.091 590 moveto
7.79221 0 rlineto
1 setlinewidth
0.8 0.8 0.8 setrgbcolor
stroke
199.675 590 moveto
7.79221 0 rlineto
1 setlinewidth
0.8 0.8 0.8 setrgbcolor
stroke
215.26 590 moveto
7.79221 0 rlineto
1 setlinewidth
0.8 0.8 0.8 setrgbcolor
stroke
230.844 590 moveto
7.79221 0 rlineto
1 setlinewidth
0.8 0.8 0.8 setrgbcolor
stroke
246.429 590 moveto
7.79221 0 rlineto
1 setlinewidth
0.8 0.8 0.8 setrgbcolor
stroke
262.013 590 moveto
7.79221 0 rlineto
1 setlinewidth
0.8 0.8 0.8 setrgbcolor
stroke
277.597 590 moveto
7.79221 0 rlineto
1 setlinewidth
0.8 0.8 0.8 setrgbcolor
stroke
293.182 590 moveto
7.79221 0 rlineto
1 setlinewidth
0.8 0.8 0.8 setrgbcolor
stroke
308.766 590 moveto
7.79221 0 rlineto
1 setlinewidth
0.8 0.8 0.8 setrgbcolor
stroke
324.351 590 moveto
7.79221 0 rlineto
1 setlinewidth
0.8 0.8 0.8 setrgbcolor
stroke
339.935 590 moveto
7.79221 0 rlineto
1 setlinewidth
0.8 0.8 0.8 setrgbcolor
stroke
355.519 590 moveto
7.79221 0 rlineto
1 setlinewidth
0.8 0.8 0.8 setrgbcolor
stroke
371.104 590 moveto
7.79221 0 rlineto
1 setlinewidth
0.8 0.8 0.8 setrgbcolor
stroke
386.688 590 moveto
7.79221 0 rlineto
1 setlinewidth
0.8 0.8 0.8 setrgbcolor
stroke
402.273 590 moveto
7.79221 0 rlineto
1 setlinewidth
0.8 0.8 0.8 setrgbcolor
stroke
417.857 590 moveto
7.79221 0 rlineto
1 setlinewidth
0.8 0.8 0.8 setrgbcolor
stroke
433.442 590 moveto
7.79221 0 rlineto
1 setlinewidth
0.8 0.8 0.8 setrgbcolor
stroke
449.026 590 moveto
7.79221 0 rlineto
1 setlinewidth
0.8 0.8 0.8 setrgbcolor
stroke
464.61 590 moveto
7.79221 0 rlineto
1 setlinewidth
0.8 0.8 0.8 setrgbcolor
stroke
480.195 590 moveto
7.79221 0 rlineto
1 setlinewidth
0.8 0.8 0.8 setrgbcolor
stroke
495.779 590 moveto
7.79221 0 rlineto
1 setlinewidth
0.8 0.8 0.8 setrgbcolor
stroke
511.364 590 moveto
7.79221 0 rlineto
1 setlinewidth
0.8 0.8 0.8 setrgbcolor
stroke
526.948 590 moveto
7.79221 0 rlineto
1 setlinewidth
0.8 0.8 0.8 setrgbcolor
stroke
542.532 590 moveto
7.79221 0 rlineto
1 setlinewidth
0.8 0.8 0.8 setrgbcolor
stroke
558.117 590 moveto
7.79221 0 rlineto
1 setlinewidth
0.8 0.8 0.8 setrgbcolor
stroke
573.701 590 moveto
7.79221 0 rlineto
1 setlinewidth
0.8 0.8 0.8 setrgbcolor
stroke
589.286 590 moveto
7.79221 0 rlineto
1 setlinewidth
0.8 0.8 0.8 setrgbcolor
stroke
604.87 590 moveto
7.79221 0 rlineto
1 setlinewidth
0.8 0.8 0.8 setrgbcolor
stroke
620.455 590 moveto
7.79221 0 rlineto
1 setlinewidth
0.8 0.8 0.8 setrgbcolor
stroke
636.039 590 moveto
7.79221 0 rlineto
1 setlinewidth
0.8 0.8 0.8 setrgbcolor
stroke
651.623 590 moveto
7.79221 0 rlineto
1 setlinewidth
0.8 0.8 0.8 setrgbcolor
stroke
667.208 590 moveto
7.79221 0 rlineto
1 setlinewidth
0.8 0.8 0.8 setrgbcolor
stroke
newpath
75 90 moveto
600 0 rlineto
0 500 rlineto
-600 0 rlineto
closepath
1 setlinewidth
0 0 0 setrgbcolor
stroke
/Times findfont
16 scalefont
setfont
375 600 moveto
0 0 0 setrgbcolor
( Histogram of rlnCtfMaxResolution) dup stringwidth pop 2 div neg 0 rmoveto show
75 90 moveto
0 7.81025 rlineto
1 setlinewidth
0 0 0 setrgbcolor
stroke
129.545 90 moveto
0 7.81025 rlineto
1 setlinewidth
0 0 0 setrgbcolor
stroke
184.091 90 moveto
0 7.81025 rlineto
1 setlinewidth
0 0 0 setrgbcolor
stroke
238.636 90 moveto
0 7.81025 rlineto
1 setlinewidth
0 0 0 setrgbcolor
stroke
293.182 90 moveto
0 7.81025 rlineto
1 setlinewidth
0 0 0 setrgbcolor
stroke
347.727 90 moveto
0 7.81025 rlineto
1 setlinewidth
0 0 0 setrgbcolor
stroke
402.273 90 moveto
0 7.81025 rlineto
1 setlinewidth
0 0 0 setrgbcolor
stroke
456.818 90 moveto
0 7.81025 rlineto
1 setlinewidth
0 0 0 setrgbcolor
stroke
511.364 90 moveto
0 7.81025 rlineto
1 setlinewidth
0 0 0 setrgbcolor
stroke
565.909 90 moveto
0 7.81025 rlineto
1 setlinewidth
0 0 0 setrgbcolor
stroke
620.455 90 moveto
0 7.81025 rlineto
1 setlinewidth
0 0 0 setrgbcolor
stroke
675 90 moveto
0 7.81025 rlineto
1 setlinewidth
0 0 0 setrgbcolor
stroke
75 90 moveto
7.81025 0 rlineto
1 setlinewidth
0 0 0 setrgbcolor
stroke
75 161.429 moveto
7.81025 0 rlineto
1 setlinewidth
0 0 0 setrgbcolor
stroke
75 232.857 moveto
7.81025 0 rlineto
1 setlinewidth
0 0 0 setrgbcolor
stroke
75 304.286 moveto
7.81025 0 rlineto
1 setlinewidth
0 0 0 setrgbcolor
stroke
75 375.714 moveto
7.81025 0 rlineto
1 setlinewidth
0 0 0 setrgbcolor
stroke
75 447.143 moveto
7.81025 0 rlineto
1 setlinewidth
0 0 0 setrgbcolor
stroke
75 518.571 moveto
7.81025 0 rlineto
1 setlinewidth
0 0 0 setrgbcolor
stroke
75 590 moveto
7.81025 0 rlineto
1 setlinewidth
0 0 0 setrgbcolor
stroke
/Times findfont
12 scalefont
setfont
75 75 moveto
0 0 0 setrgbcolor
(2.8) dup stringwidth pop 2 div neg 0 rmoveto show
/Times findfont
12 scalefont
setfont
129.545 75 moveto
0 0 0 setrgbcolor
(3.0) dup stringwidth pop 2 div neg 0 rmoveto show
/Times findfont
12 scalefont
setfont
184.091 75 moveto
0 0 0 setrgbcolor
(3.2) dup stringwidth pop 2 div neg 0 rmoveto show
/Times findfont
12 scalefont
setfont
238.636 75 moveto
0 0 0 setrgbcolor
(3.4) dup stringwidth pop 2 div neg 0 rmoveto show
/Times findfont
12 scalefont
setfont
293.182 75 moveto
0 0 0 setrgbcolor
(3.6) dup stringwidth pop 2 div neg 0 rmoveto show
/Times findfont
12 scalefont
setfont
347.727 75 moveto
0 0 0 setrgbcolor
(3.8) dup stringwidth pop 2 div neg 0 rmoveto show
/Times findfont
12 scalefont
setfont
402.273 75 moveto
0 0 0 setrgbcolor
(4.0) dup stringwidth pop 2 div neg 0 rmoveto show
/Times findfont
12 scalefont
setfont
456.818 75 moveto
0 0 0 setrgbcolor
(4.2) dup stringwidth pop 2 div neg 0 rmoveto show
/Times findfont
12 scalefont
setfont
511.364 75 moveto
0 0 0 setrgbcolor
(4.4) dup stringwidth pop 2 div neg 0 rmoveto show
/Times findfont
12 scalefont
setfont
565.909 75 moveto
0 0 0 setrgbcolor
(4.6) dup stringwidth pop 2 div neg 0 rmoveto show
/Times findfont
12 scalefont
setfont
620.455 75 moveto
0 0 0 setrgbcolor
(4.8) dup stringwidth pop 2 div neg 0 rmoveto show
/Times findfont
12 scalefont
setfont
675 75 moveto
0 0 0 setrgbcolor
(5.0) dup stringwidth pop 2 div neg 0 rmoveto show
/Times findfont
12 scalefont
setfont
69 87 moveto
0 0 0 setrgbcolor
(0) dup stringwidth pop neg 0 rmoveto show
/Times findfont
12 scalefont
setfont
69 158.429 moveto
0 0 0 setrgbcolor
(1) dup stringwidth pop neg 0 rmoveto show
/Times findfont
12 scalefont
setfont
69 229.857 moveto
0 0 0 setrgbcolor
(2) dup stringwidth pop neg 0 rmoveto show
/Times findfont
12 scalefont
setfont
69 301.286 moveto
0 0 0 setrgbcolor
(3) dup stringwidth pop neg 0 rmoveto show
/Times findfont
12 scalefont
setfont
69 372.714 moveto
0 0 0 setrgbcolor
(4) dup stringwidth pop neg 0 rmoveto show
/Times findfont
12 scalefont
setfont
69 444.143 moveto
0 0 0 setrgbcolor
(5) dup stringwidth pop neg 0 rmoveto show
/Times findfont
12 scalefont
setfont
69 515.571 moveto
0 0 0 setrgbcolor
(6) dup stringwidth pop neg 0 rmoveto show
/Times findfont
12 scalefont
setfont
69 587 moveto
0 0 0 setrgbcolor
(7) dup stringwidth pop neg 0 rmoveto show
/Times findfont
16 scalefont
setfont
375 58 moveto
0 0 0 setrgbcolor
(rlnCtfMaxResolution) dup stringwidth pop 2 div neg 0 rmoveto show
/Times findfont
16 scalefont
setfont
26 340 moveto
90 rotate
0 0 0 setrgbcolor
(# entries) dup stringwidth pop 2 div neg 0 rmoveto show
-90 rotate
newpath
126.744 90 moveto
126.744 90 lineto
150.111 90 lineto
150.111 90 lineto
150.111 90 lineto
150.111 375.714 lineto
173.477 375.714 lineto
173.477 90 lineto
173.477 90 lineto
173.477 590 lineto
196.844 590 lineto
196.844 90 lineto
196.844 90 lineto
196.844 375.714 lineto
220.21 375.714 lineto
220.21 90 lineto
220.21 90 lineto
220.21 304.286 lineto
243.577 304.286 lineto
243.577 90 lineto
243.577 90 lineto
243.577 232.857 lineto
266.943 232.857 lineto
266.943 90 lineto
266.943 90 lineto
266.943 161.429 lineto
290.309 161.429 lineto
290.309 90 lineto
290.309 90 lineto
290.309 161.429 lineto
313.676 161.429 lineto
313.676 90 lineto
313.676 90 lineto
313.676 90 lineto
337.042 90 lineto
337.042 90 lineto
337.042 90 lineto
337.042 90 lineto
360.409 90 lineto
360.409 90 lineto
360.409 90 lineto
360.409 90 lineto
383.775 90 lineto
383.775 90 lineto
383.775 90 lineto
383.775 90 lineto
407.142 90 lineto
407.142 90 lineto
407.142 90 lineto
407.142 90 lineto
430.508 90 lineto
430.508 90 lineto
430.508 90 lineto
430.508 90 lineto
453.875 90 lineto
453.875 90 lineto
453.875 90 lineto
453.875 90 lineto
477.241 90 lineto
477.241 90 lineto
477.241 90 lineto
477.241 90 lineto
500.608 90 lineto
500.608 90 lineto
500.608 90 lineto
500.608 90 lineto
523.974 90 lineto
523.974 90 lineto
523.974 90 lineto
523.974 90 lineto
547.34 90 lineto
547.34 90 lineto
547.34 90 lineto
547.34 90 lineto
570.707 90 lineto
570.707 90 lineto
570.707 90 lineto
570.707 90 lineto
594.073 90 lineto
594.073 90 lineto
594.073 90 lineto
594.073 90 lineto
617.44 90 lineto
617.44 90 lineto
617.44 90 lineto
617.44 90 lineto
640.806 90 lineto
640.806 90 lineto
640.806 90 lineto
640.806 161.429 lineto
664.173 161.429 lineto
664.173 90 lineto
1 setlinewidth
1 0 0 setrgbcolor
stroke
